# 3ds Max Wavefront OBJ Exporter v0.97b - (c)2007 guruware
# File Created: 16.06.2016 09:31:50

mtllib F2_gazon_02.mtl

#
# object gazon_02
#

v  8.4181 15.1018 -6.5695
v  8.4181 22.6940 -7.0474
v  0.0000 22.6005 -2.6042
v  0.0000 15.0395 -1.0975
v  -8.4181 22.6940 -7.0474
v  -8.4181 15.1018 -6.5695
v  8.4181 7.5096 -6.6746
v  0.0000 7.4786 -0.1738
v  -8.4181 7.5096 -6.6746
v  8.4181 -0.0826 -7.3627
v  -0.0000 -0.0824 0.1668
v  -8.4181 -0.0826 -7.3627
v  8.4181 15.1018 -6.5695
v  8.4181 22.6940 -7.0474
v  0.0000 22.6005 -2.6042
v  0.0000 15.0395 -1.0975
v  -8.4181 22.6940 -7.0474
v  -8.4181 15.1018 -6.5695
v  8.4181 7.5096 -6.6746
v  0.0000 7.4786 -0.1738
v  -8.4181 7.5096 -6.6746
v  8.4181 -0.0826 -7.3627
v  -0.0000 -0.0824 0.1668
v  -8.4181 -0.0826 -7.3627
# 24 vertices

vn -0.3305 -0.0286 -1.0176
vn -0.3713 0.0077 -0.9957
vn 0.0179 -0.0367 -1.0788
vn 0.0181 -0.0577 -1.0809
vn 0.0181 -0.0577 -1.0809
vn 0.0179 -0.0367 -1.0788
vn 0.3378 0.0085 -1.0092
vn 0.2940 0.0027 -1.0259
vn -0.3713 0.0077 -0.9957
vn -0.4231 0.0462 -0.9638
vn 0.0171 0.0059 -1.0726
vn 0.0179 -0.0367 -1.0788
vn 0.0179 -0.0367 -1.0788
vn 0.0171 0.0059 -1.0726
vn 0.3919 0.0481 -0.9783
vn 0.3378 0.0085 -1.0092
vn -0.4231 0.0462 -0.9638
vn -0.4544 0.0772 -0.9395
vn 0.0182 0.0284 -1.0684
vn 0.0171 0.0059 -1.0726
vn 0.0171 0.0059 -1.0726
vn 0.0182 0.0284 -1.0684
vn 0.4286 0.0505 -0.9600
vn 0.3919 0.0481 -0.9783
vn 0.3305 0.0286 1.0176
vn -0.0181 0.0577 1.0809
vn -0.0179 0.0367 1.0788
vn 0.3713 -0.0077 0.9957
vn -0.0181 0.0577 1.0809
vn -0.2940 -0.0027 1.0259
vn -0.3378 -0.0085 1.0092
vn -0.0179 0.0367 1.0788
vn 0.3713 -0.0077 0.9957
vn -0.0179 0.0367 1.0788
vn -0.0171 -0.0059 1.0726
vn 0.4231 -0.0462 0.9638
vn -0.0179 0.0367 1.0788
vn -0.3378 -0.0085 1.0092
vn -0.3919 -0.0481 0.9783
vn -0.0171 -0.0059 1.0726
vn 0.4231 -0.0462 0.9638
vn -0.0171 -0.0059 1.0726
vn -0.0182 -0.0284 1.0684
vn 0.4544 -0.0772 0.9395
vn -0.0171 -0.0059 1.0726
vn -0.3919 -0.0481 0.9783
vn -0.4286 -0.0505 0.9600
vn -0.0182 -0.0284 1.0684
# 48 vertex normals

vt 0.7334 0.2250 0.0000
vt 0.7334 0.3335 0.0000
vt 0.6114 0.3401 0.0000
vt 0.6114 0.2339 0.0000
vt 0.4891 0.3335 0.0000
vt 0.4891 0.2250 0.0000
vt 0.7334 0.1155 0.0000
vt 0.6114 0.1267 0.0000
vt 0.4891 0.1155 0.0000
vt 0.7334 0.0049 0.0000
vt 0.6114 0.0184 0.0000
vt 0.4891 0.0049 0.0000
vt 0.7334 0.2250 0.0000
vt 0.7334 0.3335 0.0000
vt 0.6114 0.3401 0.0000
vt 0.6114 0.2339 0.0000
vt 0.4891 0.3335 0.0000
vt 0.4891 0.2250 0.0000
vt 0.7334 0.1155 0.0000
vt 0.6114 0.1267 0.0000
vt 0.4891 0.1155 0.0000
vt 0.7334 0.0049 0.0000
vt 0.6114 0.0184 0.0000
vt 0.4891 0.0049 0.0000
# 24 texture coords

g gazon_02
usemtl Material__2
s 1
f 2/2/1 1/1/2 4/4/3 3/3/4 
f 3/3/5 4/4/6 6/6/7 5/5/8 
f 1/1/9 7/7/10 8/8/11 4/4/12 
f 4/4/13 8/8/14 9/9/15 6/6/16 
f 7/7/17 10/10/18 11/11/19 8/8/20 
f 8/8/21 11/11/22 12/12/23 9/9/24 
f 14/14/25 15/15/26 16/16/27 13/13/28 
f 15/15/29 17/17/30 18/18/31 16/16/32 
f 13/13/33 16/16/34 20/20/35 19/19/36 
f 16/16/37 18/18/38 21/21/39 20/20/40 
f 19/19/41 20/20/42 23/23/43 22/22/44 
f 20/20/45 21/21/46 24/24/47 23/23/48 
# 12 polygons

