# 3ds Max Wavefront OBJ Exporter v0.97b - (c)2007 guruware
# File Created: 22.02.2016 22:11:17

#
# object Palissade___2M_Curve
#

v  72.1617 -158.8516 0.0000
v  83.4214 -152.8915 0.0000
v  83.1498 -152.6812 71.5453
v  72.1323 -158.5131 71.5315
v  87.4419 -139.9221 0.0000
v  87.0837 -139.9908 71.5696
v  81.8680 -127.5405 0.0000
v  81.6297 -127.8757 71.5900
v  69.9648 -122.9999 0.0000
v  69.9826 -123.4327 71.5948
v  58.7051 -128.9599 0.0000
v  58.9651 -129.2645 71.5810
v  54.6846 -141.9294 0.0000
v  55.0312 -141.9549 71.5567
v  60.2586 -154.3109 0.0000
v  60.4852 -154.0701 71.5362
v  82.8665 -152.5653 143.0912
v  72.0912 -158.2689 143.0642
v  86.7140 -140.1539 143.1387
v  81.3799 -128.3051 143.1787
v  69.9888 -123.9598 143.1879
v  59.2135 -129.6634 143.1609
v  55.3661 -142.0748 143.1135
v  60.7002 -153.9236 143.0734
v  82.5716 -152.5436 214.6376
v  72.0386 -158.1189 214.5979
v  86.3326 -140.4113 214.7071
v  81.1184 -128.8289 214.7659
v  69.9834 -124.5813 214.7794
v  59.4503 -130.1566 214.7398
v  55.6894 -142.2889 214.6702
v  60.9036 -153.8713 214.6115
v  82.2651 -152.6161 286.1841
v  71.9743 -158.0632 286.1325
v  85.9396 -140.7629 286.2748
v  80.8452 -129.4470 286.3513
v  69.9663 -125.2971 286.3689
v  59.6755 -130.7442 286.3173
v  56.0010 -142.5974 286.2267
v  61.0954 -153.9133 286.1501
v  81.9470 -152.7830 357.7308
v  71.8984 -158.1018 357.6678
v  85.5349 -141.2089 357.8414
v  80.5605 -130.1595 357.9349
v  69.9376 -126.1073 357.9564
v  59.8891 -131.4261 357.8933
v  56.3011 -143.0001 357.7828
v  61.2755 -154.0496 357.6893
v  70.8825 -142.3931 399.2122
v  29.6366 -117.9823 0.0000
v  32.6975 -131.3467 0.0000
v  33.6054 -131.6447 70.2203
v  31.0172 -118.3477 70.1719
v  43.4005 -138.9412 0.0000
v  43.9878 -139.1603 70.2546
v  55.4991 -136.3925 0.0000
v  55.9804 -136.2159 70.2546
v  61.9068 -124.9789 0.0000
v  62.6485 -124.8804 70.2203
v  58.8825 -111.2954 0.0000
v  60.1683 -111.8519 70.1719
v  48.3212 -103.4781 0.0000
v  49.8457 -104.6895 70.1376
v  36.0809 -106.2496 0.0000
v  37.7936 -107.2801 70.1376
v  33.1680 -131.8453 140.4388
v  30.3175 -119.0314 140.3440
v  43.5245 -138.6378 140.5059
v  55.1695 -135.6307 140.5059
v  61.4251 -124.4229 140.4388
v  58.7304 -111.6818 140.3440
v  48.4669 -104.7526 140.2770
v  36.7311 -107.8987 140.2770
v  32.6565 -130.9527 210.6550
v  30.2402 -118.2639 210.5160
v  42.4712 -138.3463 210.7533
v  53.9664 -135.7971 210.7533
v  60.3812 -125.0944 210.6550
v  58.0930 -112.5328 210.5160
v  48.1365 -105.4163 210.4177
v  36.7848 -107.6878 210.4177
v  31.1856 -131.7185 280.8680
v  28.6954 -119.4676 280.6870
v  40.8452 -138.4174 280.9960
v  52.1236 -135.7302 280.9960
v  58.2737 -125.3217 280.8680
v  55.5929 -112.8573 280.6870
v  45.7868 -106.0717 280.5588
v  34.6559 -108.8426 280.5588
v  28.0798 -131.8373 351.0771
v  25.8570 -119.6373 350.8561
v  37.5230 -138.9057 351.2334
v  48.3405 -136.8295 351.2334
v  54.4933 -126.7779 351.0771
v  52.2997 -114.6407 350.8561
v  42.8966 -107.4825 350.6998
v  32.0391 -109.6432 350.6998
v  39.9857 -122.9090 391.5717
v  22.2209 -114.1218 0.0000
v  33.4806 -108.1618 0.0000
v  33.0182 -107.7784 73.5235
v  22.1017 -113.5569 73.4834
v  37.5010 -95.1923 0.0000
v  36.9162 -95.2042 73.5305
v  31.9271 -82.8108 0.0000
v  31.5121 -83.2000 73.5002
v  20.0239 -78.2701 0.0000
v  19.9718 -78.7978 73.4504
v  8.7642 -84.2302 0.0000
v  9.0553 -84.5762 73.4103
v  4.7438 -97.1996 0.0000
v  5.1574 -97.1504 73.4033
v  10.3177 -109.5812 0.0000
v  10.5614 -109.1546 73.4336
v  32.3845 -107.3577 147.0427
v  21.8113 -112.9546 146.9649
v  36.1599 -95.1788 147.0563
v  30.9259 -83.5519 146.9976
v  19.7484 -79.2881 146.9012
v  9.1752 -84.8849 146.8235
v  5.3998 -97.0639 146.8099
v  10.6339 -108.6907 146.8685
v  31.5795 -106.8997 220.5569
v  21.3496 -112.3149 220.4441
v  35.2323 -95.1159 220.5766
v  30.1683 -83.8665 220.4915
v  19.3538 -79.7411 220.3516
v  9.1240 -85.1563 220.2388
v  5.4712 -96.9400 220.2191
v  10.5352 -108.1895 220.3041
v  30.6030 -106.4043 294.0654
v  20.7166 -111.6379 293.9200
v  34.1333 -95.0158 294.0908
v  29.2393 -84.1437 293.9812
v  18.7880 -80.1567 293.8008
v  8.9016 -85.3904 293.6554
v  5.3713 -96.7789 293.6301
v  10.2653 -107.6509 293.7396
v  29.4553 -105.8715 354.4552
v  19.9123 -110.9236 354.2797
v  32.8629 -94.8783 354.4858
v  28.1391 -84.3836 354.3535
v  18.0510 -80.5351 354.1360
v  8.5080 -85.5872 353.9604
v  5.1004 -96.5804 353.9299
v  9.8242 -107.0751 354.0621
v  18.4576 -95.6151 396.7049
v  12.0160 -81.1984 -0.0000
v  23.5891 -75.2041 -0.0000
v  19.3811 -74.4469 67.8542
v  8.2316 -80.3136 67.8084
v  27.6838 -62.2482 -0.0000
v  24.2166 -61.8855 67.8898
v  22.2889 -49.8376 -0.0000
v  18.7887 -49.9859 67.8942
v  10.2986 -45.3173 -0.0000
v  7.0931 -45.7387 67.8649
v  -0.8698 -51.3238 -0.0000
v  -3.4889 -51.5939 67.8190
v  -5.0704 -64.3058 -0.0000
v  -7.2987 -64.1214 67.7835
v  0.4303 -76.6903 -0.0000
v  -2.9024 -76.0553 67.7791
v  16.0721 -74.1179 135.7065
v  5.6925 -79.6431 135.6182
v  20.1469 -62.1116 135.7748
v  14.8207 -50.6460 135.7833
v  3.8699 -46.4517 135.7270
v  -6.6085 -51.9795 135.6388
v  -10.1610 -63.9974 135.5704
v  -5.3535 -75.4513 135.5619
v  16.7658 -74.0647 203.5560
v  6.8870 -79.3395 203.4290
v  20.5654 -62.5287 203.6544
v  15.9021 -51.5184 203.6667
v  5.4714 -47.4662 203.5855
v  -4.6672 -52.7701 203.4585
v  -8.5257 -64.3138 203.3601
v  -3.8028 -75.3169 203.3479
v  18.7601 -74.2074 271.4022
v  9.1803 -79.2156 271.2400
v  22.1816 -63.2079 271.5279
v  17.4410 -52.6394 271.5435
v  7.3318 -48.7124 271.4399
v  -2.2765 -53.7903 271.2777
v  -5.7195 -64.8136 271.1520
v  -0.9667 -75.3600 271.1364
v  19.1860 -74.2240 357.4840
v  10.0413 -79.1005 357.2901
v  22.7429 -63.6509 357.6343
v  18.2014 -53.5833 357.6530
v  8.4902 -49.9209 357.5291
v  -0.6387 -54.7867 357.3352
v  -3.9093 -65.3496 357.1850
v  0.3281 -75.4278 357.1663
v  10.2967 -64.8533 396.6499
v  2.8524 -48.8399 0.0000
v  14.1121 -42.8798 0.0000
v  13.1954 -42.2448 70.2042
v  2.6585 -47.8222 70.1163
v  18.1325 -29.9104 0.0000
v  16.9576 -30.1078 70.2872
v  12.5586 -17.5288 0.0000
v  11.7414 -18.5210 70.3166
v  0.6554 -12.9882 0.0000
v  0.6022 -14.2717 70.2752
v  -10.6043 -18.9482 0.0000
v  -9.9347 -19.8491 70.1873
v  -14.6247 -31.9177 0.0000
v  -13.6969 -31.9860 70.1043
v  -9.0508 -44.2992 0.0000
v  -8.4807 -43.5728 70.0749
v  12.2618 -42.0986 140.4048
v  2.2381 -47.4040 140.2375
v  15.8405 -30.5527 140.5627
v  10.8780 -19.5299 140.6187
v  0.2811 -15.4872 140.5399
v  -9.7426 -20.7926 140.3727
v  -13.3213 -32.3385 140.2148
v  -8.3588 -43.3613 140.1588
v  11.3114 -42.4412 210.5996
v  1.5913 -47.5856 210.3563
v  14.7814 -31.2449 210.8293
v  9.9685 -20.5555 210.9107
v  -0.3078 -16.6345 210.7962
v  -10.0279 -21.7789 210.5529
v  -13.4979 -32.9751 210.3232
v  -8.6850 -43.6646 210.2418
v  10.3442 -43.2726 280.7863
v  0.7181 -48.3667 280.4651
v  13.7800 -32.1845 281.0896
v  9.0129 -21.5977 281.1971
v  -1.1646 -17.7137 281.0459
v  -10.7907 -22.8079 280.7246
v  -14.2265 -33.8960 280.4214
v  -9.4594 -44.4828 280.3138
v  9.3603 -44.5928 350.9628
v  -0.3813 -49.7474 350.5563
v  12.8366 -33.3715 351.3464
v  8.0112 -22.6566 351.4825
v  -2.2893 -18.7249 351.2912
v  -12.0309 -23.8794 350.8847
v  -15.5072 -35.1008 350.5010
v  -10.6818 -45.8156 350.3650
v  -2.0915 -35.0493 391.5121
v  0.4124 -16.5229 0.0000
v  11.9828 -10.5147 0.0000
v  12.9383 -9.4524 68.9491
v  1.8347 -15.2758 68.6190
v  16.6182 2.5060 0.0000
v  16.9473 3.2106 69.1559
v  11.3420 14.8922 0.0000
v  11.4235 15.3609 69.1183
v  -0.5244 19.4061 0.0000
v  -0.4234 19.8042 68.8583
v  -11.8216 13.4849 0.0000
v  -11.2450 13.9620 68.5282
v  -16.1393 0.5029 0.0000
v  -15.0879 1.2682 68.3214
v  -11.1808 -11.9220 0.0000
v  -9.7138 -10.8439 68.3590
v  13.2634 -9.3971 137.8559
v  2.4091 -15.0151 137.2103
v  17.6577 3.0122 138.2604
v  12.6448 14.9137 138.1868
v  1.1751 19.3437 137.6783
v  -9.5808 13.6093 137.0328
v  -13.7363 1.1825 136.6283
v  -8.9072 -10.6995 136.7019
v  10.2673 -9.4539 206.6873
v  -0.3163 -15.2536 205.7412
v  13.8503 2.6832 207.2802
v  8.8875 14.2667 207.1724
v  -1.9570 18.3131 206.4271
v  -12.6523 12.5741 205.4809
v  -16.6915 0.4271 204.8881
v  -11.3994 -11.1512 204.9959
v  7.3845 -10.1853 275.4104
v  -2.8936 -15.6115 274.1785
v  11.2639 1.6250 276.1822
v  6.6153 13.0065 276.0419
v  -4.2021 17.1704 275.0716
v  -14.6579 11.9045 273.8397
v  -18.7648 0.1283 273.0679
v  -13.8667 -11.2864 273.2082
v  5.5943 -11.1951 357.0390
v  -4.7127 -16.4698 355.5364
v  9.5716 0.4149 357.9804
v  4.7736 11.4587 357.8092
v  -5.6522 15.5697 356.6256
v  -15.7446 10.3781 355.1231
v  -19.5014 -1.1414 354.1817
v  -15.0630 -12.2748 354.3530
v  -8.8415 -1.1834 395.5848
v  163.1029 -184.4351 0.0000
v  174.3626 -178.4751 0.0000
v  174.0909 -178.2648 71.5453
v  163.0735 -184.0966 71.5315
v  178.3831 -165.5056 0.0000
v  178.0249 -165.5743 71.5696
v  172.8092 -153.1241 0.0000
v  172.5709 -153.4592 71.5900
v  160.9060 -148.5834 0.0000
v  160.9238 -149.0162 71.5948
v  149.6463 -154.5435 0.0000
v  149.9063 -154.8480 71.5810
v  145.6258 -167.5129 0.0000
v  145.9724 -167.5385 71.5567
v  151.1998 -179.8944 0.0000
v  151.4264 -179.6536 71.5362
v  173.8077 -178.1488 143.0912
v  163.0324 -183.8524 143.0642
v  177.6552 -165.7374 143.1387
v  172.3210 -153.8886 143.1787
v  160.9300 -149.5433 143.1879
v  150.1547 -155.2469 143.1609
v  146.3073 -167.6583 143.1135
v  151.6414 -179.5071 143.0734
v  173.5128 -178.1271 214.6376
v  162.9798 -183.7024 214.5979
v  177.2738 -165.9948 214.7071
v  172.0596 -154.4124 214.7659
v  160.9246 -150.1648 214.7794
v  150.3916 -155.7402 214.7398
v  146.6306 -167.8725 214.6702
v  151.8448 -179.4548 214.6115
v  173.2063 -178.1997 286.1841
v  162.9155 -183.6467 286.1325
v  176.8808 -166.3464 286.2748
v  171.7865 -155.0305 286.3513
v  160.9075 -150.8806 286.3689
v  150.6167 -156.3277 286.3173
v  146.9422 -168.1809 286.2267
v  152.0366 -179.4968 286.1501
v  172.8882 -178.3665 357.7308
v  162.8396 -183.6853 357.6678
v  176.4762 -166.7924 357.8414
v  171.5017 -155.7430 357.9349
v  160.8788 -151.6908 357.9564
v  150.8303 -157.0096 357.8933
v  147.2423 -168.5836 357.7828
v  152.2167 -179.6331 357.6893
v  161.8237 -167.9766 399.2122
v  130.6387 -182.4989 0.0000
v  141.8984 -176.5388 0.0000
v  141.4361 -176.1555 73.5235
v  130.5196 -181.9339 73.4834
v  145.9188 -163.5694 0.0000
v  145.3340 -163.5812 73.5305
v  140.3449 -151.1879 0.0000
v  139.9300 -151.5771 73.5002
v  128.4418 -146.6472 0.0000
v  128.3896 -147.1748 73.4504
v  117.1821 -152.6072 0.0000
v  117.4731 -152.9532 73.4103
v  113.1616 -165.5767 0.0000
v  113.5752 -165.5274 73.4033
v  118.7355 -177.9582 0.0000
v  118.9792 -177.5316 73.4336
v  140.8024 -175.7348 147.0427
v  130.2292 -181.3316 146.9649
v  144.5777 -163.5558 147.0563
v  139.3437 -151.9290 146.9976
v  128.1663 -147.6651 146.9012
v  117.5930 -153.2619 146.8235
v  113.8177 -165.4409 146.8099
v  119.0517 -177.0677 146.8685
v  139.9973 -175.2767 220.5569
v  129.7674 -180.6919 220.4441
v  143.6501 -163.4930 220.5766
v  138.5861 -152.2435 220.4915
v  127.7717 -148.1181 220.3516
v  117.5418 -153.5333 220.2388
v  113.8890 -165.3171 220.2191
v  118.9530 -176.5665 220.3041
v  139.0209 -174.7813 294.0654
v  129.1344 -180.0150 293.9200
v  142.5511 -163.3928 294.0908
v  137.6572 -152.5207 293.9812
v  127.2059 -148.5338 293.8008
v  117.3194 -153.7674 293.6554
v  113.7892 -165.1559 293.6301
v  118.6831 -176.0280 293.7396
v  137.8731 -174.2485 354.4552
v  128.3302 -179.3006 354.2797
v  141.2807 -163.2553 354.4858
v  136.5570 -152.7606 354.3535
v  126.4688 -148.9121 354.1360
v  116.9259 -153.9642 353.9604
v  113.5182 -164.9574 353.9299
v  118.2420 -175.4521 354.0621
v  126.8755 -163.9921 396.7049
v  98.7477 -175.4080 0.0000
v  110.0074 -169.4479 0.0000
v  109.0906 -168.8129 70.2042
v  98.5537 -174.3902 70.1163
v  114.0278 -156.4785 0.0000
v  112.8529 -156.6759 70.2872
v  108.4539 -144.0970 0.0000
v  107.6367 -145.0891 70.3166
v  96.5507 -139.5563 0.0000
v  96.4975 -140.8398 70.2752
v  85.2910 -145.5163 0.0000
v  85.9606 -146.4172 70.1873
v  81.2706 -158.4858 0.0000
v  82.1983 -158.5541 70.1043
v  86.8445 -170.8673 0.0000
v  87.4146 -170.1409 70.0749
v  108.1571 -168.6667 140.4048
v  98.1334 -173.9722 140.2375
v  111.7358 -157.1208 140.5627
v  106.7733 -146.0980 140.6187
v  96.1764 -142.0553 140.5399
v  86.1527 -147.3607 140.3727
v  82.5740 -158.9066 140.2148
v  87.5365 -169.9294 140.1588
v  107.2067 -169.0093 210.5996
v  97.4866 -174.1537 210.3563
v  110.6766 -157.8130 210.8293
v  105.8638 -147.1236 210.9107
v  95.5875 -143.2026 210.7962
v  85.8674 -148.3470 210.5529
v  82.3974 -159.5432 210.3232
v  87.2102 -170.2327 210.2418
v  106.2395 -169.8407 280.7863
v  96.6134 -174.9348 280.4651
v  109.6753 -158.7526 281.0896
v  104.9082 -148.1658 281.1971
v  94.7307 -144.2818 281.0459
v  85.1046 -149.3760 280.7246
v  81.6688 -160.4641 280.4213
v  86.4359 -171.0509 280.3138
v  105.2556 -171.1609 350.9628
v  95.5139 -176.3154 350.5563
v  108.7319 -159.9396 351.3464
v  103.9065 -149.2247 351.4824
v  93.6060 -145.2930 351.2911
v  83.8644 -150.4475 350.8847
v  80.3881 -161.6689 350.5010
v  85.2135 -172.3837 350.3650
v  93.8038 -161.6174 391.5121
# 441 vertices

vn 0.0612 -0.9981 0.0056
vn 0.7491 -0.6624 0.0059
vn 0.7491 -0.6624 0.0055
vn 0.0612 -0.9981 0.0048
vn 0.9981 0.0613 0.0065
vn 0.9981 0.0613 0.0067
vn 0.6624 0.7491 0.0070
vn 0.6624 0.7491 0.0076
vn -0.0611 0.9981 0.0071
vn -0.0611 0.9981 0.0079
vn -0.7489 0.6626 0.0068
vn -0.7489 0.6626 0.0072
vn -0.9981 -0.0610 0.0062
vn -0.9981 -0.0610 0.0060
vn -0.6626 -0.7490 0.0057
vn -0.6626 -0.7490 0.0050
vn 0.7491 -0.6624 0.0046
vn 0.0612 -0.9981 0.0033
vn 0.9981 0.0613 0.0070
vn 0.6624 0.7491 0.0089
vn -0.0611 0.9981 0.0094
vn -0.7489 0.6626 0.0081
vn -0.9981 -0.0610 0.0057
vn -0.6626 -0.7490 0.0037
vn 0.7491 -0.6624 0.0038
vn 0.0612 -0.9981 0.0017
vn 0.9981 0.0613 0.0073
vn 0.6624 0.7490 0.0103
vn -0.0611 0.9981 0.0109
vn -0.7489 0.6626 0.0089
vn -0.9981 -0.0610 0.0054
vn -0.6626 -0.7490 0.0024
vn 0.7491 -0.6624 0.0029
vn 0.0612 -0.9981 0.0002
vn 0.9981 0.0613 0.0076
vn 0.6624 0.7490 0.0116
vn -0.0611 0.9981 0.0125
vn -0.7489 0.6626 0.0098
vn -0.9981 -0.0610 0.0051
vn -0.6626 -0.7490 0.0011
vn 0.7491 -0.6624 0.0025
vn 0.0612 -0.9981 -0.0006
vn 0.9981 0.0613 0.0077
vn 0.6624 0.7490 0.0122
vn -0.0611 0.9980 0.0132
vn -0.7489 0.6626 0.0102
vn -0.9981 -0.0610 0.0049
vn -0.6626 -0.7490 0.0005
vn 0.4039 -0.8317 0.3809
vn 0.8714 -0.3031 0.3858
vn 0.8281 0.4012 0.3915
vn 0.2996 0.8686 0.3946
vn -0.4046 0.8255 0.3935
vn -0.8722 0.2971 0.3887
vn -0.8291 -0.4073 0.3830
vn -0.3005 -0.8749 0.3798
vn -0.9878 0.1541 0.0221
vn -0.8168 -0.5769 0.0098
vn -0.8248 -0.5654 0.0054
vn -0.9814 0.1916 0.0119
vn -0.1886 -0.9821 0.0016
vn -0.1744 -0.9847 0.0038
vn 0.5667 -0.8239 -0.0047
vn 0.5750 -0.8181 0.0065
vn 0.9865 -0.1631 -0.0164
vn 0.9828 -0.1844 0.0073
vn 0.8186 0.5743 -0.0108
vn 0.8250 0.5652 0.0054
vn 0.1840 0.9828 0.0136
vn 0.1871 0.9823 0.0108
vn -0.5796 0.8145 0.0269
vn -0.5523 0.8334 0.0167
vn -0.8068 -0.5908 -0.0084
vn -0.9864 0.1638 -0.0103
vn -0.1515 -0.9885 0.0006
vn 0.5878 -0.8089 0.0114
vn 0.9864 -0.1632 0.0174
vn 0.8125 0.5828 0.0164
vn 0.1521 0.9883 0.0049
vn -0.5857 0.8105 -0.0066
vn -0.8333 -0.5527 -0.0110
vn -0.9797 0.2003 -0.0114
vn -0.1932 -0.9812 0.0010
vn 0.5635 -0.8259 0.0169
vn 0.9809 -0.1924 0.0302
vn 0.8299 0.5571 0.0317
vn 0.1961 0.9804 0.0192
vn -0.5460 0.8378 0.0016
vn -0.8174 -0.5746 -0.0412
vn -0.9847 0.1691 -0.0410
vn -0.1698 -0.9853 -0.0164
vn 0.5734 -0.8190 0.0209
vn 0.9839 -0.1720 0.0484
vn 0.8148 0.5777 0.0496
vn 0.1684 0.9855 0.0226
vn -0.5809 0.8138 -0.0159
vn -0.8354 -0.5477 -0.0466
vn -0.9804 0.1913 -0.0461
vn -0.2180 -0.9758 -0.0180
vn 0.5336 -0.8454 0.0254
vn 0.9756 -0.2102 0.0640
vn 0.8349 0.5458 0.0705
vn 0.1959 0.9799 0.0381
vn -0.5607 0.8279 -0.0115
vn -0.9060 -0.1695 0.3878
vn -0.5210 -0.7566 0.3951
vn 0.1624 -0.8993 0.4061
vn 0.7609 -0.5067 0.4054
vn 0.9012 0.1793 0.3946
vn 0.5222 0.7602 0.3865
vn -0.1696 0.9066 0.3865
vn -0.7603 0.5220 0.3866
vn 0.0615 -0.9981 0.0091
vn 0.7491 -0.6624 0.0101
vn 0.7491 -0.6624 0.0114
vn 0.0615 -0.9981 0.0095
vn 0.9981 0.0611 0.0102
vn 0.9981 0.0611 0.0117
vn 0.6627 0.7488 0.0095
vn 0.6627 0.7488 0.0103
vn -0.0608 0.9981 0.0084
vn -0.0608 0.9981 0.0080
vn -0.7489 0.6627 0.0074
vn -0.7489 0.6627 0.0061
vn -0.9981 -0.0613 0.0073
vn -0.9981 -0.0612 0.0058
vn -0.6623 -0.7492 0.0080
vn -0.6623 -0.7492 0.0072
vn 0.7491 -0.6624 0.0140
vn 0.0615 -0.9981 0.0103
vn 0.9980 0.0611 0.0146
vn 0.6627 0.7488 0.0118
vn -0.0609 0.9981 0.0072
vn -0.7489 0.6627 0.0035
vn -0.9981 -0.0612 0.0029
vn -0.6623 -0.7492 0.0057
vn 0.7490 -0.6623 0.0166
vn 0.0614 -0.9981 0.0110
vn 0.9980 0.0611 0.0176
vn 0.6626 0.7488 0.0134
vn -0.0609 0.9981 0.0065
vn -0.7489 0.6627 0.0009
vn -0.9981 -0.0612 -0.0001
vn -0.6623 -0.7492 0.0041
vn 0.7490 -0.6622 0.0215
vn 0.0617 -0.9980 0.0131
vn 0.9979 0.0610 0.0229
vn 0.6628 0.7486 0.0166
vn -0.0606 0.9981 0.0063
vn -0.7488 0.6628 -0.0021
vn -0.9981 -0.0613 -0.0035
vn -0.6621 -0.7494 0.0028
vn 0.7486 -0.6625 0.0250
vn 0.0608 -0.9980 0.0148
vn 0.9978 0.0613 0.0268
vn 0.6622 0.7491 0.0191
vn -0.0614 0.9981 0.0065
vn -0.7491 0.6625 -0.0037
vn -0.9981 -0.0611 -0.0055
vn -0.6627 -0.7489 0.0022
vn 0.4029 -0.8366 0.3712
vn 0.8755 -0.3022 0.3770
vn 0.8319 0.4098 0.3741
vn 0.2976 0.8825 0.3642
vn -0.4143 0.8388 0.3531
vn -0.8870 0.3045 0.3473
vn -0.8433 -0.4076 0.3502
vn -0.3091 -0.8803 0.3601
vn 0.0713 -0.9972 0.0207
vn 0.7467 -0.6624 0.0605
vn 0.7230 -0.6883 0.0596
vn 0.0565 -0.9983 0.0163
vn 0.9965 0.0503 0.0671
vn 0.9967 0.0322 0.0750
vn 0.6735 0.7376 0.0480
vn 0.6548 0.7542 0.0500
vn -0.0520 0.9986 0.0056
vn -0.0763 0.9971 0.0039
vn -0.7414 0.6704 -0.0315
vn -0.7553 0.6544 -0.0373
vn -0.9976 -0.0482 -0.0492
vn -0.9985 -0.0273 -0.0467
vn -0.6562 -0.7538 -0.0328
vn -0.6894 -0.7239 -0.0261
vn 0.7364 -0.6763 0.0206
vn 0.0544 -0.9985 0.0089
vn 0.9982 0.0514 0.0309
vn 0.6515 0.7581 0.0274
vn -0.0715 0.9973 0.0144
vn -0.7575 0.6528 -0.0028
vn -0.9985 -0.0531 -0.0117
vn -0.6789 -0.7342 -0.0037
vn 0.7431 -0.6689 -0.0186
vn 0.0621 -0.9981 0.0014
vn 0.9990 0.0410 -0.0183
vn 0.6717 0.7408 -0.0020
vn -0.0569 0.9981 0.0217
vn -0.7399 0.6714 0.0418
vn -0.9981 -0.0417 0.0444
vn -0.6698 -0.7420 0.0280
vn 0.7484 -0.6630 -0.0179
vn 0.0634 -0.9980 0.0005
vn 0.9981 0.0587 -0.0196
vn 0.6671 0.7449 -0.0023
vn -0.0560 0.9982 0.0204
vn -0.7468 0.6640 0.0362
vn -0.9975 -0.0594 0.0376
vn -0.6598 -0.7511 0.0228
vn 0.7441 -0.6680 -0.0054
vn 0.0702 -0.9975 0.0006
vn 0.9987 0.0502 -0.0061
vn 0.6649 0.7470 0.0019
vn -0.0569 0.9982 0.0166
vn -0.7466 0.6647 0.0269
vn -0.9985 -0.0484 0.0264
vn -0.6668 -0.7451 0.0144
vn 0.4079 -0.8418 0.3536
vn 0.8773 -0.3314 0.3471
vn 0.8385 0.4094 0.3596
vn 0.2950 0.8781 0.3767
vn -0.4108 0.8231 0.3921
vn -0.8694 0.2941 0.3971
vn -0.8365 -0.3814 0.3935
vn -0.3025 -0.8759 0.3758
vn 0.0617 -0.9979 0.0172
vn 0.7494 -0.6618 0.0195
vn 0.7494 -0.6619 0.0169
vn 0.0617 -0.9980 0.0123
vn 0.9979 0.0617 0.0217
vn 0.9979 0.0616 0.0213
vn 0.6624 0.7488 0.0224
vn 0.6624 0.7488 0.0228
vn -0.0606 0.9979 0.0214
vn -0.0607 0.9979 0.0207
vn -0.7484 0.6630 0.0191
vn -0.7485 0.6630 0.0161
vn -0.9980 -0.0607 0.0169
vn -0.9981 -0.0607 0.0117
vn -0.6624 -0.7490 0.0161
vn -0.6625 -0.7490 0.0102
vn 0.7494 -0.6620 0.0118
vn 0.0617 -0.9981 0.0025
vn 0.9979 0.0615 0.0205
vn 0.6624 0.7488 0.0236
vn -0.0607 0.9980 0.0192
vn -0.7486 0.6630 0.0100
vn -0.9982 -0.0607 0.0013
vn -0.6625 -0.7491 -0.0018
vn 0.7495 -0.6620 0.0066
vn 0.0618 -0.9981 -0.0073
vn 0.9979 0.0615 0.0197
vn 0.6624 0.7488 0.0244
vn -0.0607 0.9980 0.0178
vn -0.7486 0.6630 0.0040
vn -0.9981 -0.0606 -0.0091
vn -0.6624 -0.7490 -0.0138
vn 0.7495 -0.6620 0.0015
vn 0.0619 -0.9979 -0.0170
vn 0.9979 0.0615 0.0189
vn 0.6623 0.7488 0.0251
vn -0.0607 0.9980 0.0164
vn -0.7485 0.6631 -0.0021
vn -0.9980 -0.0605 -0.0196
vn -0.6623 -0.7488 -0.0258
vn 0.7494 -0.6621 -0.0011
vn 0.0618 -0.9978 -0.0219
vn 0.9979 0.0613 0.0186
vn 0.6623 0.7488 0.0255
vn -0.0609 0.9980 0.0157
vn -0.7486 0.6630 -0.0051
vn -0.9979 -0.0606 -0.0248
vn -0.6621 -0.7487 -0.0318
vn 0.3968 -0.8385 0.3736
vn 0.8643 -0.3088 0.3970
vn 0.8204 0.3960 0.4124
vn 0.2916 0.8638 0.4108
vn -0.4133 0.8214 0.3931
vn -0.8819 0.2926 0.3696
vn -0.8389 -0.4133 0.3541
vn -0.3089 -0.8820 0.3558
vn 0.0447 -0.9988 0.0207
vn 0.7295 -0.6840 0.0033
vn 0.7465 -0.6654 -0.0047
vn 0.0598 -0.9981 0.0110
vn 0.9996 0.0272 -0.0038
vn 0.9981 0.0595 -0.0136
vn 0.6708 0.7416 -0.0065
vn 0.6576 0.7533 -0.0100
vn -0.0611 0.9981 -0.0055
vn -0.0706 0.9975 0.0012
vn -0.7440 0.6682 0.0057
vn -0.7532 0.6577 0.0127
vn -0.9992 -0.0330 0.0246
vn -0.9981 -0.0578 0.0195
vn -0.6848 -0.7280 0.0336
vn -0.6666 -0.7452 0.0202
vn 0.7361 -0.6765 0.0213
vn 0.0649 -0.9979 0.0023
vn 0.9991 0.0282 0.0312
vn 0.6781 0.7345 0.0252
vn -0.0506 0.9986 0.0124
vn -0.7368 0.6762 -0.0014
vn -0.9995 -0.0311 -0.0111
vn -0.6722 -0.7403 -0.0103
vn 0.7561 -0.6535 0.0342
vn 0.0715 -0.9974 -0.0030
vn 0.9968 0.0567 0.0563
vn 0.6633 0.7467 0.0489
vn -0.0687 0.9975 0.0135
vn -0.7435 0.6682 -0.0265
vn -0.9974 -0.0526 -0.0491
vn -0.6570 -0.7529 -0.0381
vn 0.7405 -0.6717 0.0214
vn 0.0538 -0.9985 -0.0068
vn 0.9986 0.0344 0.0406
vn 0.6747 0.7369 0.0410
vn -0.0544 0.9983 0.0206
vn -0.7314 0.6819 -0.0064
vn -0.9992 -0.0308 -0.0263
vn -0.6746 -0.7376 -0.0274
vn 0.7437 -0.6684 0.0122
vn 0.0637 -0.9979 -0.0100
vn 0.9987 0.0417 0.0286
vn 0.6795 0.7329 0.0341
vn -0.0340 0.9992 0.0230
vn -0.7298 0.6837 0.0018
vn -0.9996 -0.0262 -0.0141
vn -0.6762 -0.7364 -0.0211
vn 0.3479 -0.8380 0.4204
vn 0.8042 -0.3390 0.4881
vn 0.7765 0.3721 0.5085
vn 0.2619 0.8495 0.4579
vn -0.4328 0.8225 0.3691
vn -0.9038 0.3062 0.2988
vn -0.8798 -0.3756 0.2912
vn -0.3497 -0.8712 0.3446
vn 0.6624 0.7490 0.0102
# 337 vertex normals

vt 0.0111 0.0604 0.0000
vt 0.0113 0.0374 0.0000
vt 0.1131 0.0389 0.0000
vt 0.1128 0.0614 0.0000
vt 0.0117 0.0145 0.9986
vt 0.1135 0.0164 0.0000
vt 0.0117 0.1981 0.9986
vt 0.0113 0.1752 0.0000
vt 0.1131 0.1737 0.0000
vt 0.1135 0.1961 0.0000
vt 0.0110 0.1522 0.0000
vt 0.1128 0.1512 0.0000
vt 0.0109 0.1292 0.0000
vt 0.1126 0.1288 0.0000
vt 0.0108 0.1063 0.0000
vt 0.1126 0.1063 0.0000
vt 0.0109 0.0833 0.0000
vt 0.1126 0.0838 0.0000
vt 0.2148 0.0404 0.0000
vt 0.2146 0.0623 0.0000
vt 0.2152 0.0184 0.0000
vt 0.2149 0.1722 0.0000
vt 0.2152 0.1941 0.0000
vt 0.2146 0.1502 0.0000
vt 0.2144 0.1283 0.0000
vt 0.2144 0.1063 0.0000
vt 0.2144 0.0843 0.0000
vt 0.3166 0.0418 0.0000
vt 0.3163 0.0633 0.0000
vt 0.3170 0.0204 0.0000
vt 0.3166 0.1707 0.0000
vt 0.3170 0.1921 0.0000
vt 0.3164 0.1492 0.0000
vt 0.3162 0.1277 0.0000
vt 0.3161 0.1063 0.0000
vt 0.3162 0.0848 0.0000
vt 0.4184 0.0433 0.0000
vt 0.4181 0.0643 0.0000
vt 0.4187 0.0223 0.0000
vt 0.4184 0.1692 0.0000
vt 0.4187 0.1902 0.0000
vt 0.4181 0.1482 0.0000
vt 0.4180 0.1272 0.0000
vt 0.4179 0.1063 0.0000
vt 0.4180 0.0853 0.0000
vt 0.5201 0.0448 0.0000
vt 0.5198 0.0653 0.0000
vt 0.5205 0.0243 0.0000
vt 0.5201 0.1677 0.0000
vt 0.5205 0.1882 0.0000
vt 0.5199 0.1472 0.0000
vt 0.5197 0.1267 0.0000
vt 0.5197 0.1062 0.0000
vt 0.5197 0.0858 0.0000
vt 0.7596 0.9597 0.2681
vt 0.7150 0.9435 0.0000
vt 0.7877 0.8127 0.0000
vt 0.6777 0.9142 0.0000
vt 0.9358 0.7906 0.0000
vt 0.9353 0.8380 0.0000
vt 0.9200 0.8829 0.2681
vt 0.8914 0.9207 0.0000
vt 0.8524 0.9477 0.0000
vt 0.8070 0.9611 0.0000
vt 0.0096 0.4738 0.0000
vt 0.0102 0.4508 0.0000
vt 0.1106 0.4526 0.0000
vt 0.1101 0.4755 0.0000
vt 0.0110 0.4276 1.0013
vt 0.1111 0.4299 0.0000
vt 0.0110 0.6117 1.0013
vt 0.0109 0.5891 0.0000
vt 0.1107 0.5875 0.0000
vt 0.1111 0.6100 0.0000
vt 0.0107 0.5665 0.0000
vt 0.1103 0.5650 0.0000
vt 0.0103 0.5430 0.0000
vt 0.1100 0.5429 0.0000
vt 0.0097 0.5198 0.0000
vt 0.1098 0.5207 0.0000
vt 0.0094 0.4968 0.0000
vt 0.1098 0.4981 0.0000
vt 0.2109 0.4536 0.0000
vt 0.2105 0.4755 0.0000
vt 0.2112 0.4316 0.0000
vt 0.2104 0.5855 0.0000
vt 0.2111 0.6074 0.0000
vt 0.2099 0.5634 0.0000
vt 0.2096 0.5416 0.0000
vt 0.2097 0.5197 0.0000
vt 0.2101 0.4976 0.0000
vt 0.3109 0.4563 0.0000
vt 0.3104 0.4780 0.0000
vt 0.3111 0.4346 0.0000
vt 0.3102 0.5846 0.0000
vt 0.3111 0.6060 0.0000
vt 0.3094 0.5633 0.0000
vt 0.3090 0.5421 0.0000
vt 0.3092 0.5206 0.0000
vt 0.3098 0.4995 0.0000
vt 0.4112 0.4571 0.0000
vt 0.4107 0.4781 0.0000
vt 0.4111 0.4363 0.0000
vt 0.4097 0.5826 0.0000
vt 0.4111 0.6036 0.0000
vt 0.4085 0.5619 0.0000
vt 0.4081 0.5408 0.0000
vt 0.4086 0.5198 0.0000
vt 0.4096 0.4990 0.0000
vt 0.5114 0.4594 0.0000
vt 0.5108 0.4801 0.0000
vt 0.5111 0.4386 0.0000
vt 0.5096 0.5823 0.0000
vt 0.5111 0.6023 0.0000
vt 0.5082 0.5620 0.0000
vt 0.5077 0.5414 0.0000
vt 0.5082 0.5205 0.0000
vt 0.5095 0.5004 0.0000
vt 0.0803 0.9405 0.2671
vt 0.0478 0.9051 0.0000
vt 0.1699 0.8236 0.0000
vt 0.0279 0.8613 0.0000
vt 0.3104 0.8664 0.0000
vt 0.2904 0.9085 0.0000
vt 0.2576 0.9421 0.2671
vt 0.2151 0.9639 0.0000
vt 0.1674 0.9713 0.0000
vt 0.1214 0.9632 0.0000
vt 0.6857 0.0111 0.0000
vt 0.7086 0.0114 0.0000
vt 0.7066 0.1159 0.0000
vt 0.6843 0.1155 0.0000
vt 0.7316 0.0119 0.9981
vt 0.7288 0.1164 0.0000
vt 0.5480 0.0119 0.9981
vt 0.5710 0.0114 0.0000
vt 0.5730 0.1159 0.0000
vt 0.5508 0.1164 0.0000
vt 0.5939 0.0111 0.0000
vt 0.5953 0.1155 0.0000
vt 0.6169 0.0109 0.0000
vt 0.6175 0.1153 0.0000
vt 0.6398 0.0108 0.0000
vt 0.6398 0.1152 0.0000
vt 0.6627 0.0109 0.0000
vt 0.6621 0.1153 0.0000
vt 0.7045 0.2204 0.0000
vt 0.6829 0.2200 0.0000
vt 0.7260 0.2209 0.0000
vt 0.5751 0.2204 0.0000
vt 0.5535 0.2209 0.0000
vt 0.5966 0.2200 0.0000
vt 0.6182 0.2198 0.0000
vt 0.6398 0.2197 0.0000
vt 0.6614 0.2198 0.0000
vt 0.7024 0.3249 0.0000
vt 0.6815 0.3245 0.0000
vt 0.7232 0.3254 0.0000
vt 0.5772 0.3249 0.0000
vt 0.5563 0.3254 0.0000
vt 0.5980 0.3245 0.0000
vt 0.6189 0.3243 0.0000
vt 0.6398 0.3242 0.0000
vt 0.6607 0.3243 0.0000
vt 0.7002 0.4293 0.0000
vt 0.6801 0.4290 0.0000
vt 0.7203 0.4299 0.0000
vt 0.5793 0.4293 0.0000
vt 0.5592 0.4299 0.0000
vt 0.5995 0.4290 0.0000
vt 0.6196 0.4288 0.0000
vt 0.6398 0.4287 0.0000
vt 0.6599 0.4288 0.0000
vt 0.6981 0.5152 0.0000
vt 0.6786 0.5148 0.0000
vt 0.7175 0.5157 0.0000
vt 0.5814 0.5151 0.0000
vt 0.5620 0.5157 0.0000
vt 0.6009 0.5148 0.0000
vt 0.6203 0.5145 0.0000
vt 0.6398 0.5144 0.0000
vt 0.6592 0.5145 0.0000
vt 0.9863 0.7001 0.2302
vt 0.9773 0.7442 0.0000
vt 0.8348 0.6920 0.0000
vt 0.9557 0.7837 0.0000
vt 0.8102 0.5422 0.0000
vt 0.8552 0.5416 0.0000
vt 0.8985 0.5542 0.2302
vt 0.9361 0.5790 0.0000
vt 0.9648 0.6137 0.0000
vt 0.9821 0.6553 0.0000
vt 0.0100 0.2636 0.0000
vt 0.0093 0.2399 0.0000
vt 0.1067 0.2435 0.0000
vt 0.1072 0.2663 0.0000
vt 0.0098 0.2167 1.0059
vt 0.1072 0.2205 0.0000
vt 0.0098 0.4017 1.0059
vt 0.0097 0.3787 0.0000
vt 0.1069 0.3756 0.0000
vt 0.1071 0.3978 0.0000
vt 0.0104 0.3554 0.0000
vt 0.1075 0.3532 0.0000
vt 0.0112 0.3324 0.0000
vt 0.1082 0.3314 0.0000
vt 0.0115 0.3092 0.0000
vt 0.1084 0.3093 0.0000
vt 0.0110 0.2861 0.0000
vt 0.1080 0.2878 0.0000
vt 0.2037 0.2469 0.0000
vt 0.2035 0.2680 0.0000
vt 0.2043 0.2254 0.0000
vt 0.2037 0.3717 0.0000
vt 0.2042 0.3931 0.0000
vt 0.2035 0.3507 0.0000
vt 0.2035 0.3299 0.0000
vt 0.2035 0.3093 0.0000
vt 0.2034 0.2889 0.0000
vt 0.3003 0.2487 0.0000
vt 0.2993 0.2689 0.0000
vt 0.3010 0.2281 0.0000
vt 0.3001 0.3704 0.0000
vt 0.3009 0.3906 0.0000
vt 0.2991 0.3504 0.0000
vt 0.2982 0.3299 0.0000
vt 0.2980 0.3094 0.0000
vt 0.2984 0.2894 0.0000
vt 0.3971 0.2504 0.0000
vt 0.3960 0.2699 0.0000
vt 0.3978 0.2308 0.0000
vt 0.3968 0.3685 0.0000
vt 0.3977 0.3881 0.0000
vt 0.3958 0.3488 0.0000
vt 0.3949 0.3291 0.0000
vt 0.3947 0.3094 0.0000
vt 0.3951 0.2896 0.0000
vt 0.5198 0.2535 0.0000
vt 0.5190 0.2722 0.0000
vt 0.5206 0.2345 0.0000
vt 0.5198 0.3656 0.0000
vt 0.5205 0.3843 0.0000
vt 0.5189 0.3469 0.0000
vt 0.5182 0.3282 0.0000
vt 0.5179 0.3094 0.0000
vt 0.5182 0.2909 0.0000
vt 0.7537 0.5620 0.2176
vt 0.7837 0.5932 0.0000
vt 0.6732 0.6775 0.0000
vt 0.8043 0.6318 0.0000
vt 0.5424 0.6306 0.0000
vt 0.5624 0.5923 0.0000
vt 0.5927 0.5613 0.2176
vt 0.6309 0.5412 0.0000
vt 0.6736 0.5343 0.0000
vt 0.7157 0.5412 0.0000
vt 0.8098 0.5139 0.0000
vt 0.7869 0.5134 0.0000
vt 0.7903 0.4137 0.0000
vt 0.8118 0.4142 0.0000
vt 0.7640 0.5125 0.9958
vt 0.7688 0.4129 0.0000
vt 0.9471 0.5113 0.9958
vt 0.9242 0.5126 0.0000
vt 0.9195 0.4128 0.0000
vt 0.9409 0.4118 0.0000
vt 0.9014 0.5135 0.0000
vt 0.8980 0.4136 0.0000
vt 0.8785 0.5140 0.0000
vt 0.8765 0.4141 0.0000
vt 0.8556 0.5142 0.0000
vt 0.8549 0.4144 0.0000
vt 0.8327 0.5142 0.0000
vt 0.8333 0.4144 0.0000
vt 0.7927 0.3139 0.0000
vt 0.8132 0.3141 0.0000
vt 0.7723 0.3134 0.0000
vt 0.9157 0.3130 0.0000
vt 0.9361 0.3123 0.0000
vt 0.8953 0.3136 0.0000
vt 0.8748 0.3140 0.0000
vt 0.8543 0.3142 0.0000
vt 0.8337 0.3143 0.0000
vt 0.7940 0.2141 0.0000
vt 0.8138 0.2141 0.0000
vt 0.7742 0.2139 0.0000
vt 0.9131 0.2133 0.0000
vt 0.9329 0.2129 0.0000
vt 0.8933 0.2136 0.0000
vt 0.8735 0.2139 0.0000
vt 0.8536 0.2140 0.0000
vt 0.8337 0.2141 0.0000
vt 0.7939 0.1143 0.0000
vt 0.8136 0.1142 0.0000
vt 0.7744 0.1145 0.0000
vt 0.9118 0.1136 0.0000
vt 0.9314 0.1134 0.0000
vt 0.8922 0.1137 0.0000
vt 0.8726 0.1139 0.0000
vt 0.8529 0.1140 0.0000
vt 0.8332 0.1141 0.0000
vt 0.7929 0.0148 0.0000
vt 0.8127 0.0147 0.0000
vt 0.7731 0.0150 0.0000
vt 0.9115 0.0140 0.0000
vt 0.9313 0.0140 0.0000
vt 0.8917 0.0141 0.0000
vt 0.8720 0.0142 0.0000
vt 0.8522 0.0144 0.0000
vt 0.8324 0.0145 0.0000
vt 0.6301 0.8251 0.2605
vt 0.5882 0.8061 0.0000
vt 0.6695 0.6841 0.0000
vt 0.5543 0.7750 0.0000
vt 0.8160 0.6772 0.0000
vt 0.8110 0.7229 0.0000
vt 0.7920 0.7648 0.2605
vt 0.7609 0.7987 0.0000
vt 0.7208 0.8212 0.0000
vt 0.6757 0.8304 0.0000
vt 0.5233 0.7666 0.0000
vt 0.5226 0.7901 0.0000
vt 0.4243 0.7894 0.0000
vt 0.4253 0.7667 0.0000
vt 0.5219 0.8136 1.0004
vt 0.4235 0.8118 0.0000
vt 0.5217 0.6296 1.0004
vt 0.5221 0.6524 0.0000
vt 0.4237 0.6544 0.0000
vt 0.4233 0.6319 0.0000
vt 0.5225 0.6753 0.0000
vt 0.4246 0.6772 0.0000
vt 0.5231 0.6983 0.0000
vt 0.4256 0.6993 0.0000
vt 0.5236 0.7215 0.0000
vt 0.4261 0.7217 0.0000
vt 0.5237 0.7441 0.0000
vt 0.4260 0.7443 0.0000
vt 0.3261 0.7883 0.0000
vt 0.3268 0.7661 0.0000
vt 0.3254 0.8106 0.0000
vt 0.3257 0.6544 0.0000
vt 0.3252 0.6327 0.0000
vt 0.3264 0.6766 0.0000
vt 0.3271 0.6989 0.0000
vt 0.3274 0.7217 0.0000
vt 0.3273 0.7439 0.0000
vt 0.2281 0.7865 0.0000
vt 0.2288 0.7648 0.0000
vt 0.2273 0.8078 0.0000
vt 0.2277 0.6579 0.0000
vt 0.2272 0.6367 0.0000
vt 0.2282 0.6787 0.0000
vt 0.2287 0.7005 0.0000
vt 0.2291 0.7221 0.0000
vt 0.2291 0.7435 0.0000
vt 0.1305 0.7842 0.0000
vt 0.1318 0.7634 0.0000
vt 0.1296 0.8052 0.0000
vt 0.1301 0.6590 0.0000
vt 0.1295 0.6384 0.0000
vt 0.1312 0.6797 0.0000
vt 0.1323 0.7007 0.0000
vt 0.1329 0.7215 0.0000
vt 0.1327 0.7423 0.0000
vt 0.0149 0.7827 0.0000
vt 0.0166 0.7619 0.0000
vt 0.0138 0.8034 0.0000
vt 0.0143 0.6608 0.0000
vt 0.0136 0.6405 0.0000
vt 0.0159 0.6809 0.0000
vt 0.0176 0.7013 0.0000
vt 0.0186 0.7217 0.0000
vt 0.0181 0.7418 0.0000
vt 0.3926 0.9466 0.2668
vt 0.3598 0.9107 0.0000
vt 0.4830 0.8327 0.0000
vt 0.3406 0.8665 0.0000
vt 0.6238 0.8731 0.0000
vt 0.6030 0.9154 0.0000
vt 0.5696 0.9482 0.2668
vt 0.5269 0.9692 0.0000
vt 0.4798 0.9762 0.0000
vt 0.4336 0.9689 0.0000
# 384 texture coords

g Palissade___2M_Curve
s 8
f 1/1/1 2/2/2 3/3/3 4/4/4 
f 2/2/2 5/5/5 6/6/6 3/3/3 
f 5/7/5 7/8/7 8/9/8 6/10/6 
f 7/8/7 9/11/9 10/12/10 8/9/8 
f 9/11/9 11/13/11 12/14/12 10/12/10 
f 11/13/11 13/15/13 14/16/14 12/14/12 
f 13/15/13 15/17/15 16/18/16 14/16/14 
f 15/17/15 1/1/1 4/4/4 16/18/16 
f 4/4/4 3/3/3 17/19/17 18/20/18 
f 3/3/3 6/6/6 19/21/19 17/19/17 
f 6/10/6 8/9/8 20/22/20 19/23/19 
f 8/9/8 10/12/10 21/24/21 20/22/20 
f 10/12/10 12/14/12 22/25/22 21/24/21 
f 12/14/12 14/16/14 23/26/23 22/25/22 
f 14/16/14 16/18/16 24/27/24 23/26/23 
f 16/18/16 4/4/4 18/20/18 24/27/24 
f 18/20/18 17/19/17 25/28/25 26/29/26 
f 17/19/17 19/21/19 27/30/27 25/28/25 
f 19/23/19 20/22/20 28/31/28 27/32/27 
f 20/22/20 21/24/21 29/33/29 28/31/28 
f 21/24/21 22/25/22 30/34/30 29/33/29 
f 22/25/22 23/26/23 31/35/31 30/34/30 
f 23/26/23 24/27/24 32/36/32 31/35/31 
f 24/27/24 18/20/18 26/29/26 32/36/32 
f 26/29/26 25/28/25 33/37/33 34/38/34 
f 25/28/25 27/30/27 35/39/35 33/37/33 
f 27/32/27 28/31/28 36/40/36 35/41/35 
f 28/31/28 29/33/29 37/42/37 36/40/36 
f 29/33/29 30/34/30 38/43/38 37/42/37 
f 30/34/30 31/35/31 39/44/39 38/43/38 
f 31/35/31 32/36/32 40/45/40 39/44/39 
f 32/36/32 26/29/26 34/38/34 40/45/40 
f 34/38/34 33/37/33 41/46/41 42/47/42 
f 33/37/33 35/39/35 43/48/43 41/46/41 
f 35/41/35 36/40/36 44/49/44 43/50/43 
f 36/40/36 37/42/37 45/51/45 44/49/44 
f 37/42/37 38/43/38 46/52/46 45/51/45 
f 38/43/38 39/44/39 47/53/47 46/52/46 
f 39/44/39 40/45/40 48/54/48 47/53/47 
f 40/45/40 34/38/34 42/47/42 48/54/48 
s off
f 42/55/49 41/56/49 49/57/49 
f 41/56/50 43/58/50 49/57/50 
f 43/59/51 44/60/51 49/57/51 
f 44/60/52 45/61/52 49/57/52 
f 45/61/53 46/62/53 49/57/53 
f 46/62/54 47/63/54 49/57/54 
f 47/63/55 48/64/55 49/57/55 
f 48/64/56 42/55/56 49/57/56 
s 8
f 50/65/57 51/66/58 52/67/59 53/68/60 
f 51/66/58 54/69/61 55/70/62 52/67/59 
f 54/71/61 56/72/63 57/73/64 55/74/62 
f 56/72/63 58/75/65 59/76/66 57/73/64 
f 58/75/65 60/77/67 61/78/68 59/76/66 
f 60/77/67 62/79/69 63/80/70 61/78/68 
f 62/79/69 64/81/71 65/82/72 63/80/70 
f 64/81/71 50/65/57 53/68/60 65/82/72 
f 53/68/60 52/67/59 66/83/73 67/84/74 
f 52/67/59 55/70/62 68/85/75 66/83/73 
f 55/74/62 57/73/64 69/86/76 68/87/75 
f 57/73/64 59/76/66 70/88/77 69/86/76 
f 59/76/66 61/78/68 71/89/78 70/88/77 
f 61/78/68 63/80/70 72/90/79 71/89/78 
f 63/80/70 65/82/72 73/91/80 72/90/79 
f 65/82/72 53/68/60 67/84/74 73/91/80 
f 67/84/74 66/83/73 74/92/81 75/93/82 
f 66/83/73 68/85/75 76/94/83 74/92/81 
f 68/87/75 69/86/76 77/95/84 76/96/83 
f 69/86/76 70/88/77 78/97/85 77/95/84 
f 70/88/77 71/89/78 79/98/86 78/97/85 
f 71/89/78 72/90/79 80/99/87 79/98/86 
f 72/90/79 73/91/80 81/100/88 80/99/87 
f 73/91/80 67/84/74 75/93/82 81/100/88 
f 75/93/82 74/92/81 82/101/89 83/102/90 
f 74/92/81 76/94/83 84/103/91 82/101/89 
f 76/96/83 77/95/84 85/104/92 84/105/91 
f 77/95/84 78/97/85 86/106/93 85/104/92 
f 78/97/85 79/98/86 87/107/94 86/106/93 
f 79/98/86 80/99/87 88/108/95 87/107/94 
f 80/99/87 81/100/88 89/109/96 88/108/95 
f 81/100/88 75/93/82 83/102/90 89/109/96 
f 83/102/90 82/101/89 90/110/97 91/111/98 
f 82/101/89 84/103/91 92/112/99 90/110/97 
f 84/105/91 85/104/92 93/113/100 92/114/99 
f 85/104/92 86/106/93 94/115/101 93/113/100 
f 86/106/93 87/107/94 95/116/102 94/115/101 
f 87/107/94 88/108/95 96/117/103 95/116/102 
f 88/108/95 89/109/96 97/118/104 96/117/103 
f 89/109/96 83/102/90 91/111/98 97/118/104 
s off
f 91/119/105 90/120/105 98/121/105 
f 90/120/106 92/122/106 98/121/106 
f 92/123/107 93/124/107 98/121/107 
f 93/124/108 94/125/108 98/121/108 
f 94/125/109 95/126/109 98/121/109 
f 95/126/110 96/127/110 98/121/110 
f 96/127/111 97/128/111 98/121/111 
f 97/128/112 91/119/112 98/121/112 
s 8
f 99/129/113 100/130/114 101/131/115 102/132/116 
f 100/130/114 103/133/117 104/134/118 101/131/115 
f 103/135/117 105/136/119 106/137/120 104/138/118 
f 105/136/119 107/139/121 108/140/122 106/137/120 
f 107/139/121 109/141/123 110/142/124 108/140/122 
f 109/141/123 111/143/125 112/144/126 110/142/124 
f 111/143/125 113/145/127 114/146/128 112/144/126 
f 113/145/127 99/129/113 102/132/116 114/146/128 
f 102/132/116 101/131/115 115/147/129 116/148/130 
f 101/131/115 104/134/118 117/149/131 115/147/129 
f 104/138/118 106/137/120 118/150/132 117/151/131 
f 106/137/120 108/140/122 119/152/133 118/150/132 
f 108/140/122 110/142/124 120/153/134 119/152/133 
f 110/142/124 112/144/126 121/154/135 120/153/134 
f 112/144/126 114/146/128 122/155/136 121/154/135 
f 114/146/128 102/132/116 116/148/130 122/155/136 
f 116/148/130 115/147/129 123/156/137 124/157/138 
f 115/147/129 117/149/131 125/158/139 123/156/137 
f 117/151/131 118/150/132 126/159/140 125/160/139 
f 118/150/132 119/152/133 127/161/141 126/159/140 
f 119/152/133 120/153/134 128/162/142 127/161/141 
f 120/153/134 121/154/135 129/163/143 128/162/142 
f 121/154/135 122/155/136 130/164/144 129/163/143 
f 122/155/136 116/148/130 124/157/138 130/164/144 
f 124/157/138 123/156/137 131/165/145 132/166/146 
f 123/156/137 125/158/139 133/167/147 131/165/145 
f 125/160/139 126/159/140 134/168/148 133/169/147 
f 126/159/140 127/161/141 135/170/149 134/168/148 
f 127/161/141 128/162/142 136/171/150 135/170/149 
f 128/162/142 129/163/143 137/172/151 136/171/150 
f 129/163/143 130/164/144 138/173/152 137/172/151 
f 130/164/144 124/157/138 132/166/146 138/173/152 
f 132/166/146 131/165/145 139/174/153 140/175/154 
f 131/165/145 133/167/147 141/176/155 139/174/153 
f 133/169/147 134/168/148 142/177/156 141/178/155 
f 134/168/148 135/170/149 143/179/157 142/177/156 
f 135/170/149 136/171/150 144/180/158 143/179/157 
f 136/171/150 137/172/151 145/181/159 144/180/158 
f 137/172/151 138/173/152 146/182/160 145/181/159 
f 138/173/152 132/166/146 140/175/154 146/182/160 
s off
f 140/183/161 139/184/161 147/185/161 
f 139/184/162 141/186/162 147/185/162 
f 141/187/163 142/188/163 147/185/163 
f 142/188/164 143/189/164 147/185/164 
f 143/189/165 144/190/165 147/185/165 
f 144/190/166 145/191/166 147/185/166 
f 145/191/167 146/192/167 147/185/167 
f 146/192/168 140/183/168 147/185/168 
s 8
f 148/193/169 149/194/170 150/195/171 151/196/172 
f 149/194/170 152/197/173 153/198/174 150/195/171 
f 152/199/173 154/200/175 155/201/176 153/202/174 
f 154/200/175 156/203/177 157/204/178 155/201/176 
f 156/203/177 158/205/179 159/206/180 157/204/178 
f 158/205/179 160/207/181 161/208/182 159/206/180 
f 160/207/181 162/209/183 163/210/184 161/208/182 
f 162/209/183 148/193/169 151/196/172 163/210/184 
f 151/196/172 150/195/171 164/211/185 165/212/186 
f 150/195/171 153/198/174 166/213/187 164/211/185 
f 153/202/174 155/201/176 167/214/188 166/215/187 
f 155/201/176 157/204/178 168/216/189 167/214/188 
f 157/204/178 159/206/180 169/217/190 168/216/189 
f 159/206/180 161/208/182 170/218/191 169/217/190 
f 161/208/182 163/210/184 171/219/192 170/218/191 
f 163/210/184 151/196/172 165/212/186 171/219/192 
f 165/212/186 164/211/185 172/220/193 173/221/194 
f 164/211/185 166/213/187 174/222/195 172/220/193 
f 166/215/187 167/214/188 175/223/196 174/224/195 
f 167/214/188 168/216/189 176/225/197 175/223/196 
f 168/216/189 169/217/190 177/226/198 176/225/197 
f 169/217/190 170/218/191 178/227/199 177/226/198 
f 170/218/191 171/219/192 179/228/200 178/227/199 
f 171/219/192 165/212/186 173/221/194 179/228/200 
f 173/221/194 172/220/193 180/229/201 181/230/202 
f 172/220/193 174/222/195 182/231/203 180/229/201 
f 174/224/195 175/223/196 183/232/204 182/233/203 
f 175/223/196 176/225/197 184/234/205 183/232/204 
f 176/225/197 177/226/198 185/235/206 184/234/205 
f 177/226/198 178/227/199 186/236/207 185/235/206 
f 178/227/199 179/228/200 187/237/208 186/236/207 
f 179/228/200 173/221/194 181/230/202 187/237/208 
f 181/230/202 180/229/201 188/238/209 189/239/210 
f 180/229/201 182/231/203 190/240/211 188/238/209 
f 182/233/203 183/232/204 191/241/212 190/242/211 
f 183/232/204 184/234/205 192/243/213 191/241/212 
f 184/234/205 185/235/206 193/244/214 192/243/213 
f 185/235/206 186/236/207 194/245/215 193/244/214 
f 186/236/207 187/237/208 195/246/216 194/245/215 
f 187/237/208 181/230/202 189/239/210 195/246/216 
s off
f 189/247/217 188/248/217 196/249/217 
f 188/248/218 190/250/218 196/249/218 
f 190/251/219 191/252/219 196/249/219 
f 191/252/220 192/253/220 196/249/220 
f 192/253/221 193/254/221 196/249/221 
f 193/254/222 194/255/222 196/249/222 
f 194/255/223 195/256/223 196/249/223 
f 195/256/224 189/247/224 196/249/224 
s 8
f 197/257/225 198/258/226 199/259/227 200/260/228 
f 198/258/226 201/261/229 202/262/230 199/259/227 
f 201/263/229 203/264/231 204/265/232 202/266/230 
f 203/264/231 205/267/233 206/268/234 204/265/232 
f 205/267/233 207/269/235 208/270/236 206/268/234 
f 207/269/235 209/271/237 210/272/238 208/270/236 
f 209/271/237 211/273/239 212/274/240 210/272/238 
f 211/273/239 197/257/225 200/260/228 212/274/240 
f 200/260/228 199/259/227 213/275/241 214/276/242 
f 199/259/227 202/262/230 215/277/243 213/275/241 
f 202/266/230 204/265/232 216/278/244 215/279/243 
f 204/265/232 206/268/234 217/280/245 216/278/244 
f 206/268/234 208/270/236 218/281/246 217/280/245 
f 208/270/236 210/272/238 219/282/247 218/281/246 
f 210/272/238 212/274/240 220/283/248 219/282/247 
f 212/274/240 200/260/228 214/276/242 220/283/248 
f 214/276/242 213/275/241 221/284/249 222/285/250 
f 213/275/241 215/277/243 223/286/251 221/284/249 
f 215/279/243 216/278/244 224/287/252 223/288/251 
f 216/278/244 217/280/245 225/289/253 224/287/252 
f 217/280/245 218/281/246 226/290/254 225/289/253 
f 218/281/246 219/282/247 227/291/255 226/290/254 
f 219/282/247 220/283/248 228/292/256 227/291/255 
f 220/283/248 214/276/242 222/285/250 228/292/256 
f 222/285/250 221/284/249 229/293/257 230/294/258 
f 221/284/249 223/286/251 231/295/259 229/293/257 
f 223/288/251 224/287/252 232/296/260 231/297/259 
f 224/287/252 225/289/253 233/298/261 232/296/260 
f 225/289/253 226/290/254 234/299/262 233/298/261 
f 226/290/254 227/291/255 235/300/263 234/299/262 
f 227/291/255 228/292/256 236/301/264 235/300/263 
f 228/292/256 222/285/250 230/294/258 236/301/264 
f 230/294/258 229/293/257 237/302/265 238/303/266 
f 229/293/257 231/295/259 239/304/267 237/302/265 
f 231/297/259 232/296/260 240/305/268 239/306/267 
f 232/296/260 233/298/261 241/307/269 240/305/268 
f 233/298/261 234/299/262 242/308/270 241/307/269 
f 234/299/262 235/300/263 243/309/271 242/308/270 
f 235/300/263 236/301/264 244/310/272 243/309/271 
f 236/301/264 230/294/258 238/303/266 244/310/272 
s off
f 238/311/273 237/312/273 245/313/273 
f 237/312/274 239/314/274 245/313/274 
f 239/315/275 240/316/275 245/313/275 
f 240/316/276 241/317/276 245/313/276 
f 241/317/277 242/318/277 245/313/277 
f 242/318/278 243/319/278 245/313/278 
f 243/319/279 244/320/279 245/313/279 
f 244/320/280 238/311/280 245/313/280 
s 8
f 246/321/281 247/322/282 248/323/283 249/324/284 
f 247/322/282 250/325/285 251/326/286 248/323/283 
f 250/327/285 252/328/287 253/329/288 251/330/286 
f 252/328/287 254/331/289 255/332/290 253/329/288 
f 254/331/289 256/333/291 257/334/292 255/332/290 
f 256/333/291 258/335/293 259/336/294 257/334/292 
f 258/335/293 260/337/295 261/338/296 259/336/294 
f 260/337/295 246/321/281 249/324/284 261/338/296 
f 249/324/284 248/323/283 262/339/297 263/340/298 
f 248/323/283 251/326/286 264/341/299 262/339/297 
f 251/330/286 253/329/288 265/342/300 264/343/299 
f 253/329/288 255/332/290 266/344/301 265/342/300 
f 255/332/290 257/334/292 267/345/302 266/344/301 
f 257/334/292 259/336/294 268/346/303 267/345/302 
f 259/336/294 261/338/296 269/347/304 268/346/303 
f 261/338/296 249/324/284 263/340/298 269/347/304 
f 263/340/298 262/339/297 270/348/305 271/349/306 
f 262/339/297 264/341/299 272/350/307 270/348/305 
f 264/343/299 265/342/300 273/351/308 272/352/307 
f 265/342/300 266/344/301 274/353/309 273/351/308 
f 266/344/301 267/345/302 275/354/310 274/353/309 
f 267/345/302 268/346/303 276/355/311 275/354/310 
f 268/346/303 269/347/304 277/356/312 276/355/311 
f 269/347/304 263/340/298 271/349/306 277/356/312 
f 271/349/306 270/348/305 278/357/313 279/358/314 
f 270/348/305 272/350/307 280/359/315 278/357/313 
f 272/352/307 273/351/308 281/360/316 280/361/315 
f 273/351/308 274/353/309 282/362/317 281/360/316 
f 274/353/309 275/354/310 283/363/318 282/362/317 
f 275/354/310 276/355/311 284/364/319 283/363/318 
f 276/355/311 277/356/312 285/365/320 284/364/319 
f 277/356/312 271/349/306 279/358/314 285/365/320 
f 279/358/314 278/357/313 286/366/321 287/367/322 
f 278/357/313 280/359/315 288/368/323 286/366/321 
f 280/361/315 281/360/316 289/369/324 288/370/323 
f 281/360/316 282/362/317 290/371/325 289/369/324 
f 282/362/317 283/363/318 291/372/326 290/371/325 
f 283/363/318 284/364/319 292/373/327 291/372/326 
f 284/364/319 285/365/320 293/374/328 292/373/327 
f 285/365/320 279/358/314 287/367/322 293/374/328 
s off
f 287/375/329 286/376/329 294/377/329 
f 286/376/330 288/378/330 294/377/330 
f 288/379/331 289/380/331 294/377/331 
f 289/380/332 290/381/332 294/377/332 
f 290/381/333 291/382/333 294/377/333 
f 291/382/334 292/383/334 294/377/334 
f 292/383/335 293/384/335 294/377/335 
f 293/384/336 287/375/336 294/377/336 
s 8
f 295/1/1 296/2/2 297/3/3 298/4/4 
f 296/2/2 299/5/5 300/6/6 297/3/3 
f 299/7/5 301/8/7 302/9/8 300/10/6 
f 301/8/7 303/11/9 304/12/10 302/9/8 
f 303/11/9 305/13/11 306/14/12 304/12/10 
f 305/13/11 307/15/13 308/16/14 306/14/12 
f 307/15/13 309/17/15 310/18/16 308/16/14 
f 309/17/15 295/1/1 298/4/4 310/18/16 
f 298/4/4 297/3/3 311/19/17 312/20/18 
f 297/3/3 300/6/6 313/21/19 311/19/17 
f 300/10/6 302/9/8 314/22/20 313/23/19 
f 302/9/8 304/12/10 315/24/21 314/22/20 
f 304/12/10 306/14/12 316/25/22 315/24/21 
f 306/14/12 308/16/14 317/26/23 316/25/22 
f 308/16/14 310/18/16 318/27/24 317/26/23 
f 310/18/16 298/4/4 312/20/18 318/27/24 
f 312/20/18 311/19/17 319/28/25 320/29/26 
f 311/19/17 313/21/19 321/30/27 319/28/25 
f 313/23/19 314/22/20 322/31/337 321/32/27 
f 314/22/20 315/24/21 323/33/29 322/31/337 
f 315/24/21 316/25/22 324/34/30 323/33/29 
f 316/25/22 317/26/23 325/35/31 324/34/30 
f 317/26/23 318/27/24 326/36/32 325/35/31 
f 318/27/24 312/20/18 320/29/26 326/36/32 
f 320/29/26 319/28/25 327/37/33 328/38/34 
f 319/28/25 321/30/27 329/39/35 327/37/33 
f 321/32/27 322/31/337 330/40/36 329/41/35 
f 322/31/337 323/33/29 331/42/37 330/40/36 
f 323/33/29 324/34/30 332/43/38 331/42/37 
f 324/34/30 325/35/31 333/44/39 332/43/38 
f 325/35/31 326/36/32 334/45/40 333/44/39 
f 326/36/32 320/29/26 328/38/34 334/45/40 
f 328/38/34 327/37/33 335/46/41 336/47/42 
f 327/37/33 329/39/35 337/48/43 335/46/41 
f 329/41/35 330/40/36 338/49/44 337/50/43 
f 330/40/36 331/42/37 339/51/45 338/49/44 
f 331/42/37 332/43/38 340/52/46 339/51/45 
f 332/43/38 333/44/39 341/53/47 340/52/46 
f 333/44/39 334/45/40 342/54/48 341/53/47 
f 334/45/40 328/38/34 336/47/42 342/54/48 
s off
f 336/55/49 335/56/49 343/57/49 
f 335/56/50 337/58/50 343/57/50 
f 337/59/51 338/60/51 343/57/51 
f 338/60/52 339/61/52 343/57/52 
f 339/61/53 340/62/53 343/57/53 
f 340/62/54 341/63/54 343/57/54 
f 341/63/55 342/64/55 343/57/55 
f 342/64/56 336/55/56 343/57/56 
s 8
f 344/129/113 345/130/114 346/131/115 347/132/116 
f 345/130/114 348/133/117 349/134/118 346/131/115 
f 348/135/117 350/136/119 351/137/120 349/138/118 
f 350/136/119 352/139/121 353/140/122 351/137/120 
f 352/139/121 354/141/123 355/142/124 353/140/122 
f 354/141/123 356/143/125 357/144/126 355/142/124 
f 356/143/125 358/145/127 359/146/128 357/144/126 
f 358/145/127 344/129/113 347/132/116 359/146/128 
f 347/132/116 346/131/115 360/147/129 361/148/130 
f 346/131/115 349/134/118 362/149/131 360/147/129 
f 349/138/118 351/137/120 363/150/132 362/151/131 
f 351/137/120 353/140/122 364/152/133 363/150/132 
f 353/140/122 355/142/124 365/153/134 364/152/133 
f 355/142/124 357/144/126 366/154/135 365/153/134 
f 357/144/126 359/146/128 367/155/136 366/154/135 
f 359/146/128 347/132/116 361/148/130 367/155/136 
f 361/148/130 360/147/129 368/156/137 369/157/138 
f 360/147/129 362/149/131 370/158/139 368/156/137 
f 362/151/131 363/150/132 371/159/140 370/160/139 
f 363/150/132 364/152/133 372/161/141 371/159/140 
f 364/152/133 365/153/134 373/162/142 372/161/141 
f 365/153/134 366/154/135 374/163/143 373/162/142 
f 366/154/135 367/155/136 375/164/144 374/163/143 
f 367/155/136 361/148/130 369/157/138 375/164/144 
f 369/157/138 368/156/137 376/165/145 377/166/146 
f 368/156/137 370/158/139 378/167/147 376/165/145 
f 370/160/139 371/159/140 379/168/148 378/169/147 
f 371/159/140 372/161/141 380/170/149 379/168/148 
f 372/161/141 373/162/142 381/171/150 380/170/149 
f 373/162/142 374/163/143 382/172/151 381/171/150 
f 374/163/143 375/164/144 383/173/152 382/172/151 
f 375/164/144 369/157/138 377/166/146 383/173/152 
f 377/166/146 376/165/145 384/174/153 385/175/154 
f 376/165/145 378/167/147 386/176/155 384/174/153 
f 378/169/147 379/168/148 387/177/156 386/178/155 
f 379/168/148 380/170/149 388/179/157 387/177/156 
f 380/170/149 381/171/150 389/180/158 388/179/157 
f 381/171/150 382/172/151 390/181/159 389/180/158 
f 382/172/151 383/173/152 391/182/160 390/181/159 
f 383/173/152 377/166/146 385/175/154 391/182/160 
s off
f 385/183/161 384/184/161 392/185/161 
f 384/184/162 386/186/162 392/185/162 
f 386/187/163 387/188/163 392/185/163 
f 387/188/164 388/189/164 392/185/164 
f 388/189/165 389/190/165 392/185/165 
f 389/190/166 390/191/166 392/185/166 
f 390/191/167 391/192/167 392/185/167 
f 391/192/168 385/183/168 392/185/168 
s 8
f 393/257/225 394/258/226 395/259/227 396/260/228 
f 394/258/226 397/261/229 398/262/230 395/259/227 
f 397/263/229 399/264/231 400/265/232 398/266/230 
f 399/264/231 401/267/233 402/268/234 400/265/232 
f 401/267/233 403/269/235 404/270/236 402/268/234 
f 403/269/235 405/271/237 406/272/238 404/270/236 
f 405/271/237 407/273/239 408/274/240 406/272/238 
f 407/273/239 393/257/225 396/260/228 408/274/240 
f 396/260/228 395/259/227 409/275/241 410/276/242 
f 395/259/227 398/262/230 411/277/243 409/275/241 
f 398/266/230 400/265/232 412/278/244 411/279/243 
f 400/265/232 402/268/234 413/280/245 412/278/244 
f 402/268/234 404/270/236 414/281/246 413/280/245 
f 404/270/236 406/272/238 415/282/247 414/281/246 
f 406/272/238 408/274/240 416/283/248 415/282/247 
f 408/274/240 396/260/228 410/276/242 416/283/248 
f 410/276/242 409/275/241 417/284/249 418/285/250 
f 409/275/241 411/277/243 419/286/251 417/284/249 
f 411/279/243 412/278/244 420/287/252 419/288/251 
f 412/278/244 413/280/245 421/289/253 420/287/252 
f 413/280/245 414/281/246 422/290/254 421/289/253 
f 414/281/246 415/282/247 423/291/255 422/290/254 
f 415/282/247 416/283/248 424/292/256 423/291/255 
f 416/283/248 410/276/242 418/285/250 424/292/256 
f 418/285/250 417/284/249 425/293/257 426/294/258 
f 417/284/249 419/286/251 427/295/259 425/293/257 
f 419/288/251 420/287/252 428/296/260 427/297/259 
f 420/287/252 421/289/253 429/298/261 428/296/260 
f 421/289/253 422/290/254 430/299/262 429/298/261 
f 422/290/254 423/291/255 431/300/263 430/299/262 
f 423/291/255 424/292/256 432/301/264 431/300/263 
f 424/292/256 418/285/250 426/294/258 432/301/264 
f 426/294/258 425/293/257 433/302/265 434/303/266 
f 425/293/257 427/295/259 435/304/267 433/302/265 
f 427/297/259 428/296/260 436/305/268 435/306/267 
f 428/296/260 429/298/261 437/307/269 436/305/268 
f 429/298/261 430/299/262 438/308/270 437/307/269 
f 430/299/262 431/300/263 439/309/271 438/308/270 
f 431/300/263 432/301/264 440/310/272 439/309/271 
f 432/301/264 426/294/258 434/303/266 440/310/272 
s off
f 434/311/273 433/312/273 441/313/273 
f 433/312/274 435/314/274 441/313/274 
f 435/315/275 436/316/275 441/313/275 
f 436/316/276 437/317/276 441/313/276 
f 437/317/277 438/318/277 441/313/277 
f 438/318/278 439/319/278 441/313/278 
f 439/319/279 440/320/279 441/313/279 
f 440/320/280 434/311/280 441/313/280 
# 360 polygons - 72 triangles

