# 3ds Max Wavefront OBJ Exporter v0.97b - (c)2007 guruware
# File Created: 22.02.2016 22:11:01

#
# object Palissade___2M_Straight
#

v  180.1781 -0.0000 0.0000
v  174.9179 11.6032 0.0000
v  174.6914 11.3449 71.5453
v  179.8385 -0.0087 71.5315
v  162.2187 16.4093 0.0000
v  162.2654 16.0477 71.5696
v  149.5194 11.6032 0.0000
v  149.8393 11.3449 71.5900
v  144.2592 -0.0000 0.0000
v  144.6923 -0.0087 71.5948
v  149.5194 -11.6032 0.0000
v  149.8393 -11.3622 71.5809
v  162.2187 -16.4093 0.0000
v  162.2654 -16.0650 71.5567
v  174.9179 -11.6032 0.0000
v  174.6914 -11.3622 71.5362
v  174.5583 11.0692 143.0912
v  179.5922 -0.0347 143.0642
v  162.4055 15.6686 143.1387
v  150.2527 11.0692 143.1787
v  145.2188 -0.0347 143.1879
v  150.2527 -11.1387 143.1609
v  162.4055 -15.7381 143.1135
v  174.5583 -11.1387 143.0734
v  174.5186 10.7762 214.6376
v  179.4393 -0.0781 214.5979
v  162.6391 15.2722 214.7071
v  150.7595 10.7762 214.7659
v  145.8388 -0.0782 214.7794
v  150.7594 -10.9325 214.7398
v  162.6390 -15.4285 214.6702
v  174.5186 -10.9325 214.6115
v  174.5723 10.4658 286.1841
v  179.3798 -0.1389 286.1325
v  162.9661 14.8584 286.2748
v  151.3598 10.4658 286.3513
v  146.5522 -0.1390 286.3689
v  151.3597 -10.7437 286.3173
v  162.9659 -15.1363 286.2267
v  174.5723 -10.7436 286.1501
v  174.7194 10.1381 357.7308
v  179.4137 -0.2170 357.6678
v  163.3865 14.4273 357.8414
v  152.0535 10.1380 357.9349
v  147.3591 -0.2172 357.9564
v  152.0533 -10.5722 357.8933
v  163.3863 -14.8614 357.7828
v  174.7193 -10.5721 357.6893
v  163.6722 -0.2702 399.2122
v  123.4964 -15.8208 0.0000
v  137.0230 -13.5830 0.0000
v  137.3759 -12.6951 70.2203
v  123.9456 -14.4651 70.1719
v  145.2579 -3.3646 0.0000
v  145.5126 -2.7918 70.2546
v  143.4539 8.8673 0.0000
v  143.3072 9.3585 70.2546
v  132.4537 15.9611 0.0000
v  132.4007 16.7074 70.2203
v  118.6108 13.7794 0.0000
v  119.2449 15.0288 70.1719
v  110.1622 3.7160 0.0000
v  111.4646 5.1635 70.1376
v  112.1798 -8.6709 0.0000
v  113.3132 -7.0245 70.1376
v  137.5495 -13.1439 140.4389
v  124.5851 -15.2053 140.3441
v  144.9627 -3.2223 140.5059
v  142.6734 8.5849 140.5059
v  131.8692 15.5143 140.4389
v  118.9872 13.6039 140.3441
v  111.4432 3.7834 140.2770
v  113.8656 -8.1228 140.2770
v  136.6273 -13.5998 210.6550
v  123.8144 -15.2355 210.5160
v  144.6073 -4.2558 210.7533
v  142.7659 7.3738 210.7533
v  132.4756 14.4312 210.6550
v  119.7976 12.9157 210.5160
v  112.0855 3.4131 210.4177
v  113.6583 -8.0563 210.4177
v  137.3016 -15.1149 280.8680
v  124.9213 -16.8510 280.6870
v  144.5789 -5.8831 280.9960
v  142.5865 5.5386 280.9960
v  132.5736 12.3138 280.8680
v  119.9686 10.4004 280.6870
v  112.5959 1.0277 280.5588
v  114.6808 -10.2519 280.5588
v  137.2302 -18.2221 351.0771
v  124.9171 -19.6945 350.8561
v  144.8630 -9.2289 351.2335
v  143.4523 1.6953 351.2335
v  133.7958 8.4515 351.0771
v  121.5472 7.0042 350.8561
v  113.8273 -1.9434 350.6998
v  115.3198 -12.9128 350.6998
v  129.0469 -5.7924 391.5717
v  113.8363 0.0000 0.0000
v  108.5761 11.6032 0.0000
v  108.1652 11.1652 73.5235
v  113.2651 -0.0843 73.4834
v  95.8768 16.4093 0.0000
v  95.8530 15.8249 73.5305
v  83.1776 11.6032 0.0000
v  83.5407 11.1652 73.5002
v  77.9174 -0.0000 0.0000
v  78.4408 -0.0843 73.4505
v  83.1776 -11.6032 0.0000
v  83.5407 -11.3338 73.4103
v  95.8768 -16.4093 0.0000
v  95.8530 -15.9935 73.4033
v  108.5761 -11.6032 0.0000
v  108.1652 -11.3338 73.4336
v  107.7065 10.5584 147.0427
v  112.6462 -0.3374 146.9649
v  95.7813 15.0716 147.0563
v  83.8561 10.5585 146.9976
v  78.9166 -0.3372 146.9012
v  83.8562 -11.2330 146.8235
v  95.7814 -15.7462 146.8099
v  107.7066 -11.2331 146.8685
v  107.2001 9.7828 220.5569
v  111.9795 -0.7591 220.4441
v  95.6618 14.1495 220.5766
v  84.1237 9.7830 220.4915
v  79.3446 -0.7588 220.3516
v  84.1240 -11.3007 220.2388
v  95.6622 -15.6674 220.2191
v  107.2003 -11.3010 220.3041
v  106.6459 8.8385 294.0654
v  111.2650 -1.3495 293.9200
v  95.4946 13.0587 294.0908
v  84.3436 8.8389 293.9812
v  79.7248 -1.3490 293.8008
v  84.3440 -11.5370 293.6554
v  95.4952 -15.7572 293.6301
v  106.6463 -11.5374 293.7396
v  106.0439 7.7255 354.4552
v  110.5029 -2.1086 354.2797
v  95.2797 11.7992 354.4858
v  84.5157 7.7261 354.3535
v  80.0574 -2.1078 354.1360
v  84.5163 -11.9419 353.9604
v  95.2806 -16.0155 353.9299
v  106.0445 -11.9425 354.0621
v  95.1341 -2.6243 396.7049
v  81.5003 1.0681 -0.0000
v  76.2250 12.9862 -0.0000
v  75.2119 8.8324 67.8542
v  80.3857 -2.6551 67.8084
v  63.5439 17.8657 -0.0000
v  62.9697 14.4272 67.8898
v  50.8265 13.2400 -0.0000
v  50.7605 9.7373 67.8942
v  45.5813 1.5486 -0.0000
v  45.8058 -1.6766 67.8649
v  50.8934 -9.9663 -0.0000
v  51.0028 -12.5970 67.8190
v  63.5943 -14.9530 -0.0000
v  63.2738 -17.1659 67.7835
v  76.2920 -10.2202 -0.0000
v  75.4544 -13.5077 67.7791
v  74.6811 5.5497 135.7065
v  79.5611 -5.1484 135.6183
v  62.9465 10.3512 135.7748
v  51.1766 5.7363 135.7833
v  46.3204 -4.9375 135.7270
v  51.1969 -15.7344 135.6388
v  62.9750 -20.0152 135.5704
v  74.7015 -15.9173 135.5619
v  74.6704 6.2453 203.5560
v  79.3311 -3.9376 203.4290
v  63.3884 10.7435 203.6544
v  52.1135 6.7623 203.6667
v  47.4309 -3.4010 203.5855
v  52.1048 -13.8450 203.4586
v  63.3909 -18.4024 203.3601
v  74.6622 -14.3613 203.3479
v  74.9349 8.2272 271.4022
v  79.3477 -1.6410 271.2400
v  64.1652 12.3151 271.5279
v  53.3265 8.2298 271.5435
v  48.7886 -1.6204 271.4399
v  53.2693 -11.5212 271.2777
v  64.0613 -15.6320 271.1520
v  74.8787 -11.5332 271.1364
v  74.9775 8.6513 357.4840
v  79.2855 -0.7745 357.2902
v  64.6417 12.8483 357.6343
v  54.3152 8.9310 357.6530
v  50.0656 -0.5380 357.5291
v  54.3640 -9.9474 357.3352
v  64.7071 -13.8579 357.1850
v  75.0256 -10.2449 357.1663
v  65.0806 0.3518 396.6499
v  48.9229 -0.1402 0.0000
v  43.6627 11.4630 0.0000
v  42.9728 10.5868 70.2042
v  47.8952 -0.2715 70.1163
v  30.9634 16.2692 0.0000
v  31.0887 15.0844 70.2872
v  18.2641 11.4630 0.0000
v  19.2045 10.5866 70.3166
v  13.0040 -0.1402 0.0000
v  14.2818 -0.2718 70.2752
v  18.2642 -11.7433 0.0000
v  19.2043 -11.1301 70.1873
v  30.9634 -16.5495 0.0000
v  31.0883 -15.6277 70.1043
v  43.6627 -11.7433 0.0000
v  42.9725 -11.1299 70.0749
v  42.7697 9.6639 140.4048
v  47.4522 -0.6655 140.2375
v  31.4644 13.9422 140.5627
v  20.1587 9.6631 140.6187
v  15.4754 -0.6666 140.5399
v  20.1578 -10.9961 140.3727
v  31.4632 -15.2743 140.2148
v  42.7688 -10.9953 140.1588
v  43.0536 8.6944 210.5996
v  47.5938 -1.3222 210.3563
v  32.0905 12.8426 210.8293
v  21.1267 8.6926 210.9107
v  16.5845 -1.3247 210.7962
v  21.1248 -11.3412 210.5529
v  32.0878 -15.4895 210.3232
v  43.0517 -11.3395 210.2418
v  43.8243 7.6781 280.7863
v  48.3201 -2.2415 280.4651
v  32.9671 11.7857 281.0896
v  22.1085 7.6751 281.1971
v  17.6093 -2.2459 281.0459
v  22.1051 -12.1655 280.7246
v  32.9623 -16.2731 280.4214
v  43.8209 -12.1624 280.3138
v  45.0818 6.6153 350.9628
v  49.6309 -3.4234 350.5563
v  34.0941 10.7714 351.3464
v  23.1042 6.6104 351.4825
v  18.5498 -3.4303 351.2912
v  23.0989 -13.4689 350.8847
v  34.0866 -17.6250 350.5010
v  45.0765 -13.4640 350.3650
v  34.8557 -4.2313 391.5121
v  16.5171 -0.5989 0.0000
v  11.2279 11.3173 0.0000
v  10.2261 12.3359 68.9491
v  15.3594 0.8969 68.6190
v  -1.4848 16.7404 0.0000
v  -2.1681 17.1119 69.1559
v  -14.1706 12.2316 0.0000
v  -14.6335 12.3417 69.1183
v  -19.4018 0.6635 0.0000
v  -19.7930 0.7887 68.8583
v  -14.1827 -10.9747 0.0000
v  -14.6236 -10.3700 68.5282
v  -1.4891 -16.0783 0.0000
v  -2.1887 -14.9820 68.3214
v  11.2158 -11.8890 0.0000
v  10.2294 -10.3588 68.3590
v  10.1907 12.6638 137.8559
v  15.1343 1.4862 137.2103
v  -1.9266 17.8089 138.2604
v  -14.1124 13.5333 138.1868
v  -19.2356 2.3560 137.6783
v  -14.1699 -8.7304 137.0328
v  -2.0204 -13.6382 136.6283
v  10.1346 -9.5449 136.7019
v  10.0641 9.6699 206.6873
v  15.2057 -1.2487 205.7412
v  -1.8310 13.9885 207.2802
v  -13.6964 9.7435 207.1724
v  -18.3985 -0.8332 206.4271
v  -13.3245 -11.8595 205.4809
v  -1.4472 -16.6341 204.8881
v  10.4331 -12.0601 204.9959
v  10.6179 6.7477 275.4104
v  15.4052 -3.8430 274.1785
v  -0.9331 11.3422 276.1822
v  -12.5775 7.3984 276.0419
v  -17.3953 -3.1440 275.0716
v  -12.7788 -13.9023 273.8397
v  -1.2758 -18.7218 273.0679
v  10.4171 -14.5311 273.2082
v  11.5163 4.8991 357.0390
v  16.1508 -5.7112 355.5364
v  0.1712 9.5790 357.9804
v  -11.1453 5.4655 357.8092
v  -15.8862 -4.6893 356.6256
v  -11.3216 -15.0804 355.1231
v  -0.0535 -19.5347 354.1817
v  11.3305 -15.7855 354.3530
v  0.6404 -8.8973 395.5848
# 294 vertices

vn 1.0000 0.0000 0.0056
vn 0.7070 0.7072 0.0059
vn 0.7070 0.7072 0.0055
vn 1.0000 0.0000 0.0048
vn -0.0002 1.0000 0.0065
vn -0.0002 1.0000 0.0067
vn -0.7072 0.7070 0.0070
vn -0.7072 0.7070 0.0076
vn -1.0000 0.0000 0.0071
vn -1.0000 0.0000 0.0079
vn -0.7072 -0.7070 0.0068
vn -0.7072 -0.7070 0.0072
vn -0.0002 -1.0000 0.0062
vn -0.0002 -1.0000 0.0060
vn 0.7070 -0.7072 0.0057
vn 0.7070 -0.7072 0.0050
vn 0.7070 0.7072 0.0046
vn 1.0000 0.0000 0.0033
vn -0.0002 1.0000 0.0070
vn -0.7071 0.7070 0.0089
vn -1.0000 0.0000 0.0094
vn -0.7072 -0.7070 0.0081
vn -0.0002 -1.0000 0.0057
vn 0.7070 -0.7072 0.0037
vn 0.7070 0.7072 0.0038
vn 1.0000 0.0000 0.0017
vn -0.0002 1.0000 0.0073
vn -0.7071 0.7070 0.0103
vn -0.9999 0.0000 0.0109
vn -0.7072 -0.7070 0.0089
vn -0.0002 -1.0000 0.0054
vn 0.7070 -0.7072 0.0024
vn 0.7070 0.7072 0.0029
vn 1.0000 0.0000 0.0002
vn -0.0001 1.0000 0.0076
vn -0.7071 0.7070 0.0116
vn -0.9999 0.0000 0.0125
vn -0.7072 -0.7070 0.0098
vn -0.0002 -1.0000 0.0051
vn 0.7070 -0.7072 0.0011
vn 0.7070 0.7072 0.0025
vn 1.0000 0.0000 -0.0006
vn -0.0001 1.0000 0.0077
vn -0.7071 0.7070 0.0122
vn -0.9999 0.0000 0.0132
vn -0.7071 -0.7070 0.0102
vn -0.0001 -1.0000 0.0049
vn 0.7070 -0.7072 0.0005
vn 0.8549 0.3523 0.3809
vn 0.3558 0.8512 0.3858
vn -0.3498 0.8511 0.3915
vn -0.8487 0.3522 0.3946
vn -0.8487 -0.3534 0.3935
vn -0.3498 -0.8524 0.3887
vn 0.3558 -0.8525 0.3830
vn 0.8549 -0.3535 0.3798
vn -0.2142 -0.9765 0.0221
vn 0.5259 -0.8505 0.0098
vn 0.5139 -0.8578 0.0054
vn -0.2513 -0.9678 0.0119
vn 0.9687 -0.2483 0.0016
vn 0.9722 -0.2343 0.0038
vn 0.8570 0.5153 -0.0047
vn 0.8518 0.5239 0.0065
vn 0.2232 0.9746 -0.0164
vn 0.2442 0.9697 0.0073
vn -0.5232 0.8522 -0.0108
vn -0.5137 0.8580 0.0054
vn -0.9697 0.2438 0.0136
vn -0.9690 0.2469 0.0108
vn -0.8484 -0.5287 0.0269
vn -0.8657 -0.5003 0.0167
vn 0.5403 -0.8414 -0.0084
vn -0.2238 -0.9746 -0.0103
vn 0.9773 -0.2117 0.0006
vn 0.8433 0.5372 0.0114
vn 0.2233 0.9746 0.0174
vn -0.5320 0.8466 0.0164
vn -0.9772 0.2123 0.0049
vn -0.8448 -0.5350 -0.0066
vn 0.5007 -0.8656 -0.0110
vn -0.2598 -0.9656 -0.0114
vn 0.9675 -0.2529 0.0010
vn 0.8589 0.5119 0.0169
vn 0.2520 0.9673 0.0302
vn -0.5053 0.8624 0.0317
vn -0.9666 0.2557 0.0192
vn -0.8696 -0.4937 0.0016
vn 0.5235 -0.8510 -0.0412
vn -0.2291 -0.9725 -0.0410
vn 0.9731 -0.2298 -0.0164
vn 0.8526 0.5222 0.0209
vn 0.2319 0.9715 0.0484
vn -0.5267 0.8486 0.0496
vn -0.9733 0.2283 0.0226
vn -0.8478 -0.5300 -0.0159
vn 0.4956 -0.8673 -0.0466
vn -0.2510 -0.9669 -0.0461
vn 0.9606 -0.2773 -0.0180
vn 0.8764 0.4808 0.0254
vn 0.2695 0.9609 0.0640
vn -0.4938 0.8667 0.0705
vn -0.9661 0.2554 0.0381
vn -0.8607 -0.5090 -0.0115
vn 0.1138 -0.9147 0.3878
vn 0.7234 -0.5663 0.3951
vn 0.9075 0.1071 0.4061
vn 0.5522 0.7285 0.4054
vn -0.1238 0.9105 0.3946
vn -0.7268 0.5677 0.3865
vn -0.9153 -0.1138 0.3865
vn -0.5676 -0.7269 0.3866
vn 1.0000 0.0004 0.0091
vn 0.7069 0.7072 0.0101
vn 0.7069 0.7072 0.0114
vn 1.0000 0.0003 0.0095
vn 0.0001 0.9999 0.0102
vn 0.0001 0.9999 0.0117
vn -0.7069 0.7073 0.0095
vn -0.7069 0.7073 0.0103
vn -1.0000 0.0004 0.0084
vn -1.0000 0.0003 0.0080
vn -0.7072 -0.7070 0.0074
vn -0.7072 -0.7070 0.0061
vn 0.0001 -1.0000 0.0073
vn 0.0001 -1.0000 0.0058
vn 0.7073 -0.7069 0.0080
vn 0.7073 -0.7069 0.0072
vn 0.7069 0.7071 0.0140
vn 0.9999 0.0003 0.0103
vn 0.0001 0.9999 0.0146
vn -0.7069 0.7072 0.0118
vn -1.0000 0.0003 0.0072
vn -0.7072 -0.7070 0.0035
vn 0.0001 -1.0000 0.0029
vn 0.7073 -0.7069 0.0057
vn 0.7069 0.7071 0.0166
vn 0.9999 0.0003 0.0110
vn 0.0001 0.9998 0.0176
vn -0.7069 0.7072 0.0134
vn -1.0000 0.0003 0.0065
vn -0.7072 -0.7070 0.0009
vn 0.0001 -1.0000 -0.0001
vn 0.7073 -0.7069 0.0041
vn 0.7068 0.7071 0.0215
vn 0.9999 0.0006 0.0131
vn 0.0001 0.9997 0.0229
vn -0.7067 0.7073 0.0166
vn -1.0000 0.0006 0.0063
vn -0.7074 -0.7069 -0.0021
vn 0.0002 -1.0000 -0.0035
vn 0.7075 -0.7067 0.0028
vn 0.7070 0.7067 0.0250
vn 0.9999 -0.0003 0.0148
vn -0.0001 0.9996 0.0268
vn -0.7072 0.7067 0.0191
vn -1.0000 -0.0003 0.0065
vn -0.7070 -0.7072 -0.0037
vn -0.0000 -1.0000 -0.0055
vn 0.7070 -0.7073 0.0022
vn 0.8597 0.3510 0.3712
vn 0.3552 0.8554 0.3770
vn -0.3582 0.8554 0.3741
vn -0.8626 0.3511 0.3642
vn -0.8626 -0.3623 0.3531
vn -0.3581 -0.8667 0.3473
vn 0.3553 -0.8667 0.3502
vn 0.8597 -0.3623 0.3601
vn 0.9997 0.0101 0.0207
vn 0.7068 0.7048 0.0605
vn 0.7312 0.6795 0.0596
vn 0.9999 -0.0046 0.0163
vn 0.0107 0.9977 0.0671
vn 0.0288 0.9968 0.0750
vn -0.6950 0.7174 0.0480
vn -0.7127 0.6997 0.0500
vn -0.9999 0.0092 0.0056
vn -0.9999 -0.0152 0.0039
vn -0.7144 -0.6990 -0.0315
vn -0.6993 -0.7138 -0.0373
vn -0.0129 -0.9987 -0.0492
vn -0.0338 -0.9983 -0.0467
vn 0.7123 -0.7011 -0.0328
vn 0.6804 -0.7324 -0.0261
vn 0.7201 0.6936 0.0206
vn 0.9999 -0.0068 0.0089
vn 0.0098 0.9995 0.0309
vn -0.7169 0.6967 0.0274
vn -0.9998 -0.0103 0.0144
vn -0.6979 -0.7162 -0.0028
vn -0.0080 -0.9999 -0.0117
vn 0.6913 -0.7226 -0.0037
vn 0.7131 0.7008 -0.0186
vn 1.0000 0.0010 0.0014
vn 0.0202 0.9996 -0.0183
vn -0.6983 0.7158 -0.0020
vn -0.9998 0.0042 0.0217
vn -0.7154 -0.6975 0.0418
vn -0.0194 -0.9988 0.0444
vn 0.6997 -0.7139 0.0280
vn 0.7075 0.7064 -0.0179
vn 1.0000 0.0022 0.0005
vn 0.0025 0.9998 -0.0196
vn -0.7027 0.7115 -0.0023
vn -0.9998 0.0051 0.0204
vn -0.7085 -0.7048 0.0362
vn -0.0017 -0.9993 0.0376
vn 0.7093 -0.7045 0.0228
vn 0.7123 0.7019 -0.0054
vn 1.0000 0.0091 0.0006
vn 0.0109 0.9999 -0.0061
vn -0.7049 0.7093 0.0019
vn -0.9999 0.0043 0.0166
vn -0.7091 -0.7046 0.0269
vn -0.0128 -0.9996 0.0264
vn 0.7029 -0.7111 0.0144
vn 0.8652 0.3556 0.3536
vn 0.3845 0.8554 0.3471
vn -0.3573 0.8620 0.3596
vn -0.8584 0.3482 0.3767
vn -0.8467 -0.3597 0.3921
vn -0.3467 -0.8498 0.3971
vn 0.3295 -0.8582 0.3935
vn 0.8558 -0.3555 0.3758
vn 0.9999 0.0006 0.0172
vn 0.7064 0.7075 0.0195
vn 0.7065 0.7075 0.0169
vn 0.9999 0.0005 0.0123
vn -0.0005 0.9998 0.0217
vn -0.0004 0.9998 0.0213
vn -0.7069 0.7070 0.0224
vn -0.7069 0.7070 0.0228
vn -0.9998 0.0006 0.0214
vn -0.9998 0.0005 0.0207
vn -0.7075 -0.7064 0.0191
vn -0.7075 -0.7065 0.0161
vn -0.0005 -0.9999 0.0169
vn -0.0005 -0.9999 0.0117
vn 0.7071 -0.7070 0.0161
vn 0.7071 -0.7070 0.0102
vn 0.7066 0.7075 0.0118
vn 1.0000 0.0005 0.0025
vn -0.0004 0.9998 0.0205
vn -0.7069 0.7069 0.0236
vn -0.9998 0.0004 0.0192
vn -0.7075 -0.7066 0.0100
vn -0.0005 -1.0000 0.0013
vn 0.7071 -0.7071 -0.0018
vn 0.7066 0.7076 0.0066
vn 1.0000 0.0006 -0.0073
vn -0.0004 0.9998 0.0197
vn -0.7069 0.7069 0.0244
vn -0.9998 0.0004 0.0178
vn -0.7076 -0.7066 0.0040
vn -0.0005 -1.0000 -0.0091
vn 0.7071 -0.7070 -0.0138
vn 0.7066 0.7076 0.0015
vn 0.9999 0.0008 -0.0170
vn -0.0004 0.9998 0.0189
vn -0.7069 0.7069 0.0251
vn -0.9999 0.0004 0.0164
vn -0.7077 -0.7065 -0.0021
vn -0.0007 -0.9998 -0.0196
vn 0.7069 -0.7068 -0.0258
vn 0.7067 0.7075 -0.0011
vn 0.9998 0.0006 -0.0219
vn -0.0002 0.9998 0.0186
vn -0.7069 0.7069 0.0255
vn -0.9999 0.0002 0.0157
vn -0.7075 -0.7067 -0.0051
vn -0.0006 -0.9997 -0.0248
vn 0.7068 -0.7067 -0.0318
vn 0.8612 0.3448 0.3736
vn 0.3611 0.8438 0.3970
vn -0.3450 0.8431 0.4124
vn -0.8444 0.3439 0.4108
vn -0.8451 -0.3623 0.3931
vn -0.3460 -0.8624 0.3696
vn 0.3612 -0.8626 0.3541
vn 0.8615 -0.3623 0.3558
vn 0.9997 -0.0165 0.0207
vn 0.7273 0.6863 0.0033
vn 0.7098 0.7044 -0.0047
vn 0.9999 -0.0014 0.0110
vn 0.0340 0.9994 -0.0038
vn 0.0017 0.9999 -0.0136
vn -0.6992 0.7149 -0.0065
vn -0.7116 0.7025 -0.0100
vn -1.0000 0.0001 -0.0055
vn -1.0000 -0.0095 0.0012
vn -0.7124 -0.7017 0.0057
vn -0.7025 -0.7115 0.0127
vn -0.0282 -0.9993 0.0246
vn -0.0033 -0.9998 0.0195
vn 0.6848 -0.7280 0.0336
vn 0.7030 -0.7109 0.0202
vn 0.7203 0.6934 0.0213
vn 1.0000 0.0038 0.0023
vn 0.0329 0.9990 0.0312
vn -0.6917 0.7218 0.0252
vn -0.9999 0.0106 0.0124
vn -0.7200 -0.6940 -0.0014
vn -0.0301 -0.9995 -0.0111
vn 0.6978 -0.7163 -0.0103
vn 0.6986 0.7147 0.0342
vn 0.9999 0.0104 -0.0030
vn 0.0043 0.9984 0.0563
vn -0.7048 0.7078 0.0489
vn -0.9999 -0.0075 0.0135
vn -0.7125 -0.7012 -0.0265
vn -0.0085 -0.9988 -0.0491
vn 0.7114 -0.7018 -0.0381
vn 0.7157 0.6981 0.0214
vn 0.9999 -0.0074 -0.0068
vn 0.0267 0.9988 0.0406
vn -0.6943 0.7185 0.0410
vn -0.9998 0.0067 0.0206
vn -0.7254 -0.6883 -0.0064
vn -0.0304 -0.9992 -0.0263
vn 0.6950 -0.7185 -0.0274
vn 0.7126 0.7014 0.0122
vn 0.9999 0.0025 -0.0100
vn 0.0194 0.9994 0.0286
vn -0.6900 0.7230 0.0341
vn -0.9994 0.0272 0.0230
vn -0.7271 -0.6866 0.0018
vn -0.0350 -0.9993 -0.0141
vn 0.6936 -0.7200 -0.0211
vn 0.8577 0.2960 0.4204
vn 0.3876 0.7820 0.4881
vn -0.3239 0.7978 0.5085
vn -0.8319 0.3134 0.4579
vn -0.8474 -0.3816 0.3691
vn -0.3609 -0.8834 0.2988
vn 0.3211 -0.9012 0.2912
vn 0.8482 -0.4023 0.3446
# 336 vertex normals

vt 0.0111 0.0604 0.0000
vt 0.0113 0.0374 0.0000
vt 0.1131 0.0389 0.0000
vt 0.1128 0.0614 0.0000
vt 0.0117 0.0145 0.9986
vt 0.1135 0.0164 0.0000
vt 0.0117 0.1981 0.9986
vt 0.0113 0.1752 0.0000
vt 0.1131 0.1737 0.0000
vt 0.1135 0.1961 0.0000
vt 0.0110 0.1522 0.0000
vt 0.1128 0.1512 0.0000
vt 0.0109 0.1292 0.0000
vt 0.1126 0.1288 0.0000
vt 0.0108 0.1063 0.0000
vt 0.1126 0.1063 0.0000
vt 0.0109 0.0833 0.0000
vt 0.1126 0.0838 0.0000
vt 0.2148 0.0404 0.0000
vt 0.2146 0.0623 0.0000
vt 0.2152 0.0184 0.0000
vt 0.2149 0.1722 0.0000
vt 0.2152 0.1941 0.0000
vt 0.2146 0.1502 0.0000
vt 0.2144 0.1283 0.0000
vt 0.2144 0.1063 0.0000
vt 0.2144 0.0843 0.0000
vt 0.3166 0.0418 0.0000
vt 0.3163 0.0633 0.0000
vt 0.3170 0.0204 0.0000
vt 0.3166 0.1707 0.0000
vt 0.3170 0.1921 0.0000
vt 0.3164 0.1492 0.0000
vt 0.3162 0.1277 0.0000
vt 0.3161 0.1063 0.0000
vt 0.3162 0.0848 0.0000
vt 0.4184 0.0433 0.0000
vt 0.4181 0.0643 0.0000
vt 0.4187 0.0223 0.0000
vt 0.4184 0.1692 0.0000
vt 0.4187 0.1902 0.0000
vt 0.4181 0.1482 0.0000
vt 0.4180 0.1272 0.0000
vt 0.4179 0.1063 0.0000
vt 0.4180 0.0853 0.0000
vt 0.5201 0.0448 0.0000
vt 0.5198 0.0653 0.0000
vt 0.5205 0.0243 0.0000
vt 0.5201 0.1677 0.0000
vt 0.5205 0.1882 0.0000
vt 0.5199 0.1472 0.0000
vt 0.5197 0.1267 0.0000
vt 0.5197 0.1062 0.0000
vt 0.5197 0.0858 0.0000
vt 0.7596 0.9597 0.2681
vt 0.7150 0.9435 0.0000
vt 0.7877 0.8127 0.0000
vt 0.6777 0.9142 0.0000
vt 0.9358 0.7906 0.0000
vt 0.9353 0.8380 0.0000
vt 0.9200 0.8829 0.2681
vt 0.8914 0.9207 0.0000
vt 0.8524 0.9477 0.0000
vt 0.8070 0.9611 0.0000
vt 0.0096 0.4738 0.0000
vt 0.0102 0.4508 0.0000
vt 0.1106 0.4526 0.0000
vt 0.1101 0.4755 0.0000
vt 0.0110 0.4276 1.0013
vt 0.1111 0.4299 0.0000
vt 0.0110 0.6117 1.0013
vt 0.0109 0.5891 0.0000
vt 0.1107 0.5875 0.0000
vt 0.1111 0.6100 0.0000
vt 0.0107 0.5665 0.0000
vt 0.1103 0.5650 0.0000
vt 0.0103 0.5430 0.0000
vt 0.1100 0.5429 0.0000
vt 0.0097 0.5198 0.0000
vt 0.1098 0.5207 0.0000
vt 0.0094 0.4968 0.0000
vt 0.1098 0.4981 0.0000
vt 0.2109 0.4536 0.0000
vt 0.2105 0.4755 0.0000
vt 0.2112 0.4316 0.0000
vt 0.2104 0.5855 0.0000
vt 0.2111 0.6074 0.0000
vt 0.2099 0.5634 0.0000
vt 0.2096 0.5416 0.0000
vt 0.2097 0.5197 0.0000
vt 0.2101 0.4976 0.0000
vt 0.3109 0.4563 0.0000
vt 0.3104 0.4780 0.0000
vt 0.3111 0.4346 0.0000
vt 0.3102 0.5846 0.0000
vt 0.3111 0.6060 0.0000
vt 0.3094 0.5633 0.0000
vt 0.3090 0.5421 0.0000
vt 0.3092 0.5206 0.0000
vt 0.3098 0.4995 0.0000
vt 0.4112 0.4571 0.0000
vt 0.4107 0.4781 0.0000
vt 0.4111 0.4363 0.0000
vt 0.4097 0.5826 0.0000
vt 0.4111 0.6036 0.0000
vt 0.4085 0.5619 0.0000
vt 0.4081 0.5408 0.0000
vt 0.4086 0.5198 0.0000
vt 0.4096 0.4990 0.0000
vt 0.5114 0.4594 0.0000
vt 0.5108 0.4801 0.0000
vt 0.5111 0.4386 0.0000
vt 0.5096 0.5823 0.0000
vt 0.5111 0.6023 0.0000
vt 0.5082 0.5620 0.0000
vt 0.5077 0.5414 0.0000
vt 0.5082 0.5205 0.0000
vt 0.5095 0.5004 0.0000
vt 0.0803 0.9405 0.2671
vt 0.0478 0.9051 0.0000
vt 0.1699 0.8236 0.0000
vt 0.0279 0.8613 0.0000
vt 0.3104 0.8664 0.0000
vt 0.2904 0.9085 0.0000
vt 0.2576 0.9421 0.2671
vt 0.2151 0.9639 0.0000
vt 0.1674 0.9713 0.0000
vt 0.1214 0.9632 0.0000
vt 0.6857 0.0111 0.0000
vt 0.7086 0.0114 0.0000
vt 0.7066 0.1159 0.0000
vt 0.6843 0.1155 0.0000
vt 0.7316 0.0119 0.9981
vt 0.7288 0.1164 0.0000
vt 0.5480 0.0119 0.9981
vt 0.5710 0.0114 0.0000
vt 0.5730 0.1159 0.0000
vt 0.5508 0.1164 0.0000
vt 0.5939 0.0111 0.0000
vt 0.5953 0.1155 0.0000
vt 0.6169 0.0109 0.0000
vt 0.6175 0.1153 0.0000
vt 0.6398 0.0108 0.0000
vt 0.6398 0.1152 0.0000
vt 0.6627 0.0109 0.0000
vt 0.6621 0.1153 0.0000
vt 0.7045 0.2204 0.0000
vt 0.6829 0.2200 0.0000
vt 0.7260 0.2209 0.0000
vt 0.5751 0.2204 0.0000
vt 0.5535 0.2209 0.0000
vt 0.5966 0.2200 0.0000
vt 0.6182 0.2198 0.0000
vt 0.6398 0.2197 0.0000
vt 0.6614 0.2198 0.0000
vt 0.7024 0.3249 0.0000
vt 0.6815 0.3245 0.0000
vt 0.7232 0.3254 0.0000
vt 0.5772 0.3249 0.0000
vt 0.5563 0.3254 0.0000
vt 0.5980 0.3245 0.0000
vt 0.6189 0.3243 0.0000
vt 0.6398 0.3242 0.0000
vt 0.6607 0.3243 0.0000
vt 0.7002 0.4293 0.0000
vt 0.6801 0.4290 0.0000
vt 0.7203 0.4299 0.0000
vt 0.5793 0.4293 0.0000
vt 0.5592 0.4299 0.0000
vt 0.5995 0.4290 0.0000
vt 0.6196 0.4288 0.0000
vt 0.6398 0.4287 0.0000
vt 0.6599 0.4288 0.0000
vt 0.6981 0.5152 0.0000
vt 0.6786 0.5148 0.0000
vt 0.7175 0.5157 0.0000
vt 0.5814 0.5151 0.0000
vt 0.5620 0.5157 0.0000
vt 0.6009 0.5148 0.0000
vt 0.6203 0.5145 0.0000
vt 0.6398 0.5144 0.0000
vt 0.6592 0.5145 0.0000
vt 0.9863 0.7001 0.2302
vt 0.9773 0.7442 0.0000
vt 0.8348 0.6920 0.0000
vt 0.9557 0.7837 0.0000
vt 0.8102 0.5422 0.0000
vt 0.8552 0.5416 0.0000
vt 0.8985 0.5542 0.2302
vt 0.9361 0.5790 0.0000
vt 0.9648 0.6137 0.0000
vt 0.9821 0.6553 0.0000
vt 0.0100 0.2636 0.0000
vt 0.0093 0.2399 0.0000
vt 0.1067 0.2435 0.0000
vt 0.1072 0.2663 0.0000
vt 0.0098 0.2167 1.0059
vt 0.1072 0.2205 0.0000
vt 0.0098 0.4017 1.0059
vt 0.0097 0.3787 0.0000
vt 0.1069 0.3756 0.0000
vt 0.1071 0.3978 0.0000
vt 0.0104 0.3554 0.0000
vt 0.1075 0.3532 0.0000
vt 0.0112 0.3324 0.0000
vt 0.1082 0.3314 0.0000
vt 0.0115 0.3092 0.0000
vt 0.1084 0.3093 0.0000
vt 0.0110 0.2861 0.0000
vt 0.1080 0.2878 0.0000
vt 0.2037 0.2469 0.0000
vt 0.2035 0.2680 0.0000
vt 0.2043 0.2254 0.0000
vt 0.2037 0.3717 0.0000
vt 0.2042 0.3931 0.0000
vt 0.2035 0.3507 0.0000
vt 0.2035 0.3299 0.0000
vt 0.2035 0.3093 0.0000
vt 0.2034 0.2889 0.0000
vt 0.3003 0.2487 0.0000
vt 0.2993 0.2689 0.0000
vt 0.3010 0.2281 0.0000
vt 0.3001 0.3704 0.0000
vt 0.3009 0.3906 0.0000
vt 0.2991 0.3504 0.0000
vt 0.2982 0.3299 0.0000
vt 0.2980 0.3094 0.0000
vt 0.2984 0.2894 0.0000
vt 0.3971 0.2504 0.0000
vt 0.3960 0.2699 0.0000
vt 0.3978 0.2308 0.0000
vt 0.3968 0.3685 0.0000
vt 0.3977 0.3881 0.0000
vt 0.3958 0.3488 0.0000
vt 0.3949 0.3291 0.0000
vt 0.3947 0.3094 0.0000
vt 0.3951 0.2896 0.0000
vt 0.5198 0.2535 0.0000
vt 0.5190 0.2722 0.0000
vt 0.5206 0.2345 0.0000
vt 0.5198 0.3656 0.0000
vt 0.5205 0.3843 0.0000
vt 0.5189 0.3469 0.0000
vt 0.5182 0.3282 0.0000
vt 0.5179 0.3094 0.0000
vt 0.5182 0.2909 0.0000
vt 0.7537 0.5620 0.2176
vt 0.7837 0.5932 0.0000
vt 0.6732 0.6775 0.0000
vt 0.8043 0.6318 0.0000
vt 0.5424 0.6306 0.0000
vt 0.5624 0.5923 0.0000
vt 0.5927 0.5613 0.2176
vt 0.6309 0.5412 0.0000
vt 0.6736 0.5343 0.0000
vt 0.7157 0.5412 0.0000
vt 0.8098 0.5139 0.0000
vt 0.7869 0.5134 0.0000
vt 0.7903 0.4137 0.0000
vt 0.8118 0.4142 0.0000
vt 0.7640 0.5125 0.9958
vt 0.7688 0.4129 0.0000
vt 0.9471 0.5113 0.9958
vt 0.9242 0.5126 0.0000
vt 0.9195 0.4128 0.0000
vt 0.9409 0.4118 0.0000
vt 0.9014 0.5135 0.0000
vt 0.8980 0.4136 0.0000
vt 0.8785 0.5140 0.0000
vt 0.8765 0.4141 0.0000
vt 0.8556 0.5142 0.0000
vt 0.8549 0.4144 0.0000
vt 0.8327 0.5142 0.0000
vt 0.8333 0.4144 0.0000
vt 0.7927 0.3139 0.0000
vt 0.8132 0.3141 0.0000
vt 0.7723 0.3134 0.0000
vt 0.9157 0.3130 0.0000
vt 0.9361 0.3123 0.0000
vt 0.8953 0.3136 0.0000
vt 0.8748 0.3140 0.0000
vt 0.8543 0.3142 0.0000
vt 0.8337 0.3143 0.0000
vt 0.7940 0.2141 0.0000
vt 0.8138 0.2141 0.0000
vt 0.7742 0.2139 0.0000
vt 0.9131 0.2133 0.0000
vt 0.9329 0.2129 0.0000
vt 0.8933 0.2136 0.0000
vt 0.8735 0.2139 0.0000
vt 0.8536 0.2140 0.0000
vt 0.8337 0.2141 0.0000
vt 0.7939 0.1143 0.0000
vt 0.8136 0.1142 0.0000
vt 0.7744 0.1145 0.0000
vt 0.9118 0.1136 0.0000
vt 0.9314 0.1134 0.0000
vt 0.8922 0.1137 0.0000
vt 0.8726 0.1139 0.0000
vt 0.8529 0.1140 0.0000
vt 0.8332 0.1141 0.0000
vt 0.7929 0.0148 0.0000
vt 0.8127 0.0147 0.0000
vt 0.7731 0.0150 0.0000
vt 0.9115 0.0140 0.0000
vt 0.9313 0.0140 0.0000
vt 0.8917 0.0141 0.0000
vt 0.8720 0.0142 0.0000
vt 0.8522 0.0144 0.0000
vt 0.8324 0.0145 0.0000
vt 0.6301 0.8251 0.2605
vt 0.5882 0.8061 0.0000
vt 0.6695 0.6841 0.0000
vt 0.5543 0.7750 0.0000
vt 0.8160 0.6772 0.0000
vt 0.8110 0.7229 0.0000
vt 0.7920 0.7648 0.2605
vt 0.7609 0.7987 0.0000
vt 0.7208 0.8212 0.0000
vt 0.6757 0.8304 0.0000
vt 0.5233 0.7666 0.0000
vt 0.5226 0.7901 0.0000
vt 0.4243 0.7894 0.0000
vt 0.4253 0.7667 0.0000
vt 0.5219 0.8136 1.0004
vt 0.4235 0.8118 0.0000
vt 0.5217 0.6296 1.0004
vt 0.5221 0.6524 0.0000
vt 0.4237 0.6544 0.0000
vt 0.4233 0.6319 0.0000
vt 0.5225 0.6753 0.0000
vt 0.4246 0.6772 0.0000
vt 0.5231 0.6983 0.0000
vt 0.4256 0.6993 0.0000
vt 0.5236 0.7215 0.0000
vt 0.4261 0.7217 0.0000
vt 0.5237 0.7441 0.0000
vt 0.4260 0.7443 0.0000
vt 0.3261 0.7883 0.0000
vt 0.3268 0.7661 0.0000
vt 0.3254 0.8106 0.0000
vt 0.3257 0.6544 0.0000
vt 0.3252 0.6327 0.0000
vt 0.3264 0.6766 0.0000
vt 0.3271 0.6989 0.0000
vt 0.3274 0.7217 0.0000
vt 0.3273 0.7439 0.0000
vt 0.2281 0.7865 0.0000
vt 0.2288 0.7648 0.0000
vt 0.2273 0.8078 0.0000
vt 0.2277 0.6579 0.0000
vt 0.2272 0.6367 0.0000
vt 0.2282 0.6787 0.0000
vt 0.2287 0.7005 0.0000
vt 0.2291 0.7221 0.0000
vt 0.2291 0.7435 0.0000
vt 0.1305 0.7842 0.0000
vt 0.1318 0.7634 0.0000
vt 0.1296 0.8052 0.0000
vt 0.1301 0.6590 0.0000
vt 0.1295 0.6384 0.0000
vt 0.1312 0.6797 0.0000
vt 0.1323 0.7007 0.0000
vt 0.1329 0.7215 0.0000
vt 0.1327 0.7423 0.0000
vt 0.0149 0.7827 0.0000
vt 0.0166 0.7619 0.0000
vt 0.0138 0.8034 0.0000
vt 0.0143 0.6608 0.0000
vt 0.0136 0.6405 0.0000
vt 0.0159 0.6809 0.0000
vt 0.0176 0.7013 0.0000
vt 0.0186 0.7217 0.0000
vt 0.0181 0.7418 0.0000
vt 0.3926 0.9466 0.2668
vt 0.3598 0.9107 0.0000
vt 0.4830 0.8327 0.0000
vt 0.3406 0.8665 0.0000
vt 0.6238 0.8731 0.0000
vt 0.6030 0.9154 0.0000
vt 0.5696 0.9482 0.2668
vt 0.5269 0.9692 0.0000
vt 0.4798 0.9762 0.0000
vt 0.4336 0.9689 0.0000
# 384 texture coords

g Palissade___2M_Straight
s 8
f 1/1/1 2/2/2 3/3/3 4/4/4 
f 2/2/2 5/5/5 6/6/6 3/3/3 
f 5/7/5 7/8/7 8/9/8 6/10/6 
f 7/8/7 9/11/9 10/12/10 8/9/8 
f 9/11/9 11/13/11 12/14/12 10/12/10 
f 11/13/11 13/15/13 14/16/14 12/14/12 
f 13/15/13 15/17/15 16/18/16 14/16/14 
f 15/17/15 1/1/1 4/4/4 16/18/16 
f 4/4/4 3/3/3 17/19/17 18/20/18 
f 3/3/3 6/6/6 19/21/19 17/19/17 
f 6/10/6 8/9/8 20/22/20 19/23/19 
f 8/9/8 10/12/10 21/24/21 20/22/20 
f 10/12/10 12/14/12 22/25/22 21/24/21 
f 12/14/12 14/16/14 23/26/23 22/25/22 
f 14/16/14 16/18/16 24/27/24 23/26/23 
f 16/18/16 4/4/4 18/20/18 24/27/24 
f 18/20/18 17/19/17 25/28/25 26/29/26 
f 17/19/17 19/21/19 27/30/27 25/28/25 
f 19/23/19 20/22/20 28/31/28 27/32/27 
f 20/22/20 21/24/21 29/33/29 28/31/28 
f 21/24/21 22/25/22 30/34/30 29/33/29 
f 22/25/22 23/26/23 31/35/31 30/34/30 
f 23/26/23 24/27/24 32/36/32 31/35/31 
f 24/27/24 18/20/18 26/29/26 32/36/32 
f 26/29/26 25/28/25 33/37/33 34/38/34 
f 25/28/25 27/30/27 35/39/35 33/37/33 
f 27/32/27 28/31/28 36/40/36 35/41/35 
f 28/31/28 29/33/29 37/42/37 36/40/36 
f 29/33/29 30/34/30 38/43/38 37/42/37 
f 30/34/30 31/35/31 39/44/39 38/43/38 
f 31/35/31 32/36/32 40/45/40 39/44/39 
f 32/36/32 26/29/26 34/38/34 40/45/40 
f 34/38/34 33/37/33 41/46/41 42/47/42 
f 33/37/33 35/39/35 43/48/43 41/46/41 
f 35/41/35 36/40/36 44/49/44 43/50/43 
f 36/40/36 37/42/37 45/51/45 44/49/44 
f 37/42/37 38/43/38 46/52/46 45/51/45 
f 38/43/38 39/44/39 47/53/47 46/52/46 
f 39/44/39 40/45/40 48/54/48 47/53/47 
f 40/45/40 34/38/34 42/47/42 48/54/48 
s off
f 42/55/49 41/56/49 49/57/49 
f 41/56/50 43/58/50 49/57/50 
f 43/59/51 44/60/51 49/57/51 
f 44/60/52 45/61/52 49/57/52 
f 45/61/53 46/62/53 49/57/53 
f 46/62/54 47/63/54 49/57/54 
f 47/63/55 48/64/55 49/57/55 
f 48/64/56 42/55/56 49/57/56 
s 8
f 50/65/57 51/66/58 52/67/59 53/68/60 
f 51/66/58 54/69/61 55/70/62 52/67/59 
f 54/71/61 56/72/63 57/73/64 55/74/62 
f 56/72/63 58/75/65 59/76/66 57/73/64 
f 58/75/65 60/77/67 61/78/68 59/76/66 
f 60/77/67 62/79/69 63/80/70 61/78/68 
f 62/79/69 64/81/71 65/82/72 63/80/70 
f 64/81/71 50/65/57 53/68/60 65/82/72 
f 53/68/60 52/67/59 66/83/73 67/84/74 
f 52/67/59 55/70/62 68/85/75 66/83/73 
f 55/74/62 57/73/64 69/86/76 68/87/75 
f 57/73/64 59/76/66 70/88/77 69/86/76 
f 59/76/66 61/78/68 71/89/78 70/88/77 
f 61/78/68 63/80/70 72/90/79 71/89/78 
f 63/80/70 65/82/72 73/91/80 72/90/79 
f 65/82/72 53/68/60 67/84/74 73/91/80 
f 67/84/74 66/83/73 74/92/81 75/93/82 
f 66/83/73 68/85/75 76/94/83 74/92/81 
f 68/87/75 69/86/76 77/95/84 76/96/83 
f 69/86/76 70/88/77 78/97/85 77/95/84 
f 70/88/77 71/89/78 79/98/86 78/97/85 
f 71/89/78 72/90/79 80/99/87 79/98/86 
f 72/90/79 73/91/80 81/100/88 80/99/87 
f 73/91/80 67/84/74 75/93/82 81/100/88 
f 75/93/82 74/92/81 82/101/89 83/102/90 
f 74/92/81 76/94/83 84/103/91 82/101/89 
f 76/96/83 77/95/84 85/104/92 84/105/91 
f 77/95/84 78/97/85 86/106/93 85/104/92 
f 78/97/85 79/98/86 87/107/94 86/106/93 
f 79/98/86 80/99/87 88/108/95 87/107/94 
f 80/99/87 81/100/88 89/109/96 88/108/95 
f 81/100/88 75/93/82 83/102/90 89/109/96 
f 83/102/90 82/101/89 90/110/97 91/111/98 
f 82/101/89 84/103/91 92/112/99 90/110/97 
f 84/105/91 85/104/92 93/113/100 92/114/99 
f 85/104/92 86/106/93 94/115/101 93/113/100 
f 86/106/93 87/107/94 95/116/102 94/115/101 
f 87/107/94 88/108/95 96/117/103 95/116/102 
f 88/108/95 89/109/96 97/118/104 96/117/103 
f 89/109/96 83/102/90 91/111/98 97/118/104 
s off
f 91/119/105 90/120/105 98/121/105 
f 90/120/106 92/122/106 98/121/106 
f 92/123/107 93/124/107 98/121/107 
f 93/124/108 94/125/108 98/121/108 
f 94/125/109 95/126/109 98/121/109 
f 95/126/110 96/127/110 98/121/110 
f 96/127/111 97/128/111 98/121/111 
f 97/128/112 91/119/112 98/121/112 
s 8
f 99/129/113 100/130/114 101/131/115 102/132/116 
f 100/130/114 103/133/117 104/134/118 101/131/115 
f 103/135/117 105/136/119 106/137/120 104/138/118 
f 105/136/119 107/139/121 108/140/122 106/137/120 
f 107/139/121 109/141/123 110/142/124 108/140/122 
f 109/141/123 111/143/125 112/144/126 110/142/124 
f 111/143/125 113/145/127 114/146/128 112/144/126 
f 113/145/127 99/129/113 102/132/116 114/146/128 
f 102/132/116 101/131/115 115/147/129 116/148/130 
f 101/131/115 104/134/118 117/149/131 115/147/129 
f 104/138/118 106/137/120 118/150/132 117/151/131 
f 106/137/120 108/140/122 119/152/133 118/150/132 
f 108/140/122 110/142/124 120/153/134 119/152/133 
f 110/142/124 112/144/126 121/154/135 120/153/134 
f 112/144/126 114/146/128 122/155/136 121/154/135 
f 114/146/128 102/132/116 116/148/130 122/155/136 
f 116/148/130 115/147/129 123/156/137 124/157/138 
f 115/147/129 117/149/131 125/158/139 123/156/137 
f 117/151/131 118/150/132 126/159/140 125/160/139 
f 118/150/132 119/152/133 127/161/141 126/159/140 
f 119/152/133 120/153/134 128/162/142 127/161/141 
f 120/153/134 121/154/135 129/163/143 128/162/142 
f 121/154/135 122/155/136 130/164/144 129/163/143 
f 122/155/136 116/148/130 124/157/138 130/164/144 
f 124/157/138 123/156/137 131/165/145 132/166/146 
f 123/156/137 125/158/139 133/167/147 131/165/145 
f 125/160/139 126/159/140 134/168/148 133/169/147 
f 126/159/140 127/161/141 135/170/149 134/168/148 
f 127/161/141 128/162/142 136/171/150 135/170/149 
f 128/162/142 129/163/143 137/172/151 136/171/150 
f 129/163/143 130/164/144 138/173/152 137/172/151 
f 130/164/144 124/157/138 132/166/146 138/173/152 
f 132/166/146 131/165/145 139/174/153 140/175/154 
f 131/165/145 133/167/147 141/176/155 139/174/153 
f 133/169/147 134/168/148 142/177/156 141/178/155 
f 134/168/148 135/170/149 143/179/157 142/177/156 
f 135/170/149 136/171/150 144/180/158 143/179/157 
f 136/171/150 137/172/151 145/181/159 144/180/158 
f 137/172/151 138/173/152 146/182/160 145/181/159 
f 138/173/152 132/166/146 140/175/154 146/182/160 
s off
f 140/183/161 139/184/161 147/185/161 
f 139/184/162 141/186/162 147/185/162 
f 141/187/163 142/188/163 147/185/163 
f 142/188/164 143/189/164 147/185/164 
f 143/189/165 144/190/165 147/185/165 
f 144/190/166 145/191/166 147/185/166 
f 145/191/167 146/192/167 147/185/167 
f 146/192/168 140/183/168 147/185/168 
s 8
f 148/193/169 149/194/170 150/195/171 151/196/172 
f 149/194/170 152/197/173 153/198/174 150/195/171 
f 152/199/173 154/200/175 155/201/176 153/202/174 
f 154/200/175 156/203/177 157/204/178 155/201/176 
f 156/203/177 158/205/179 159/206/180 157/204/178 
f 158/205/179 160/207/181 161/208/182 159/206/180 
f 160/207/181 162/209/183 163/210/184 161/208/182 
f 162/209/183 148/193/169 151/196/172 163/210/184 
f 151/196/172 150/195/171 164/211/185 165/212/186 
f 150/195/171 153/198/174 166/213/187 164/211/185 
f 153/202/174 155/201/176 167/214/188 166/215/187 
f 155/201/176 157/204/178 168/216/189 167/214/188 
f 157/204/178 159/206/180 169/217/190 168/216/189 
f 159/206/180 161/208/182 170/218/191 169/217/190 
f 161/208/182 163/210/184 171/219/192 170/218/191 
f 163/210/184 151/196/172 165/212/186 171/219/192 
f 165/212/186 164/211/185 172/220/193 173/221/194 
f 164/211/185 166/213/187 174/222/195 172/220/193 
f 166/215/187 167/214/188 175/223/196 174/224/195 
f 167/214/188 168/216/189 176/225/197 175/223/196 
f 168/216/189 169/217/190 177/226/198 176/225/197 
f 169/217/190 170/218/191 178/227/199 177/226/198 
f 170/218/191 171/219/192 179/228/200 178/227/199 
f 171/219/192 165/212/186 173/221/194 179/228/200 
f 173/221/194 172/220/193 180/229/201 181/230/202 
f 172/220/193 174/222/195 182/231/203 180/229/201 
f 174/224/195 175/223/196 183/232/204 182/233/203 
f 175/223/196 176/225/197 184/234/205 183/232/204 
f 176/225/197 177/226/198 185/235/206 184/234/205 
f 177/226/198 178/227/199 186/236/207 185/235/206 
f 178/227/199 179/228/200 187/237/208 186/236/207 
f 179/228/200 173/221/194 181/230/202 187/237/208 
f 181/230/202 180/229/201 188/238/209 189/239/210 
f 180/229/201 182/231/203 190/240/211 188/238/209 
f 182/233/203 183/232/204 191/241/212 190/242/211 
f 183/232/204 184/234/205 192/243/213 191/241/212 
f 184/234/205 185/235/206 193/244/214 192/243/213 
f 185/235/206 186/236/207 194/245/215 193/244/214 
f 186/236/207 187/237/208 195/246/216 194/245/215 
f 187/237/208 181/230/202 189/239/210 195/246/216 
s off
f 189/247/217 188/248/217 196/249/217 
f 188/248/218 190/250/218 196/249/218 
f 190/251/219 191/252/219 196/249/219 
f 191/252/220 192/253/220 196/249/220 
f 192/253/221 193/254/221 196/249/221 
f 193/254/222 194/255/222 196/249/222 
f 194/255/223 195/256/223 196/249/223 
f 195/256/224 189/247/224 196/249/224 
s 8
f 197/257/225 198/258/226 199/259/227 200/260/228 
f 198/258/226 201/261/229 202/262/230 199/259/227 
f 201/263/229 203/264/231 204/265/232 202/266/230 
f 203/264/231 205/267/233 206/268/234 204/265/232 
f 205/267/233 207/269/235 208/270/236 206/268/234 
f 207/269/235 209/271/237 210/272/238 208/270/236 
f 209/271/237 211/273/239 212/274/240 210/272/238 
f 211/273/239 197/257/225 200/260/228 212/274/240 
f 200/260/228 199/259/227 213/275/241 214/276/242 
f 199/259/227 202/262/230 215/277/243 213/275/241 
f 202/266/230 204/265/232 216/278/244 215/279/243 
f 204/265/232 206/268/234 217/280/245 216/278/244 
f 206/268/234 208/270/236 218/281/246 217/280/245 
f 208/270/236 210/272/238 219/282/247 218/281/246 
f 210/272/238 212/274/240 220/283/248 219/282/247 
f 212/274/240 200/260/228 214/276/242 220/283/248 
f 214/276/242 213/275/241 221/284/249 222/285/250 
f 213/275/241 215/277/243 223/286/251 221/284/249 
f 215/279/243 216/278/244 224/287/252 223/288/251 
f 216/278/244 217/280/245 225/289/253 224/287/252 
f 217/280/245 218/281/246 226/290/254 225/289/253 
f 218/281/246 219/282/247 227/291/255 226/290/254 
f 219/282/247 220/283/248 228/292/256 227/291/255 
f 220/283/248 214/276/242 222/285/250 228/292/256 
f 222/285/250 221/284/249 229/293/257 230/294/258 
f 221/284/249 223/286/251 231/295/259 229/293/257 
f 223/288/251 224/287/252 232/296/260 231/297/259 
f 224/287/252 225/289/253 233/298/261 232/296/260 
f 225/289/253 226/290/254 234/299/262 233/298/261 
f 226/290/254 227/291/255 235/300/263 234/299/262 
f 227/291/255 228/292/256 236/301/264 235/300/263 
f 228/292/256 222/285/250 230/294/258 236/301/264 
f 230/294/258 229/293/257 237/302/265 238/303/266 
f 229/293/257 231/295/259 239/304/267 237/302/265 
f 231/297/259 232/296/260 240/305/268 239/306/267 
f 232/296/260 233/298/261 241/307/269 240/305/268 
f 233/298/261 234/299/262 242/308/270 241/307/269 
f 234/299/262 235/300/263 243/309/271 242/308/270 
f 235/300/263 236/301/264 244/310/272 243/309/271 
f 236/301/264 230/294/258 238/303/266 244/310/272 
s off
f 238/311/273 237/312/273 245/313/273 
f 237/312/274 239/314/274 245/313/274 
f 239/315/275 240/316/275 245/313/275 
f 240/316/276 241/317/276 245/313/276 
f 241/317/277 242/318/277 245/313/277 
f 242/318/278 243/319/278 245/313/278 
f 243/319/279 244/320/279 245/313/279 
f 244/320/280 238/311/280 245/313/280 
s 8
f 246/321/281 247/322/282 248/323/283 249/324/284 
f 247/322/282 250/325/285 251/326/286 248/323/283 
f 250/327/285 252/328/287 253/329/288 251/330/286 
f 252/328/287 254/331/289 255/332/290 253/329/288 
f 254/331/289 256/333/291 257/334/292 255/332/290 
f 256/333/291 258/335/293 259/336/294 257/334/292 
f 258/335/293 260/337/295 261/338/296 259/336/294 
f 260/337/295 246/321/281 249/324/284 261/338/296 
f 249/324/284 248/323/283 262/339/297 263/340/298 
f 248/323/283 251/326/286 264/341/299 262/339/297 
f 251/330/286 253/329/288 265/342/300 264/343/299 
f 253/329/288 255/332/290 266/344/301 265/342/300 
f 255/332/290 257/334/292 267/345/302 266/344/301 
f 257/334/292 259/336/294 268/346/303 267/345/302 
f 259/336/294 261/338/296 269/347/304 268/346/303 
f 261/338/296 249/324/284 263/340/298 269/347/304 
f 263/340/298 262/339/297 270/348/305 271/349/306 
f 262/339/297 264/341/299 272/350/307 270/348/305 
f 264/343/299 265/342/300 273/351/308 272/352/307 
f 265/342/300 266/344/301 274/353/309 273/351/308 
f 266/344/301 267/345/302 275/354/310 274/353/309 
f 267/345/302 268/346/303 276/355/311 275/354/310 
f 268/346/303 269/347/304 277/356/312 276/355/311 
f 269/347/304 263/340/298 271/349/306 277/356/312 
f 271/349/306 270/348/305 278/357/313 279/358/314 
f 270/348/305 272/350/307 280/359/315 278/357/313 
f 272/352/307 273/351/308 281/360/316 280/361/315 
f 273/351/308 274/353/309 282/362/317 281/360/316 
f 274/353/309 275/354/310 283/363/318 282/362/317 
f 275/354/310 276/355/311 284/364/319 283/363/318 
f 276/355/311 277/356/312 285/365/320 284/364/319 
f 277/356/312 271/349/306 279/358/314 285/365/320 
f 279/358/314 278/357/313 286/366/321 287/367/322 
f 278/357/313 280/359/315 288/368/323 286/366/321 
f 280/361/315 281/360/316 289/369/324 288/370/323 
f 281/360/316 282/362/317 290/371/325 289/369/324 
f 282/362/317 283/363/318 291/372/326 290/371/325 
f 283/363/318 284/364/319 292/373/327 291/372/326 
f 284/364/319 285/365/320 293/374/328 292/373/327 
f 285/365/320 279/358/314 287/367/322 293/374/328 
s off
f 287/375/329 286/376/329 294/377/329 
f 286/376/330 288/378/330 294/377/330 
f 288/379/331 289/380/331 294/377/331 
f 289/380/332 290/381/332 294/377/332 
f 290/381/333 291/382/333 294/377/333 
f 291/382/334 292/383/334 294/377/334 
f 292/383/335 293/384/335 294/377/335 
f 293/384/336 287/375/336 294/377/336 
# 240 polygons - 48 triangles

