# 3ds Max Wavefront OBJ Exporter v0.97b - (c)2007 guruware
# File Created: 22.04.2016 16:00:44

mtllib rack-fish-viande_03.mtl

#
# object Rack_fish_meat_03
#

v  -14.4228 0.7738 0.0000
v  -14.4228 -36.0474 -0.0000
v  14.4228 -36.0474 -0.0000
v  14.4228 0.7738 0.0000
# 4 vertices

vn 0.0000 -0.0000 1.0000
vn 0.0000 -0.0000 1.0000
vn 0.0000 -0.0000 1.0000
vn 0.0000 -0.0000 1.0000
# 4 vertex normals

vt 0.2945 0.7985 0.0000
vt 0.2945 0.6427 0.0000
vt 0.4166 0.6427 0.0000
vt 0.4166 0.7985 0.0000
# 4 texture coords

g Rack_fish_meat_03
usemtl wire_148177027
s 1
f 2/2/1 3/3/2 4/4/3 1/1/4 
# 1 polygons

