# 3ds Max Wavefront OBJ Exporter v0.97b - (c)2007 guruware
# File Created: 16.06.2016 09:21:41

mtllib F1_buisson_02.mtl

#
# object buisson_02
#

v  31.7869 -0.2741 -2.7104
v  -31.7869 -0.2741 -2.7104
v  -28.6000 17.1943 -10.4137
v  28.6000 17.1943 -10.4137
v  12.9361 -0.2741 16.2210
v  -12.9361 -0.2741 16.2210
v  -9.5685 34.6626 -8.7089
v  9.5685 34.6626 -8.7089
v  -11.8629 17.1943 8.2764
v  11.8629 17.1943 8.2764
v  -6.5484 13.0852 19.8444
v  -13.4404 20.3272 4.0485
v  5.9007 17.5068 6.1421
v  2.7197 1.3795 16.0642
v  -18.7813 4.1999 13.5624
v  4.5913 6.3931 22.5948
v  12.8288 -4.1452 15.5594
v  -7.8602 -1.3322 14.9177
v  -4.0092 14.7470 10.0435
v  15.6173 11.9339 10.3809
v  4.1895 23.3767 13.6127
v  12.0894 12.3201 11.4451
v  -7.1679 14.8384 9.6611
v  -3.3287 29.2166 -1.6817
v  13.5606 26.6983 -0.1366
v  -3.8954 29.8939 7.2542
v  -9.2913 33.9988 -9.6369
v  5.8420 31.7322 -6.8059
v  3.7632 18.7815 8.4996
v  -14.4978 21.0481 5.3448
v  -28.7524 12.5803 4.5104
v  -26.2251 17.4208 -9.4499
v  -17.8019 16.8172 1.5721
v  -21.8480 4.7367 6.7531
v  -30.7103 5.3403 -4.4942
v  -24.5923 6.3446 15.8131
v  -11.2632 -4.4984 15.6955
v  -27.6930 -3.4743 0.3138
v  -24.1951 15.0946 -2.9506
v  -8.1247 14.0706 12.1563
v  29.7395 6.1246 7.3879
v  29.5208 -2.4444 -0.6343
v  19.3542 1.1814 8.6374
v  20.8768 13.2629 2.9104
v  29.9329 9.6371 -6.3884
v  22.9284 12.9541 13.9624
v  9.8412 21.2165 5.4523
v  24.0734 16.3828 -5.9829
v  25.4825 0.5695 5.7509
v  8.5429 5.4031 17.2146
v  20.9448 25.0499 5.2661
v  24.2451 19.6131 -11.5079
v  17.6868 11.5033 7.0364
v  5.1015 25.1917 6.2674
v  14.0782 33.3015 -11.7901
v  -21.6603 21.6534 7.0448
v  -12.4658 12.8216 10.1844
v  -25.6190 12.0849 -1.3480
v  -20.8491 26.0755 -10.3453
v  -9.1280 26.8121 0.8968
# 60 vertices

vn -0.4189 0.3358 0.8436
vn -0.4432 0.4577 0.7708
vn 0.4524 0.4499 0.7700
vn 0.4252 0.3458 0.8365
vn 0.2988 0.6159 0.7290
vn 0.4524 0.4499 0.7700
vn -0.4432 0.4577 0.7708
vn -0.2988 0.6159 0.7290
vn -0.8267 0.2451 0.5065
vn -0.8125 0.3432 0.4713
vn -0.4432 0.4577 0.7708
vn -0.4189 0.3358 0.8436
vn 0.8091 0.3346 0.4830
vn 0.8085 0.2730 0.5214
vn 0.4252 0.3458 0.8365
vn 0.4524 0.4499 0.7700
vn 0.2988 0.6159 0.7290
vn 0.8091 0.3346 0.4830
vn 0.4524 0.4499 0.7700
vn -0.2988 0.6159 0.7290
vn -0.4432 0.4577 0.7708
vn -0.8125 0.3432 0.4713
vn -0.0345 0.3889 0.9207
vn -0.2847 0.8050 0.5205
vn 0.4589 0.7047 0.5411
vn -0.0345 0.3889 0.9207
vn 0.4589 0.7047 0.5411
vn 0.3094 -0.1224 0.9430
vn -0.0345 0.3889 0.9207
vn 0.3094 -0.1224 0.9430
vn -0.6057 -0.0188 0.7955
vn -0.0345 0.3889 0.9207
vn -0.6057 -0.0188 0.7955
vn -0.2847 0.8050 0.5205
vn 0.0310 0.2046 0.9783
vn 0.3732 -0.3276 0.8680
vn -0.5412 -0.2058 0.8153
vn 0.0310 0.2046 0.9783
vn -0.5412 -0.2058 0.8153
vn -0.2755 0.6897 0.6696
vn 0.0310 0.2046 0.9783
vn -0.2755 0.6897 0.6696
vn 0.5293 0.5773 0.6217
vn 0.0310 0.2046 0.9783
vn 0.5293 0.5773 0.6217
vn 0.3732 -0.3276 0.8680
vn 0.0322 0.4866 0.8730
vn 0.3688 -0.0097 0.9295
vn -0.5498 0.0743 0.8320
vn 0.0322 0.4866 0.8730
vn -0.5498 0.0743 0.8320
vn -0.2292 0.8563 0.4628
vn 0.0322 0.4866 0.8730
vn -0.2292 0.8563 0.4628
vn 0.4840 0.7606 0.4327
vn 0.0322 0.4866 0.8730
vn 0.4840 0.7606 0.4327
vn 0.3688 -0.0097 0.9295
vn -0.0124 0.6457 0.7635
vn -0.2215 0.9234 0.3134
vn 0.4425 0.8344 0.3285
vn -0.0124 0.6457 0.7635
vn 0.4425 0.8344 0.3285
vn 0.2936 0.1978 0.9352
vn -0.0124 0.6457 0.7635
vn 0.2936 0.1978 0.9352
vn -0.5872 0.2425 0.7722
vn -0.0124 0.6457 0.7635
vn -0.5872 0.2425 0.7722
vn -0.2215 0.9234 0.3134
vn -0.6475 0.3419 0.6811
vn -0.8465 0.5197 0.1156
vn -0.3071 0.7625 0.5695
vn -0.6475 0.3419 0.6811
vn -0.3071 0.7625 0.5695
vn -0.6306 -0.1176 0.7671
vn -0.6475 0.3419 0.6811
vn -0.6306 -0.1176 0.7671
vn -0.9850 -0.0321 0.1695
vn -0.6475 0.3419 0.6811
vn -0.9850 -0.0321 0.1695
vn -0.8465 0.5197 0.1156
vn -0.6188 0.1658 0.7679
vn -0.4799 -0.3279 0.8137
vn -0.9529 -0.1696 0.2516
vn -0.6188 0.1658 0.7679
vn -0.9529 -0.1696 0.2516
vn -0.8674 0.4399 0.2326
vn -0.6188 0.1658 0.7679
vn -0.8674 0.4399 0.2326
vn -0.3015 0.6325 0.7135
vn -0.6188 0.1658 0.7679
vn -0.3015 0.6325 0.7135
vn -0.4799 -0.3279 0.8137
vn 0.6614 0.1834 0.7273
vn 0.9215 -0.2477 0.2992
vn 0.3568 -0.2144 0.9092
vn 0.6614 0.1834 0.7273
vn 0.3568 -0.2144 0.9092
vn 0.5714 0.6494 0.5017
vn 0.6614 0.1834 0.7273
vn 0.5714 0.6494 0.5017
vn 0.9438 0.3139 0.1040
vn 0.6614 0.1834 0.7273
vn 0.9438 0.3139 0.1040
vn 0.9215 -0.2477 0.2992
vn 0.6056 0.3556 0.7119
vn 0.4602 0.7731 0.4364
vn 0.8892 0.4406 0.1234
vn 0.6056 0.3556 0.7119
vn 0.8892 0.4406 0.1234
vn 0.9143 -0.1138 0.3888
vn 0.6056 0.3556 0.7119
vn 0.9143 -0.1138 0.3888
vn 0.3320 -0.0028 0.9433
vn 0.6056 0.3556 0.7119
vn 0.3320 -0.0028 0.9433
vn 0.4602 0.7731 0.4364
vn 0.6509 0.4284 0.6268
vn 0.9820 0.1806 0.0553
vn 0.8011 -0.0392 0.5973
vn 0.6509 0.4284 0.6268
vn 0.8011 -0.0392 0.5973
vn 0.0892 0.5677 0.8184
vn 0.6509 0.4284 0.6268
vn 0.0892 0.5677 0.8184
vn 0.7512 0.6374 0.1717
vn 0.6509 0.4284 0.6268
vn 0.7512 0.6374 0.1717
vn 0.9820 0.1806 0.0553
vn -0.5552 0.4269 0.7138
vn -0.4800 -0.0099 0.8772
vn -0.9536 -0.0071 0.3009
vn -0.5552 0.4269 0.7138
vn -0.9536 -0.0071 0.3009
vn -0.8127 0.5640 0.1464
vn -0.5552 0.4269 0.7138
vn -0.8127 0.5640 0.1464
vn -0.2606 0.8326 0.4887
vn -0.5552 0.4269 0.7138
vn -0.2606 0.8326 0.4887
vn -0.4800 -0.0099 0.8772
# 142 vertex normals

vt 0.4131 0.3883 0.0000
vt 0.6298 0.3883 0.0000
vt 0.6298 0.4471 0.0000
vt 0.4131 0.4471 0.0000
vt 0.4854 0.3883 0.0000
vt 0.5576 0.3883 0.0000
vt 0.5576 0.5060 0.0000
vt 0.4854 0.5060 0.0000
vt 0.5576 0.4471 0.0000
vt 0.4854 0.4471 0.0000
vt 0.8855 0.8561 0.0000
vt 0.9267 0.8149 0.0000
vt 0.9267 0.8973 0.0000
vt 0.8443 0.8973 0.0000
vt 0.8443 0.8149 0.0000
# 15 texture coords

g buisson_02
usemtl Material__3
s 1
f 5/5/4 10/10/3 9/9/2 6/6/1 
f 7/7/8 9/9/7 10/10/6 8/8/5 
f 6/6/12 9/9/11 3/3/10 2/2/9 
f 10/10/16 5/5/15 1/1/14 4/4/13 
f 10/10/19 4/4/18 8/8/17 
f 3/3/22 9/9/21 7/7/20 
f 13/13/25 12/12/24 11/11/23 
f 14/14/28 13/13/27 11/11/26 
f 15/15/31 14/14/30 11/11/29 
f 12/12/34 15/15/33 11/11/32 
f 18/13/37 17/12/36 16/11/35 
f 19/14/40 18/13/39 16/11/38 
f 20/15/43 19/14/42 16/11/41 
f 17/12/46 20/15/45 16/11/44 
f 23/13/49 22/12/48 21/11/47 
f 24/14/52 23/13/51 21/11/50 
f 25/15/55 24/14/54 21/11/53 
f 22/12/58 25/15/57 21/11/56 
f 28/13/61 27/12/60 26/11/59 
f 29/14/64 28/13/63 26/11/62 
f 30/15/67 29/14/66 26/11/65 
f 27/12/70 30/15/69 26/11/68 
f 33/13/73 32/12/72 31/11/71 
f 34/14/76 33/13/75 31/11/74 
f 35/15/79 34/14/78 31/11/77 
f 32/12/82 35/15/81 31/11/80 
f 38/13/85 37/12/84 36/11/83 
f 39/14/88 38/13/87 36/11/86 
f 40/15/91 39/14/90 36/11/89 
f 37/12/94 40/15/93 36/11/92 
f 43/13/97 42/12/96 41/11/95 
f 44/14/100 43/13/99 41/11/98 
f 45/15/103 44/14/102 41/11/101 
f 42/12/106 45/15/105 41/11/104 
f 48/13/109 47/12/108 46/11/107 
f 49/14/112 48/13/111 46/11/110 
f 50/15/115 49/14/114 46/11/113 
f 47/12/118 50/15/117 46/11/116 
f 53/13/121 52/12/120 51/11/119 
f 54/14/124 53/13/123 51/11/122 
f 55/15/127 54/14/126 51/11/125 
f 52/12/130 55/15/129 51/11/128 
f 58/13/133 57/12/132 56/11/131 
f 59/14/136 58/13/135 56/11/134 
f 60/15/139 59/14/138 56/11/137 
f 57/12/142 60/15/141 56/11/140 
# 4 polygons - 42 triangles

