# 3ds Max Wavefront OBJ Exporter v0.97b - (c)2007 guruware
# File Created: 16.06.2016 09:20:14

mtllib F1_hautes-herbes_01.mtl

#
# object Hautes_herbes
#

v  -11.1687 41.0222 -0.0000
v  -11.1687 -0.0928 -0.0000
v  11.1687 -0.0928 0.0000
v  11.1687 41.0222 0.0000
v  -0.0000 -0.0928 8.4593
v  0.0000 41.0222 8.4593
v  -11.1687 41.0222 -0.0000
v  -11.1687 -0.0928 -0.0000
v  11.1687 -0.0928 0.0000
v  11.1687 41.0222 0.0000
v  -0.0000 -0.0928 8.4593
v  0.0000 41.0222 8.4593
# 12 vertices

vn -0.6931 0.0000 0.7209
vn -0.0000 0.0000 1.0000
vn -0.0000 0.0000 1.0000
vn -0.6931 0.0000 0.7209
vn 0.6931 -0.0000 0.7209
vn 0.6931 -0.0000 0.7209
vn -0.0000 0.0000 1.0000
vn -0.0000 0.0000 1.0000
vn 0.6931 -0.0000 -0.7209
vn 0.6931 -0.0000 -0.7209
vn 0.0000 -0.0000 -1.0000
vn 0.0000 -0.0000 -1.0000
vn -0.6931 0.0000 -0.7209
vn 0.0000 -0.0000 -1.0000
vn 0.0000 -0.0000 -1.0000
vn -0.6931 0.0000 -0.7209
# 16 vertex normals

vt 0.6383 0.8426 0.0000
vt 0.6383 0.6259 0.0000
vt 0.7560 0.6259 0.0000
vt 0.7560 0.8426 0.0000
vt 0.6972 0.6259 0.0000
vt 0.6972 0.8426 0.0000
vt 0.6383 0.8426 0.0000
vt 0.6383 0.6259 0.0000
vt 0.7560 0.6259 0.0000
vt 0.7560 0.8426 0.0000
vt 0.6972 0.6259 0.0000
vt 0.6972 0.8426 0.0000
# 12 texture coords

g Hautes_herbes
usemtl Material__3
s 1
f 2/2/1 5/5/2 6/6/3 1/1/4 
f 3/3/5 4/4/6 6/6/7 5/5/8 
f 8/8/9 7/7/10 12/12/11 11/11/12 
f 9/9/13 11/11/14 12/12/15 10/10/16 
# 4 polygons

