# 3ds Max Wavefront OBJ Exporter v0.97b - (c)2007 guruware
# File Created: 16.06.2016 09:27:23

mtllib roche_02.mtl

#
# object Roche_02
#

v  2.1026 12.3387 7.2934
v  16.8454 9.0995 8.0140
v  18.8932 10.9575 -5.5561
v  8.1104 -14.8178 9.1801
v  2.6604 -11.9059 14.6515
v  -6.9986 -15.1250 7.6151
v  -8.2563 2.0093 17.9327
v  -10.4778 7.4578 14.7324
v  -15.4151 2.7521 15.3813
v  -19.4681 9.0275 -14.0800
v  -15.3332 -2.3333 -12.4076
v  -23.9165 0.3908 -2.3394
v  -2.3989 7.2924 -15.4064
v  21.3193 -11.3302 -8.4288
v  24.1365 -2.3710 -9.1927
v  27.7117 -3.4118 3.5442
v  -3.4777 8.1997 15.1242
v  3.5885 7.9947 15.5916
v  17.9806 -12.1966 8.6728
v  5.7973 -7.3206 17.8286
v  8.4314 -6.9988 -17.3668
v  -2.4946 -6.2501 -15.9537
v  9.0836 0.3221 -20.9835
v  -8.0475 -14.6562 -2.8055
v  4.7225 13.5611 -9.1576
v  -7.7610 13.2677 -9.4526
v  -11.4825 13.3777 5.9499
v  -18.3539 11.3517 -5.3302
v  -22.3086 7.5611 2.0920
v  16.2743 -6.7431 -14.7127
v  9.4041 8.7984 -15.7845
v  25.8990 -0.1847 -5.3535
v  20.4795 4.4725 14.0115
v  11.4278 -0.6405 17.3634
v  20.2425 -6.6298 12.1302
v  -20.6758 0.9353 9.5975
v  -20.5984 -9.2782 5.8608
v  -11.8640 -2.8753 16.5701
v  22.1220 4.0173 -0.6046
v  14.2484 3.3421 -12.8915
v  11.5505 -14.3011 -0.8113
v  4.1908 -9.4123 -9.4128
v  -21.6577 -5.4402 -3.9176
v  -10.3287 -9.7266 -6.1041
v  -16.7702 -11.4028 -1.2772
v  3.1040 -0.1565 17.1915
v  -3.4837 -0.5974 -20.8192
v  23.8518 -11.7908 3.7780
v  -10.8629 -11.2049 13.8099
v  -15.5061 -6.7302 -12.4810
v  7.4058 -15.2104 -7.2913
v  2.3671 -16.3082 4.3192
v  -5.4100 13.8029 11.1022
v  14.8596 6.6424 15.4131
v  -10.5833 -12.6698 10.0542
# 55 vertices

vn 0.6947 0.6698 -0.2623
vn 0.0858 0.9633 -0.2542
vn 0.1511 0.9572 0.2467
vn 0.4595 0.8573 0.2322
vn 0.0475 -0.7336 0.6779
vn -0.3178 -0.8955 0.3116
vn -0.2286 -0.9360 0.2677
vn 0.1864 -0.9095 0.3717
vn -0.1116 0.1085 0.9878
vn 0.0145 0.5969 0.8022
vn -0.3418 0.5835 0.7367
vn -0.5894 0.2188 0.7777
vn -0.6234 -0.0487 -0.7804
vn -0.7997 -0.4607 -0.3852
vn -0.9866 -0.0378 -0.1588
vn -0.5996 0.3860 -0.7011
vn -0.1598 0.5476 -0.8213
vn -0.2598 -0.0177 -0.9655
vn -0.6234 -0.0487 -0.7804
vn -0.5996 0.3860 -0.7011
vn 0.5731 -0.6904 -0.4415
vn 0.7994 0.0909 -0.5939
vn 0.9861 0.0277 0.1641
vn -0.1116 0.1085 0.9878
vn 0.0035 0.1092 0.9940
vn 0.0664 0.6332 0.7712
vn 0.0145 0.5969 0.8022
vn 0.1160 -0.3382 0.9339
vn 0.0475 -0.7336 0.6779
vn 0.1864 -0.9095 0.3717
vn 0.3397 -0.8187 0.4629
vn 0.0610 -0.7467 -0.6624
vn -0.0892 -0.7646 -0.6383
vn 0.2601 0.0817 -0.9621
vn 0.0858 0.9633 -0.2542
vn -0.0672 0.9350 -0.3482
vn 0.1511 0.9572 0.2467
vn -0.3067 0.9226 0.2339
vn -0.5746 0.8152 -0.0728
vn -0.8413 0.5100 0.1791
vn 0.2601 0.0817 -0.9621
vn 0.6681 0.4301 -0.6072
vn 0.7994 0.0909 -0.5939
vn 0.4009 -0.4733 -0.7844
vn 0.3118 0.6203 -0.7198
vn -0.1598 0.5476 -0.8213
vn -0.0672 0.9350 -0.3482
vn 0.0858 0.9633 -0.2542
vn 0.8698 0.3757 -0.3199
vn 0.7953 0.6020 -0.0721
vn 0.6693 0.3844 0.6358
vn 0.9861 0.0277 0.1641
vn 0.2100 -0.0006 0.9777
vn 0.1160 -0.3382 0.9339
vn 0.5650 -0.3605 0.7421
vn -0.5746 0.8152 -0.0728
vn -0.5996 0.3860 -0.7011
vn -0.9866 -0.0378 -0.1588
vn -0.8413 0.5100 0.1791
vn -0.3840 -0.2243 0.8957
vn -0.1116 0.1085 0.9878
vn -0.5894 0.2188 0.7777
vn 0.7953 0.6020 -0.0721
vn 0.6947 0.6698 -0.2623
vn 0.4595 0.8573 0.2322
vn 0.6681 0.4301 -0.6072
vn 0.3118 0.6203 -0.7198
vn 0.6947 0.6698 -0.2623
vn 0.7953 0.6020 -0.0721
vn 0.1864 -0.9095 0.3717
vn 0.0138 -0.9999 -0.0007
vn 0.2324 -0.9726 -0.0018
vn 0.3397 -0.8187 0.4629
vn -0.0892 -0.7646 -0.6383
vn 0.0610 -0.7467 -0.6624
vn -0.1490 -0.8273 -0.5417
vn -0.5996 0.3860 -0.7011
vn -0.5746 0.8152 -0.0728
vn -0.0672 0.9350 -0.3482
vn -0.1598 0.5476 -0.8213
vn -0.3067 0.9226 0.2339
vn -0.0672 0.9350 -0.3482
vn -0.5746 0.8152 -0.0728
vn -0.2107 -0.9041 -0.3717
vn -0.3560 -0.7645 -0.5374
vn -0.0892 -0.7646 -0.6383
vn -0.1490 -0.8273 -0.5417
vn -0.8412 0.0459 0.5387
vn -0.8413 0.5100 0.1791
vn -0.9866 -0.0378 -0.1588
vn -0.7604 -0.5854 0.2813
vn -0.7997 -0.4607 -0.3852
vn -0.5541 -0.5658 -0.6106
vn -0.3560 -0.7645 -0.5374
vn -0.4880 -0.8109 -0.3230
vn 0.2100 -0.0006 0.9777
vn 0.2417 0.6140 0.7514
vn 0.0664 0.6332 0.7712
vn 0.0035 0.1092 0.9940
vn 0.6693 0.3844 0.6358
vn 0.7953 0.6020 -0.0721
vn 0.4595 0.8573 0.2322
vn 0.2417 0.6140 0.7514
vn 0.9861 0.0277 0.1641
vn 0.6589 -0.7321 0.1727
vn 0.5731 -0.6904 -0.4415
vn 0.3397 -0.8187 0.4629
vn 0.5650 -0.3605 0.7421
vn 0.1160 -0.3382 0.9339
vn 0.1160 -0.3382 0.9339
vn -0.3840 -0.2243 0.8957
vn -0.3368 -0.6586 0.6730
vn -0.5541 -0.5658 -0.6106
vn -0.0892 -0.7646 -0.6383
vn -0.3560 -0.7645 -0.5374
vn -0.2286 -0.9360 0.2677
vn -0.3178 -0.8955 0.3116
vn -0.4880 -0.8109 -0.3230
vn -0.2107 -0.9041 -0.3717
vn -0.3368 -0.6586 0.6730
vn -0.3840 -0.2243 0.8957
vn -0.7604 -0.5854 0.2813
vn 0.1511 0.9572 0.2467
vn 0.0144 0.9038 0.4278
vn 0.0145 0.5969 0.8022
vn 0.0664 0.6332 0.7712
vn -0.3067 0.9226 0.2339
vn -0.8413 0.5100 0.1791
vn -0.3418 0.5835 0.7367
vn 0.4009 -0.4733 -0.7844
vn 0.5731 -0.6904 -0.4415
vn -0.2201 -0.8603 -0.4598
vn -0.1490 -0.8273 -0.5417
vn 0.5731 -0.6904 -0.4415
vn 0.4009 -0.4733 -0.7844
vn 0.7994 0.0909 -0.5939
vn -0.8413 0.5100 0.1791
vn -0.8412 0.0459 0.5387
vn -0.5894 0.2188 0.7777
vn -0.3418 0.5835 0.7367
vn 0.0664 0.6332 0.7712
vn 0.2417 0.6140 0.7514
vn 0.4595 0.8573 0.2322
vn 0.1511 0.9572 0.2467
vn 0.6681 0.4301 -0.6072
vn 0.8698 0.3757 -0.3199
vn 0.7994 0.0909 -0.5939
vn 0.7994 0.0909 -0.5939
vn 0.8698 0.3757 -0.3199
vn 0.9861 0.0277 0.1641
vn 0.0138 -0.9999 -0.0007
vn -0.2107 -0.9041 -0.3717
vn -0.1490 -0.8273 -0.5417
vn -0.1490 -0.8273 -0.5417
vn -0.2201 -0.8603 -0.4598
vn 0.0138 -0.9999 -0.0007
vn -0.3418 0.5835 0.7367
vn 0.0145 0.5969 0.8022
vn 0.0144 0.9038 0.4278
vn -0.3067 0.9226 0.2339
vn 0.2601 0.0817 -0.9621
vn 0.3118 0.6203 -0.7198
vn 0.6681 0.4301 -0.6072
vn 0.2324 -0.9726 -0.0018
vn 0.0138 -0.9999 -0.0007
vn -0.2201 -0.8603 -0.4598
vn 0.6589 -0.7321 0.1727
vn 0.3397 -0.8187 0.4629
vn 0.2324 -0.9726 -0.0018
vn 0.5731 -0.6904 -0.4415
vn 0.6693 0.3844 0.6358
vn 0.2417 0.6140 0.7514
vn 0.2100 -0.0006 0.9777
vn 0.5650 -0.3605 0.7421
vn -0.3840 -0.2243 0.8957
vn 0.1160 -0.3382 0.9339
vn 0.0035 0.1092 0.9940
vn -0.1116 0.1085 0.9878
vn -0.9866 -0.0378 -0.1588
vn -0.7997 -0.4607 -0.3852
vn -0.7604 -0.5854 0.2813
vn -0.3178 -0.8955 0.3116
vn -0.3368 -0.6586 0.6730
vn -0.7604 -0.5854 0.2813
vn -0.4880 -0.8109 -0.3230
vn -0.4880 -0.8109 -0.3230
vn -0.7604 -0.5854 0.2813
vn -0.7997 -0.4607 -0.3852
vn 0.6693 0.3844 0.6358
vn 0.5650 -0.3605 0.7421
vn 0.9861 0.0277 0.1641
vn 0.5650 -0.3605 0.7421
vn 0.6589 -0.7321 0.1727
vn 0.9861 0.0277 0.1641
vn -0.3368 -0.6586 0.6730
vn -0.3178 -0.8955 0.3116
vn 0.0475 -0.7336 0.6779
vn 0.1160 -0.3382 0.9339
vn -0.5541 -0.5658 -0.6106
vn -0.6234 -0.0487 -0.7804
vn -0.2598 -0.0177 -0.9655
vn -0.0892 -0.7646 -0.6383
vn -0.5541 -0.5658 -0.6106
vn -0.7997 -0.4607 -0.3852
vn -0.6234 -0.0487 -0.7804
vn 0.0858 0.9633 -0.2542
vn 0.6947 0.6698 -0.2623
vn 0.3118 0.6203 -0.7198
vn 0.0610 -0.7467 -0.6624
vn 0.4009 -0.4733 -0.7844
vn -0.1490 -0.8273 -0.5417
vn 0.2601 0.0817 -0.9621
vn 0.4009 -0.4733 -0.7844
vn 0.0610 -0.7467 -0.6624
vn -0.0892 -0.7646 -0.6383
vn -0.2598 -0.0177 -0.9655
vn 0.2601 0.0817 -0.9621
vn -0.2107 -0.9041 -0.3717
vn -0.4880 -0.8109 -0.3230
vn -0.3560 -0.7645 -0.5374
vn 0.0035 0.1092 0.9940
vn 0.1160 -0.3382 0.9339
vn 0.2100 -0.0006 0.9777
vn 0.8698 0.3757 -0.3199
vn 0.6681 0.4301 -0.6072
vn 0.7953 0.6020 -0.0721
vn -0.2201 -0.8603 -0.4598
vn 0.5731 -0.6904 -0.4415
vn 0.2324 -0.9726 -0.0018
vn 0.5650 -0.3605 0.7421
vn 0.3397 -0.8187 0.4629
vn 0.6589 -0.7321 0.1727
vn -0.3067 0.9226 0.2339
vn 0.0144 0.9038 0.4278
vn 0.1511 0.9572 0.2467
vn -0.0672 0.9350 -0.3482
vn -0.2286 -0.9360 0.2677
vn -0.2107 -0.9041 -0.3717
vn 0.0138 -0.9999 -0.0007
vn 0.1864 -0.9095 0.3717
vn 0.2601 0.0817 -0.9621
vn -0.2598 -0.0177 -0.9655
vn -0.1598 0.5476 -0.8213
vn 0.3118 0.6203 -0.7198
vn -0.8412 0.0459 0.5387
vn -0.7604 -0.5854 0.2813
vn -0.3840 -0.2243 0.8957
vn -0.5894 0.2188 0.7777
# 248 vertex normals

vt 0.7633 0.2152 0.0000
vt 0.2784 0.2130 0.0000
vt 0.3820 0.1921 0.0000
vt 0.8228 0.2190 0.0000
vt 0.8540 0.3141 0.0000
vt 0.8199 0.3047 0.0000
vt 0.6015 0.2161 0.0000
vt 0.4114 0.2796 0.0000
vt 0.3299 0.3251 0.0000
vt 0.5386 0.1882 0.0000
vt 0.1555 0.1296 0.0000
vt 0.6157 0.1084 0.0000
vt 0.7205 0.1621 0.0000
vt 0.2101 0.1565 0.0000
vt 0.1535 0.1779 0.0000
vt 0.8369 0.1765 0.0000
vt 0.5942 0.3364 0.0000
vt 0.1024 0.1866 0.0000
vt 0.6534 0.3977 0.0000
vt 0.5459 0.3807 0.0000
vt 0.8323 0.1053 0.0000
vt 0.1992 0.3691 0.0000
vt 0.7287 0.1155 0.0000
vt 0.9362 0.2799 0.0000
vt 0.9607 0.2349 0.0000
vt 0.1975 0.4600 0.0000
vt 0.1064 0.4377 0.0000
vt 0.1014 0.3690 0.0000
vt 0.3118 0.3938 0.0000
vt 0.9851 0.2976 0.0000
vt 0.3252 0.4680 0.0000
vt 0.7547 0.2674 0.0000
vt 0.6870 0.2359 0.0000
vt 0.6564 0.3218 0.0000
vt 0.7663 0.3518 0.0000
vt 0.2522 0.0837 0.0000
vt 0.2695 0.1453 0.0000
vt 0.7529 0.3920 0.0000
vt 0.8308 0.4548 0.0000
vt 0.7460 0.4483 0.0000
vt 0.2522 0.3405 0.0000
vt 0.8168 0.3978 0.0000
vt 0.6676 0.1600 0.0000
vt 0.8739 0.2991 0.0000
vt 0.8806 0.3883 0.0000
vt 0.6665 0.2809 0.0000
vt 0.5650 0.2780 0.0000
vt 0.5466 0.1448 0.0000
vt 0.8925 0.1565 0.0000
vt 0.8756 0.4939 0.0000
vt 0.1905 0.2438 0.0000
vt 0.7419 0.4778 0.0000
vt 0.1772 0.3305 0.0000
vt 0.1249 0.3001 0.0000
vt 0.6234 0.4515 0.0000
vt 0.9738 0.3660 0.0000
vt 0.5195 0.3931 0.0000
vt 0.4269 0.4255 0.0000
vt 0.4464 0.3506 0.0000
vt 0.5254 0.3069 0.0000
vt 0.3865 0.3663 0.0000
vt 0.5014 0.1682 0.0000
vt 0.5109 0.2597 0.0000
vt 0.4565 0.2430 0.0000
vt 0.3963 0.1512 0.0000
vt 0.0096 0.3502 0.0000
vt 0.0742 0.2631 0.0000
vt 0.3370 0.0845 0.0000
vt 0.3554 0.1430 0.0000
vt 0.2170 0.2055 0.0000
vt 0.4429 0.0817 0.0000
# 71 texture coords

g Roche_02
usemtl Checker
s 1
f 3/8/1 25/9/2 1/2/3 2/3/4 
f 5/4/5 55/5/6 6/6/7 4/1/8 
f 7/11/9 17/14/10 8/15/11 9/18/12 
f 11/26/13 43/27/14 12/28/15 10/22/16 
f 13/29/17 47/31/18 11/26/19 10/22/20 
f 14/7/21 15/10/22 16/12/23 
f 7/11/24 46/36/25 18/37/26 17/14/27 
f 20/16/28 5/4/29 4/1/30 19/13/31 
f 21/17/32 22/19/33 23/20/34 
f 25/9/35 26/41/36 1/2/37 
f 27/51/38 28/53/39 29/54/40 
f 23/58/41 40/59/42 15/60/43 30/57/44 
f 31/61/45 13/29/46 26/41/47 25/9/48 
f 32/63/49 39/64/50 33/65/51 16/62/52 
f 34/21/53 20/16/54 35/23/55 
f 28/53/56 10/22/57 12/28/58 29/54/59 
f 38/24/60 7/25/61 9/30/62 
f 39/64/63 3/8/64 2/3/65 
f 40/59/66 31/61/67 3/8/68 39/64/69 
f 4/1/70 52/32/71 41/33/72 19/13/73 
f 22/19/74 21/17/75 42/34/76 
f 10/22/77 28/53/78 26/41/79 13/29/80 
f 27/51/81 26/41/82 28/53/83 
f 24/35/84 44/38/85 22/19/86 42/34/87 
f 36/67/88 29/54/89 12/28/90 37/66/91 
f 43/39/92 50/40/93 44/38/94 45/42/95 
f 34/68/96 54/69/97 18/37/98 46/36/99 
f 33/65/100 39/64/101 2/3/102 54/69/103 
f 16/12/104 48/43/105 14/7/106 
f 19/13/107 35/23/108 20/16/109 
f 20/16/110 38/24/111 49/44/112 
f 50/40/113 22/19/114 44/38/115 
f 6/6/116 55/5/117 45/42/118 24/35/119 
f 49/44/120 38/24/121 37/45/122 
f 1/2/123 53/70/124 17/14/125 18/37/126 
f 27/51/127 29/54/128 8/15/129 
f 30/47/130 14/7/131 51/46/132 42/34/133 
f 14/7/134 30/47/135 15/10/136 
f 29/54/137 36/67/138 9/18/139 8/15/140 
f 18/37/141 54/69/142 2/3/143 1/2/144 
f 40/59/145 32/63/146 15/60/147 
f 15/10/148 32/48/149 16/12/150 
f 52/32/151 24/35/152 42/34/153 
f 42/34/154 51/46/155 52/32/156 
f 8/15/157 17/14/158 53/70/159 27/51/160 
f 23/58/161 31/61/162 40/59/163 
f 41/33/164 52/32/165 51/46/166 
f 48/43/167 19/13/168 41/33/169 14/7/170 
f 33/65/171 54/69/172 34/68/173 35/71/174 
f 38/24/175 20/16/176 46/49/177 7/25/178 
f 12/50/179 43/39/180 37/45/181 
f 55/5/182 49/44/183 37/45/184 45/42/185 
f 45/42/186 37/45/187 43/39/188 
f 33/65/189 35/71/190 16/62/191 
f 35/23/192 48/43/193 16/12/194 
f 49/44/195 55/5/196 5/4/197 20/16/198 
f 50/40/199 11/52/200 47/55/201 22/19/202 
f 50/40/203 43/39/204 11/52/205 
f 25/9/206 3/8/207 31/61/208 
f 21/17/209 30/47/210 42/34/211 
f 23/20/212 30/47/213 21/17/214 
f 22/19/215 47/55/216 23/20/217 
f 24/35/218 45/42/219 44/38/220 
f 46/49/221 20/16/222 34/21/223 
f 32/63/224 40/59/225 39/64/226 
f 51/46/227 14/7/228 41/33/229 
f 35/23/230 19/13/231 48/43/232 
f 27/51/233 53/70/234 1/2/235 26/41/236 
f 6/6/237 24/35/238 52/32/239 4/1/240 
f 23/58/241 47/31/242 13/29/243 31/61/244 
f 36/56/245 37/45/246 38/24/247 9/30/248 
# 35 polygons - 36 triangles

