# 3ds Max Wavefront OBJ Exporter v0.97b - (c)2007 guruware
# File Created: 20.04.2016 18:38:39

mtllib champignon_01.mtl

#
# object Mushroom_001
#

v  4.6843 63.7292 11.4896
v  6.1195 63.4460 -3.6920
v  -4.6662 63.6985 -0.5650
v  -10.2264 62.2466 9.0055
v  -7.3041 59.9408 19.4130
v  2.3889 58.1317 24.5611
v  13.1746 57.8792 21.4340
v  18.7348 59.3311 11.8636
v  15.8125 61.6369 1.4561
v  6.4961 56.5833 -18.6227
v  -13.4418 56.9852 -12.8656
v  -23.6666 54.6746 4.9388
v  -18.1887 51.0051 24.3611
v  -0.2170 48.1262 34.0238
v  19.7209 47.7244 28.2668
v  29.9457 50.0349 10.4623
v  24.4677 53.7044 -8.9600
v  5.8301 48.5128 -23.0688
v  -15.7383 48.8901 -16.8607
v  -26.7470 46.7209 2.4874
v  -20.7488 43.2759 23.6154
v  -1.2867 40.5732 34.1460
v  20.2399 40.1959 27.9447
v  31.2564 42.3651 8.6390
v  25.2994 45.8101 -12.4958
v  22.7428 38.3515 -12.7509
v  10.4507 51.3862 1.4302
v  4.8012 40.3946 -22.5596
v  4.1411 52.3688 -1.9686
v  -15.0214 40.6798 -16.8682
v  -2.8556 52.5060 0.0505
v  -25.1130 39.0401 0.9893
v  -6.4408 51.7174 6.3046
v  -19.5622 36.4359 20.5524
v  -4.5144 50.4649 13.1302
v  -1.6204 34.3928 30.3611
v  1.7952 49.4823 16.5290
v  18.2021 34.1076 24.6697
v  8.7919 49.3451 14.5099
v  28.2937 35.7474 6.8121
v  12.3771 50.1337 8.2558
v  0.0044 24.0885 -7.4854
v  6.4847 23.6638 -5.6653
v  9.8135 23.1225 0.1245
v  8.1036 22.7817 6.6394
v  2.2114 22.8410 10.1269
v  -4.4774 23.2657 8.3970
v  -7.8972 23.8070 2.3973
v  -5.9788 24.1478 -4.2078
v  -7.3619 0.0000 -11.0178
v  2.5851 0.0000 -12.9964
v  11.0178 0.0000 -7.3619
v  12.9964 0.0000 2.5851
v  7.3619 0.0000 11.0178
v  -2.5851 0.0000 12.9964
v  -11.0178 0.0000 7.3619
v  -12.9964 0.0000 -2.5851
# 57 vertices

vn 0.0821 0.9760 0.2015
vn 0.4226 0.9009 -0.0989
vn 0.1255 0.9578 -0.2587
vn 0.0821 0.9760 0.2015
vn 0.1255 0.9578 -0.2587
vn -0.1975 0.9664 -0.1647
vn 0.0821 0.9760 0.2015
vn -0.1975 0.9664 -0.1647
vn -0.3637 0.9228 0.1270
vn 0.0821 0.9760 0.2015
vn -0.3637 0.9228 0.1270
vn -0.2729 0.8502 0.4502
vn 0.0821 0.9760 0.2015
vn -0.2729 0.8502 0.4502
vn 0.0230 0.7918 0.6103
vn 0.0821 0.9760 0.2015
vn 0.0230 0.7918 0.6103
vn 0.3464 0.7826 0.5172
vn 0.0821 0.9760 0.2015
vn 0.3464 0.7826 0.5172
vn 0.5141 0.8276 0.2255
vn 0.0821 0.9760 0.2015
vn 0.5141 0.8276 0.2255
vn 0.4226 0.9009 -0.0989
vn 0.4226 0.9009 -0.0989
vn 0.6997 0.5800 -0.4173
vn 0.1405 0.6937 -0.7064
vn 0.1255 0.9578 -0.2587
vn 0.1255 0.9578 -0.2587
vn 0.1405 0.6937 -0.7064
vn -0.4639 0.7088 -0.5315
vn -0.1975 0.9664 -0.1647
vn -0.1975 0.9664 -0.1647
vn -0.4639 0.7088 -0.5315
vn -0.7864 0.6177 0.0101
vn -0.3637 0.9228 0.1270
vn -0.3637 0.9228 0.1270
vn -0.7864 0.6177 0.0101
vn -0.6270 0.4662 0.6242
vn -0.2729 0.8502 0.4502
vn -0.2729 0.8502 0.4502
vn -0.6270 0.4662 0.6242
vn -0.0616 0.3444 0.9368
vn 0.0230 0.7918 0.6103
vn 0.0230 0.7918 0.6103
vn -0.0616 0.3444 0.9368
vn 0.5676 0.3285 0.7549
vn 0.3464 0.7826 0.5172
vn 0.3464 0.7826 0.5172
vn 0.5676 0.3285 0.7549
vn 0.8838 0.4277 0.1898
vn 0.5141 0.8276 0.2255
vn 0.5141 0.8276 0.2255
vn 0.8838 0.4277 0.1898
vn 0.6997 0.5800 -0.4173
vn 0.4226 0.9009 -0.0989
vn 0.6997 0.5800 -0.4173
vn 0.7833 0.0523 -0.6195
vn 0.1196 0.2023 -0.9720
vn 0.1405 0.6937 -0.7064
vn 0.1405 0.6937 -0.7064
vn 0.1196 0.2023 -0.9720
vn -0.6102 0.2219 -0.7606
vn -0.4639 0.7088 -0.5315
vn -0.4639 0.7088 -0.5315
vn -0.6102 0.2219 -0.7606
vn -0.9890 0.1004 -0.1082
vn -0.7864 0.6177 0.0101
vn -0.7864 0.6177 0.0101
vn -0.9890 0.1004 -0.1082
vn -0.7874 -0.0936 0.6094
vn -0.6270 0.4662 0.6242
vn -0.6270 0.4662 0.6242
vn -0.7874 -0.0936 0.6094
vn -0.1240 -0.2444 0.9617
vn -0.0616 0.3444 0.9368
vn -0.0616 0.3444 0.9368
vn -0.1240 -0.2444 0.9617
vn 0.6058 -0.2642 0.7505
vn 0.5676 0.3285 0.7549
vn 0.5676 0.3285 0.7549
vn 0.6058 -0.2642 0.7505
vn 0.9850 -0.1418 0.0983
vn 0.8838 0.4277 0.1898
vn 0.8838 0.4277 0.1898
vn 0.9850 -0.1418 0.0983
vn 0.7833 0.0523 -0.6195
vn 0.6997 0.5800 -0.4173
vn 0.3125 -0.8520 -0.4200
vn 0.1106 -0.9474 -0.3003
vn -0.0272 -0.9205 -0.3897
vn 0.0044 -0.7908 -0.6120
vn -0.0272 -0.9205 -0.3897
vn -0.2176 -0.9180 -0.3314
vn -0.3585 -0.7818 -0.5102
vn 0.0044 -0.7908 -0.6120
vn -0.2176 -0.9180 -0.3314
vn -0.2868 -0.9432 -0.1679
vn -0.5241 -0.8322 -0.1813
vn -0.3585 -0.7818 -0.5102
vn -0.2868 -0.9432 -0.1679
vn -0.2235 -0.9744 -0.0236
vn -0.3972 -0.9066 0.1425
vn -0.5241 -0.8322 -0.1813
vn -0.2235 -0.9744 -0.0236
vn -0.0925 -0.9949 0.0392
vn -0.1011 -0.9579 0.2688
vn -0.3972 -0.9066 0.1425
vn -0.0925 -0.9949 0.0392
vn 0.0516 -0.9987 0.0052
vn 0.1922 -0.9643 0.1820
vn -0.1011 -0.9579 0.2688
vn 0.0516 -0.9987 0.0052
vn 0.1426 -0.9820 -0.1240
vn 0.3734 -0.9243 -0.0797
vn 0.1922 -0.9643 0.1820
vn 0.1426 -0.9820 -0.1240
vn 0.1106 -0.9474 -0.3003
vn 0.3125 -0.8520 -0.4200
vn 0.3734 -0.9243 -0.0797
vn -0.0272 -0.9205 -0.3897
vn 0.1106 -0.9474 -0.3003
vn 0.6041 0.1607 -0.7805
vn -0.1047 0.2235 -0.9691
vn 0.1106 -0.9474 -0.3003
vn 0.1426 -0.9820 -0.1240
vn 0.9874 0.0566 -0.1476
vn 0.6041 0.1607 -0.7805
vn 0.1426 -0.9820 -0.1240
vn 0.0516 -0.9987 0.0052
vn 0.8066 -0.0329 0.5901
vn 0.9874 0.0566 -0.1476
vn 0.0516 -0.9987 0.0052
vn -0.0925 -0.9949 0.0392
vn 0.1375 -0.0507 0.9892
vn 0.8066 -0.0329 0.5901
vn -0.0925 -0.9949 0.0392
vn -0.2235 -0.9744 -0.0236
vn -0.6191 0.0190 0.7851
vn 0.1375 -0.0507 0.9892
vn -0.2235 -0.9744 -0.0236
vn -0.2868 -0.9432 -0.1679
vn -0.9858 0.1315 0.1043
vn -0.6191 0.0190 0.7851
vn -0.2868 -0.9432 -0.1679
vn -0.2176 -0.9180 -0.3314
vn -0.7572 0.2138 -0.6172
vn -0.9858 0.1315 0.1043
vn -0.2176 -0.9180 -0.3314
vn -0.0272 -0.9205 -0.3897
vn -0.1047 0.2235 -0.9691
vn -0.7572 0.2138 -0.6172
vn -0.1047 0.2235 -0.9691
vn 0.6041 0.1607 -0.7805
vn 0.1809 0.2016 -0.9626
vn -0.5420 0.2205 -0.8109
vn 0.6041 0.1607 -0.7805
vn 0.9874 0.0566 -0.1476
vn 0.8129 0.1563 -0.5610
vn 0.1809 0.2016 -0.9626
vn 0.9874 0.0566 -0.1476
vn 0.8066 -0.0329 0.5901
vn 0.9767 0.1107 0.1839
vn 0.8129 0.1563 -0.5610
vn 0.8066 -0.0329 0.5901
vn 0.1375 -0.0507 0.9892
vn 0.5524 0.0935 0.8283
vn 0.9767 0.1107 0.1839
vn 0.1375 -0.0507 0.9892
vn -0.6191 0.0190 0.7851
vn -0.2045 0.1151 0.9721
vn 0.5524 0.0935 0.8283
vn -0.6191 0.0190 0.7851
vn -0.9858 0.1315 0.1043
vn -0.8286 0.1609 0.5363
vn -0.2045 0.1151 0.9721
vn -0.9858 0.1315 0.1043
vn -0.7572 0.2138 -0.6172
vn -0.9582 0.2039 -0.2006
vn -0.8286 0.1609 0.5363
vn -0.7572 0.2138 -0.6172
vn -0.1047 0.2235 -0.9691
vn -0.5420 0.2205 -0.8109
vn -0.9582 0.2039 -0.2006
vn 0.7833 0.0523 -0.6195
vn 0.3125 -0.8520 -0.4200
vn 0.0044 -0.7908 -0.6120
vn 0.1196 0.2023 -0.9720
vn 0.1196 0.2023 -0.9720
vn 0.0044 -0.7908 -0.6120
vn -0.3585 -0.7818 -0.5102
vn -0.6102 0.2219 -0.7606
vn -0.6102 0.2219 -0.7606
vn -0.3585 -0.7818 -0.5102
vn -0.5241 -0.8322 -0.1813
vn -0.9890 0.1004 -0.1082
vn -0.9890 0.1004 -0.1082
vn -0.5241 -0.8322 -0.1813
vn -0.3972 -0.9066 0.1425
vn -0.7874 -0.0936 0.6094
vn -0.7874 -0.0936 0.6094
vn -0.3972 -0.9066 0.1425
vn -0.1011 -0.9579 0.2688
vn -0.1240 -0.2444 0.9617
vn -0.1240 -0.2444 0.9617
vn -0.1011 -0.9579 0.2688
vn 0.1922 -0.9643 0.1820
vn 0.6058 -0.2642 0.7505
vn 0.6058 -0.2642 0.7505
vn 0.1922 -0.9643 0.1820
vn 0.3734 -0.9243 -0.0797
vn 0.9850 -0.1418 0.0983
vn 0.9850 -0.1418 0.0983
vn 0.3734 -0.9243 -0.0797
vn 0.3125 -0.8520 -0.4200
vn 0.7833 0.0523 -0.6195
# 216 vertex normals

vt 0.1506 0.4272 0.0000
vt 0.2219 0.4593 0.0000
vt 0.1799 0.5004 0.0000
vt 0.1206 0.5002 0.0000
vt 0.0786 0.4588 0.0000
vt 0.0786 0.4004 0.0000
vt 0.1205 0.3593 0.0000
vt 0.1799 0.3595 0.0000
vt 0.2218 0.4009 0.0000
vt 0.0126 0.9853 0.5916
vt 0.1009 0.9835 0.6046
vt 0.1915 0.9837 0.6544
vt 0.2809 0.9856 0.7320
vt 0.3665 0.9881 0.8221
vt 0.4488 0.9897 0.9143
vt 0.5298 0.9896 1.0049
vt 0.6116 0.9878 1.0964
vt 0.0154 0.9390 0.4369
vt 0.1025 0.9340 0.4627
vt 0.1907 0.9337 0.5239
vt 0.2783 0.9382 0.6089
vt 0.3639 0.9449 0.7087
vt 0.4476 0.9497 0.8136
vt 0.5304 0.9500 0.9169
vt 0.6138 0.9456 1.0204
vt 0.0162 0.9040 0.4998
vt 0.1031 0.8993 0.5530
vt 0.1906 0.8989 0.6073
vt 0.2776 0.9030 0.6599
vt 0.3632 0.9098 0.7257
vt 0.4472 0.9153 0.8124
vt 0.5305 0.9158 0.9153
vt 0.7208 0.9517 0.0000
vt 0.7611 0.9318 0.0000
vt 0.7742 0.9448 0.0000
vt 0.7578 0.9886 0.0000
vt 0.7927 0.9448 0.0000
vt 0.8102 0.9887 0.0000
vt 0.8058 0.9319 0.0000
vt 0.8474 0.9520 0.0000
vt 0.8059 0.9136 0.0000
vt 0.8475 0.8999 0.0000
vt 0.7929 0.9006 0.0000
vt 0.8106 0.8631 0.0000
vt 0.7743 0.9006 0.0000
vt 0.7581 0.8630 0.0000
vt 0.7612 0.9135 0.0000
vt 0.7210 0.8997 0.0000
vt 0.7696 0.4121 0.0000
vt 0.7442 0.4091 0.0000
vt 0.7228 0.4072 0.0000
vt 0.7002 0.4063 0.0000
vt 0.6771 0.4065 0.0000
vt 0.6538 0.4075 0.0000
vt 0.6310 0.4090 0.0000
vt 0.6108 0.4113 0.0000
vt 0.8052 0.3165 0.0000
vt 0.7519 0.5216 0.0000
vt 0.7752 0.3165 0.5000
vt 0.7305 0.5216 0.0000
vt 0.7460 0.3165 0.0000
vt 0.7103 0.5216 0.0000
vt 0.7181 0.3165 0.0000
vt 0.6911 0.5216 0.0000
vt 0.6911 0.3165 0.0000
vt 0.6721 0.5216 1.2662
vt 0.6639 0.3165 0.0000
vt 0.6529 0.5216 0.0000
vt 0.6357 0.3165 0.0000
vt 0.6326 0.5216 0.0000
vt 0.6060 0.3165 0.0000
vt 0.6111 0.5216 0.0000
vt 0.6143 0.9109 1.0308
vt 0.2818 0.4904 0.0000
vt 0.2043 0.5667 0.0000
vt 0.0946 0.5664 0.0000
vt 0.0171 0.4896 0.0000
vt 0.0171 0.3813 0.0000
vt 0.0947 0.3050 0.0000
vt 0.2043 0.3053 0.0000
vt 0.2818 0.3821 0.0000
vt 0.5760 0.3165 0.0000
vt 0.5896 0.5216 0.0000
vt 0.5829 0.4144 0.0000
vt 0.6989 0.9390 0.4369
vt 0.6960 0.9853 0.5916
vt 0.6997 0.9040 0.4998
vt 0.6989 0.9390 0.4369
# 88 texture coords

g Mushroom_001
usemtl _champignon_01default
s 1
f 1/1/1 9/2/2 2/3/3 
f 1/1/4 2/3/5 3/4/6 
f 1/1/7 3/4/8 4/5/9 
f 1/1/10 4/5/11 5/6/12 
f 1/1/13 5/6/14 6/7/15 
f 1/1/16 6/7/17 7/8/18 
f 1/1/19 7/8/20 8/9/21 
f 1/1/22 8/9/23 9/2/24 
f 9/2/25 17/74/26 10/75/27 2/3/28 
f 2/3/29 10/75/30 11/76/31 3/4/32 
f 3/4/33 11/76/34 12/77/35 4/5/36 
f 4/5/37 12/77/38 13/78/39 5/6/40 
f 5/6/41 13/78/42 14/79/43 6/7/44 
f 6/7/45 14/79/46 15/80/47 7/8/48 
f 7/8/49 15/80/50 16/81/51 8/9/52 
f 8/9/53 16/81/54 17/74/55 9/2/56 
f 17/10/57 25/18/58 18/19/59 10/11/60 
f 10/11/61 18/19/62 19/20/63 11/12/64 
f 11/12/65 19/20/66 20/21/67 12/13/68 
f 12/13/69 20/21/70 21/22/71 13/14/72 
f 13/14/73 21/22/74 22/23/75 14/15/76 
f 14/15/77 22/23/78 23/24/79 15/16/80 
f 15/16/81 23/24/82 24/25/83 16/17/84 
f 16/17/85 24/25/86 25/85/87 17/86/88 
f 26/33/89 27/34/90 29/35/91 28/36/92 
f 29/35/93 31/37/94 30/38/95 28/36/96 
f 31/37/97 33/39/98 32/40/99 30/38/100 
f 33/39/101 35/41/102 34/42/103 32/40/104 
f 35/41/105 37/43/106 36/44/107 34/42/108 
f 37/43/109 39/45/110 38/46/111 36/44/112 
f 39/45/113 41/47/114 40/48/115 38/46/116 
f 41/47/117 27/34/118 26/33/119 40/48/120 
f 29/58/121 27/60/122 43/50/123 42/49/124 
f 27/60/125 41/62/126 44/51/127 43/50/128 
f 41/62/129 39/64/130 45/52/131 44/51/132 
f 39/64/133 37/66/134 46/53/135 45/52/136 
f 37/66/137 35/68/138 47/54/139 46/53/140 
f 35/68/141 33/70/142 48/55/143 47/54/144 
f 33/70/145 31/72/146 49/56/147 48/55/148 
f 31/72/149 29/83/150 42/84/151 49/56/152 
f 42/49/153 43/50/154 51/59/155 50/57/156 
f 43/50/157 44/51/158 52/61/159 51/59/160 
f 44/51/161 45/52/162 53/63/163 52/61/164 
f 45/52/165 46/53/166 54/65/167 53/63/168 
f 46/53/169 47/54/170 55/67/171 54/65/172 
f 47/54/173 48/55/174 56/69/175 55/67/176 
f 48/55/177 49/56/178 57/71/179 56/69/180 
f 49/56/181 42/84/182 50/82/183 57/71/184 
f 25/18/185 26/26/186 28/27/187 18/19/188 
f 18/19/189 28/27/190 30/28/191 19/20/192 
f 19/20/193 30/28/194 32/29/195 20/21/196 
f 20/21/197 32/29/198 34/30/199 21/22/200 
f 21/22/201 34/30/202 36/31/203 22/23/204 
f 22/23/205 36/31/206 38/32/207 23/24/208 
f 23/24/209 38/32/210 40/73/211 24/25/212 
f 24/25/213 40/73/214 26/87/215 25/88/216 
# 48 polygons - 8 triangles

