# 3ds Max Wavefront OBJ Exporter v0.97b - (c)2007 guruware
# File Created: 16.06.2016 11:20:14

mtllib F1_arbustes_02.mtl

#
# object arbuste_02
#

v  -1.7147 34.9741 2.3124
v  -4.0846 24.9553 0.3484
v  -2.6570 26.6365 -9.9500
v  -0.2871 36.6553 -7.9859
v  -14.7235 18.6909 1.6703
v  -7.4187 11.3474 0.0696
v  -4.4138 16.2587 -8.7492
v  -11.7186 23.6022 -7.1484
v  8.0335 15.9749 4.4172
v  5.6832 23.9177 -2.0046
v  -3.1605 18.9748 -4.8815
v  -0.8102 11.0320 1.5403
v  -6.3603 16.7182 -10.1973
v  -3.9117 21.7593 -1.3405
v  -12.7770 18.2314 3.1184
v  -15.2256 13.1904 -5.7384
v  -2.9384 29.5042 -11.0944
v  0.9432 24.1191 -2.9836
v  -1.4332 32.1063 3.4567
v  -5.3148 37.4914 -4.6540
v  -3.3236 19.0462 -4.6532
v  1.0330 10.2244 -1.0412
v  8.1965 15.9034 4.1888
v  3.8399 24.7252 0.5768
v  1.2739 21.5954 -9.5008
v  11.4475 20.7703 -7.1197
v  8.9821 15.2401 1.4976
v  -1.1915 16.0653 -0.8834
v  6.1027 28.7306 9.3109
v  2.2033 19.5603 6.0627
v  1.7088 23.2590 -3.7859
v  5.6083 32.4293 -0.5377
v  -7.0392 16.2514 8.6181
v  -1.1412 8.8755 4.0727
v  0.5831 15.2907 -4.1000
v  -5.3148 22.6666 0.4454
v  -4.5768 2.7108 8.0137
v  4.8626 7.0790 6.7221
v  4.0537 5.7471 -3.6938
v  -5.3857 1.3789 -2.4022
v  13.0736 11.5856 5.5816
v  10.4403 20.8581 1.4660
v  0.6709 17.3199 -0.2549
v  3.3043 8.0474 3.8607
v  -1.5468 16.1917 -4.9652
v  3.2279 19.0530 3.9155
v  -4.9092 15.3505 9.4833
v  -9.6839 12.4892 0.6026
v  1.5469 26.3164 -4.2749
v  6.3163 19.0644 1.5998
v  6.2647 25.6732 9.7999
v  1.4953 32.9252 3.9251
v  0.5672 17.3538 0.0132
v  4.4771 7.6637 0.8290
v  13.1773 11.5517 5.3134
v  9.2674 21.2418 4.4976
v  9.2774 22.6326 -5.1876
v  15.2948 15.3528 -0.6438
v  6.6746 10.0790 2.3226
v  0.6572 17.3588 -2.2212
v  5.9109 11.4310 9.6613
v  -3.7264 15.1743 7.9407
v  -2.2207 14.2774 -2.4443
v  7.4166 10.5340 -0.7237
v  -6.4521 22.8442 10.7720
v  -7.3086 13.9065 5.3649
v  -2.2142 18.3156 -2.7300
v  -1.3578 27.2533 2.6770
v  -13.1428 10.9752 5.6325
v  -6.1137 3.9568 2.2879
v  0.9606 11.6530 1.0058
v  -6.0685 18.6713 4.3504
v  -12.8868 5.7416 1.9195
v  -9.4697 15.6483 2.0961
v  -0.3188 12.5669 -2.1095
v  -3.7360 2.6602 -2.2861
v  -2.2145 21.3993 -3.0524
v  -1.3565 13.7734 4.0863
v  -6.4518 19.7606 11.0943
v  -7.3098 27.3864 3.9556
v  -0.0996 15.3500 -3.1133
v  -1.0905 6.2319 1.9591
v  3.7897 10.3583 10.3302
v  4.7807 19.4764 5.2579
v  -1.3814 3.6832 -4.3753
v  -6.7144 6.2446 4.2762
v  1.5557 3.4935 10.1887
v  6.8887 0.9320 1.5372
v  -0.5287 11.4674 -3.6933
v  -2.6190 8.5119 6.1427
v  -12.6769 6.8411 3.5032
v  -10.5866 9.7966 -6.3327
v  1.0440 11.6785 1.2819
v  -7.0114 18.3836 1.2292
v  -13.2262 10.9497 5.3564
v  -5.1708 4.2446 5.4091
v  7.8885 -0.0798 -7.8676
v  7.8885 39.9116 -7.8676
v  -14.2599 39.9116 -7.0295
v  -14.2599 -0.0798 -7.0295
v  -0.3930 -0.0798 3.7304
v  -0.1861 12.5926 3.4407
v  7.8885 -0.0798 -7.8676
v  7.8885 39.9116 -7.8676
v  -14.2599 39.9116 -7.0295
v  -14.2599 -0.0798 -7.0295
v  -0.3930 -0.0798 3.7304
v  -0.1861 12.5926 3.4407
v  8.2269 1.4236 -7.0278
v  12.1434 33.3305 -0.8300
v  -5.3415 34.5662 3.8577
v  -9.2580 2.6593 -2.3402
v  3.5578 -0.0600 3.5602
v  4.9155 10.0877 5.2597
v  8.2269 1.4236 -7.0278
v  12.1434 33.3305 -0.8300
v  -5.3415 34.5662 3.8577
v  -9.2580 2.6593 -2.3402
v  3.5578 -0.0600 3.5602
v  4.9155 10.0877 5.2597
v  -5.9967 1.3628 -4.9368
v  -11.0231 26.1458 1.0192
v  2.4852 27.7515 5.7379
v  7.5116 2.9685 -0.2182
v  -2.7886 -0.0460 3.6325
v  -4.4615 7.8424 5.3058
v  -5.9967 1.3628 -4.9368
v  -11.0231 26.1458 1.0192
v  2.4852 27.7515 5.7379
v  7.5116 2.9685 -0.2182
v  -2.7886 -0.0460 3.6325
v  -4.4615 7.8424 5.3058
v  -1.7147 34.9741 2.3124
v  -4.0846 24.9553 0.3484
v  -2.6570 26.6365 -9.9500
v  -0.2871 36.6553 -7.9859
v  -14.7235 18.6909 1.6703
v  -7.4187 11.3474 0.0696
v  -4.4138 16.2587 -8.7492
v  -11.7186 23.6022 -7.1484
v  8.0335 15.9749 4.4172
v  5.6832 23.9177 -2.0046
v  -3.1605 18.9748 -4.8815
v  -0.8102 11.0320 1.5403
v  -6.3603 16.7182 -10.1973
v  -3.9117 21.7593 -1.3405
v  -12.7770 18.2314 3.1184
v  -15.2256 13.1904 -5.7384
v  -2.9384 29.5042 -11.0944
v  0.9432 24.1191 -2.9836
v  -1.4332 32.1063 3.4567
v  -5.3148 37.4914 -4.6540
v  -3.3236 19.0462 -4.6532
v  1.0330 10.2244 -1.0412
v  8.1965 15.9034 4.1888
v  3.8399 24.7252 0.5768
v  1.2739 21.5954 -9.5008
v  11.4475 20.7703 -7.1197
v  8.9821 15.2401 1.4976
v  -1.1915 16.0653 -0.8834
v  6.1027 28.7306 9.3109
v  2.2033 19.5603 6.0627
v  1.7088 23.2590 -3.7859
v  5.6083 32.4293 -0.5377
v  -7.0392 16.2514 8.6181
v  -1.1412 8.8755 4.0727
v  0.5831 15.2907 -4.1000
v  -5.3148 22.6666 0.4454
v  -4.5768 2.7108 8.0137
v  4.8626 7.0790 6.7221
v  4.0537 5.7471 -3.6938
v  -5.3857 1.3789 -2.4022
v  13.0736 11.5856 5.5816
v  10.4403 20.8581 1.4660
v  0.6709 17.3199 -0.2549
v  3.3043 8.0474 3.8607
v  -1.5468 16.1917 -4.9652
v  3.2279 19.0530 3.9155
v  -4.9092 15.3505 9.4833
v  -9.6839 12.4892 0.6026
v  1.5469 26.3164 -4.2749
v  6.3163 19.0644 1.5998
v  6.2647 25.6732 9.7999
v  1.4953 32.9252 3.9251
v  0.5672 17.3538 0.0132
v  4.4771 7.6637 0.8290
v  13.1773 11.5517 5.3134
v  9.2674 21.2418 4.4976
v  9.2774 22.6326 -5.1876
v  15.2948 15.3528 -0.6438
v  6.6746 10.0790 2.3226
v  0.6572 17.3588 -2.2212
v  5.9109 11.4310 9.6613
v  -3.7264 15.1743 7.9407
v  -2.2207 14.2774 -2.4443
v  7.4166 10.5340 -0.7237
v  -6.4521 22.8442 10.7720
v  -7.3086 13.9065 5.3649
v  -2.2142 18.3156 -2.7300
v  -1.3578 27.2533 2.6770
v  -13.1428 10.9752 5.6325
v  -6.1137 3.9568 2.2879
v  0.9606 11.6530 1.0058
v  -6.0685 18.6713 4.3504
v  -12.8868 5.7416 1.9195
v  -9.4697 15.6483 2.0961
v  -0.3188 12.5669 -2.1095
v  -3.7360 2.6602 -2.2861
v  -2.2145 21.3993 -3.0524
v  -1.3565 13.7734 4.0863
v  -6.4518 19.7606 11.0943
v  -7.3098 27.3864 3.9556
v  -0.0996 15.3500 -3.1133
v  -1.0905 6.2319 1.9591
v  3.7897 10.3583 10.3302
v  4.7807 19.4764 5.2579
v  -1.3814 3.6832 -4.3753
v  -6.7144 6.2446 4.2762
v  1.5557 3.4935 10.1887
v  6.8887 0.9320 1.5372
v  -0.5287 11.4674 -3.6933
v  -2.6190 8.5119 6.1427
v  -12.6769 6.8411 3.5032
v  -10.5866 9.7966 -6.3327
v  1.0440 11.6785 1.2819
v  -7.0114 18.3836 1.2292
v  -13.2262 10.9497 5.3564
v  -5.1708 4.2446 5.4091
v  -12.2325 15.8133 4.2085
v  -0.9968 13.1220 -7.2485
v  -8.1552 20.8541 -16.9572
v  -19.3909 23.5453 -5.5002
v  12.0128 22.1629 -2.2069
v  10.3452 12.6732 8.2628
v  -1.3575 20.8054 14.2492
v  0.3100 30.2951 3.7795
v  -7.3337 21.0863 -12.2858
v  -0.2949 28.0301 -1.4822
v  -0.6667 40.1145 -9.0693
v  -7.7055 33.1707 -19.8729
v  -0.2999 40.0485 -9.2921
v  -11.8523 33.9155 -17.3536
v  -7.7005 21.1521 -12.0629
v  3.8520 27.2852 -4.0014
v  -0.4498 24.8403 -10.7072
v  -16.9011 24.5605 -9.9189
v  -16.1481 29.4281 3.4820
v  0.3033 29.7079 2.6937
v  13.3077 27.0107 -4.0450
v  9.7979 18.3211 6.7752
v  2.1132 29.0179 13.5141
v  5.6230 37.7075 2.6939
v  -5.2587 28.8386 -9.4571
v  5.0727 33.6918 0.4876
v  7.8604 45.3674 -7.3614
v  -2.4710 40.5142 -17.3062
v  -13.9036 32.1529 3.6563
v  -8.6987 18.7795 1.9944
v  -2.6943 22.1155 -10.8816
v  -7.8992 35.4890 -9.2196
v  8.1604 45.2130 -7.6128
v  -5.8633 42.2590 -14.4632
v  -5.5587 28.9929 -9.2056
v  8.4650 31.9469 -2.3553
v  0.5546 31.9550 -2.3464
v  11.5554 26.0125 5.0681
v  20.6173 35.8183 -3.3085
v  9.6164 41.7608 -10.7229
v  5.7536 20.3281 -4.3485
v  17.5292 25.8861 3.8884
v  8.2695 37.5555 5.8473
v  -3.5060 31.9975 -2.3895
v  -2.6543 23.4897 -6.7169
v  8.5420 33.8324 -8.0004
v  -0.5207 42.1802 0.5439
v  -11.7171 31.8375 1.8274
v  -2.9096 27.1381 -3.4569
v  1.2066 36.6726 -15.2556
v  -12.4464 39.2482 -19.1874
v  -16.5627 29.7137 -7.3886
v  0.7862 29.3556 -3.5717
v  -15.3955 26.8007 -2.7314
v  -13.0579 19.8490 9.5696
v  3.1238 22.4039 8.7293
v  0.6950 25.3655 -6.1088
v  9.5827 20.2434 4.6997
v  -4.3038 15.7775 11.0651
v  -13.1915 20.8996 0.2565
v  -13.8986 22.0264 2.4110
v  -1.7888 21.5578 -5.4136
v  -7.6599 34.9643 -12.7260
v  -19.7698 35.4328 -4.9013
v  -1.4498 40.5647 3.3629
v  -7.9907 38.3163 -9.4785
v  -1.7252 25.1050 -9.5359
v  4.8158 27.3535 3.3055
v  -3.2047 29.0012 0.8325
v  7.7606 18.3895 4.3787
v  17.2279 28.8823 0.6663
v  6.2626 39.4939 -2.8799
v  -6.4498 17.6367 11.2369
v  -1.7698 11.0047 -0.6578
v  2.8410 23.5064 -6.2807
v  -1.8390 30.1383 5.6141
v  -12.9168 19.5069 9.4208
v  1.5285 26.2713 10.4110
v  0.6451 29.6977 -3.4230
v  -13.8002 22.9333 -4.4132
v  -12.2325 15.8133 4.2085
v  -19.3909 23.5453 -5.5002
v  -8.1553 20.8541 -16.9572
v  -0.9968 13.1221 -7.2485
v  12.0128 22.1629 -2.2069
v  0.3100 30.2951 3.7795
v  -1.3575 20.8054 14.2492
v  10.3452 12.6732 8.2628
v  -7.3337 21.0863 -12.2858
v  -7.7055 33.1707 -19.8729
v  -0.6667 40.1145 -9.0693
v  -0.2949 28.0301 -1.4822
v  -0.2999 40.0485 -9.2921
v  3.8520 27.2852 -4.0014
v  -7.7005 21.1521 -12.0629
v  -11.8523 33.9155 -17.3536
v  -0.4498 24.8403 -10.7072
v  0.3033 29.7079 2.6937
v  -16.1481 29.4281 3.4820
v  -16.9011 24.5605 -9.9189
v  13.3077 27.0107 -4.0450
v  5.6230 37.7075 2.6939
v  2.1132 29.0179 13.5141
v  9.7979 18.3211 6.7752
v  -5.2587 28.8386 -9.4571
v  -2.4710 40.5142 -17.3062
v  7.8604 45.3674 -7.3614
v  5.0727 33.6918 0.4876
v  -13.9036 32.1529 3.6563
v  -7.8992 35.4890 -9.2196
v  -2.6943 22.1155 -10.8816
v  -8.6987 18.7795 1.9944
v  8.1604 45.2130 -7.6128
v  8.4650 31.9469 -2.3553
v  -5.5587 28.9929 -9.2056
v  -5.8633 42.2590 -14.4632
v  0.5546 31.9550 -2.3465
v  9.6164 41.7608 -10.7230
v  20.6172 35.8183 -3.3085
v  11.5554 26.0126 5.0680
v  5.7536 20.3281 -4.3485
v  -3.5060 31.9975 -2.3895
v  8.2695 37.5555 5.8473
v  17.5292 25.8861 3.8884
v  -2.6543 23.4897 -6.7169
v  -11.7171 31.8375 1.8274
v  -0.5207 42.1802 0.5439
v  8.5420 33.8324 -8.0004
v  -2.9096 27.1381 -3.4569
v  -16.5627 29.7137 -7.3886
v  -12.4464 39.2482 -19.1874
v  1.2066 36.6726 -15.2556
v  0.7862 29.3556 -3.5717
v  3.1238 22.4039 8.7293
v  -13.0579 19.8490 9.5696
v  -15.3955 26.8007 -2.7314
v  0.6950 25.3655 -6.1088
v  -13.1915 20.8996 0.2565
v  -4.3038 15.7775 11.0651
v  9.5827 20.2434 4.6997
v  -13.8986 22.0263 2.4110
v  -19.7698 35.4328 -4.9013
v  -7.6599 34.9643 -12.7260
v  -1.7888 21.5578 -5.4136
v  -1.4498 40.5647 3.3629
v  4.8158 27.3535 3.3055
v  -1.7252 25.1050 -9.5359
v  -7.9907 38.3163 -9.4785
v  -3.2047 29.0012 0.8325
v  6.2626 39.4939 -2.8799
v  17.2279 28.8823 0.6663
v  7.7606 18.3895 4.3787
v  -6.4498 17.6367 11.2369
v  -1.8390 30.1383 5.6141
v  2.8410 23.5064 -6.2807
v  -1.7698 11.0047 -0.6578
v  -12.9168 19.5069 9.4208
v  -13.8002 22.9333 -4.4132
v  0.6451 29.6977 -3.4230
v  1.5285 26.2713 10.4110
# 388 vertices

vn 0.9646 -0.2465 0.0935
vn 0.9646 -0.2465 0.0935
vn 0.9646 -0.2465 0.0935
vn 0.9646 -0.2465 0.0935
vn 0.6579 0.5400 0.5249
vn 0.6579 0.5400 0.5249
vn 0.6579 0.5400 0.5249
vn 0.6579 0.5400 0.5249
vn -0.4946 0.4532 0.7416
vn -0.4946 0.4532 0.7416
vn -0.4946 0.4532 0.7416
vn -0.4946 0.4532 0.7416
vn 0.4867 -0.8102 0.3266
vn 0.4867 -0.8102 0.3266
vn 0.4867 -0.8102 0.3266
vn 0.4867 -0.8102 0.3266
vn -0.9011 -0.4011 0.1649
vn -0.9011 -0.4011 0.1649
vn -0.9011 -0.4011 0.1649
vn -0.9011 -0.4011 0.1649
vn -0.6038 0.0280 0.7966
vn -0.6038 0.0280 0.7966
vn -0.6038 0.0280 0.7966
vn -0.6038 0.0280 0.7966
vn 0.0549 -0.8474 -0.5281
vn 0.0549 -0.8474 -0.5281
vn 0.0549 -0.8474 -0.5281
vn 0.0549 -0.8474 -0.5281
vn 0.9270 -0.3334 -0.1717
vn 0.9270 -0.3334 -0.1717
vn 0.9270 -0.3334 -0.1717
vn 0.9270 -0.3334 -0.1717
vn 0.8103 0.3657 0.4580
vn 0.8103 0.3657 0.4580
vn 0.8103 0.3657 0.4580
vn 0.8103 0.3657 0.4580
vn -0.4278 0.9002 -0.0819
vn -0.4278 0.9002 -0.0819
vn -0.4278 0.9002 -0.0819
vn -0.4278 0.9002 -0.0819
vn -0.2765 0.3232 0.9050
vn -0.2765 0.3232 0.9050
vn -0.2765 0.3232 0.9050
vn -0.2765 0.3232 0.9050
vn 0.4422 -0.8955 0.0508
vn 0.4422 -0.8955 0.0508
vn 0.4422 -0.8955 0.0508
vn 0.4422 -0.8955 0.0508
vn -0.8905 -0.3570 0.2822
vn -0.8905 -0.3570 0.2822
vn -0.8905 -0.3570 0.2822
vn -0.8905 -0.3570 0.2822
vn -0.4224 -0.0945 0.9015
vn -0.4224 -0.0945 0.9015
vn -0.4224 -0.0945 0.9015
vn -0.4224 -0.0945 0.9015
vn 0.0215 -0.5165 -0.8560
vn 0.0215 -0.5165 -0.8560
vn 0.0215 -0.5165 -0.8560
vn 0.0215 -0.5165 -0.8560
vn -0.3662 -0.9302 0.0272
vn -0.3662 -0.9302 0.0272
vn -0.3662 -0.9302 0.0272
vn -0.3662 -0.9302 0.0272
vn 0.8714 -0.3123 0.3783
vn 0.8714 -0.3123 0.3783
vn 0.8714 -0.3123 0.3783
vn 0.8714 -0.3123 0.3783
vn 0.3147 -0.1327 0.9399
vn 0.3147 -0.1327 0.9399
vn 0.3147 -0.1327 0.9399
vn 0.3147 -0.1327 0.9399
vn -0.3725 0.1448 -0.9167
vn -0.3725 0.1448 -0.9167
vn -0.3725 0.1448 -0.9167
vn -0.3725 0.1448 -0.9167
vn -0.8713 -0.3840 -0.3055
vn -0.8713 -0.3840 -0.3055
vn -0.8713 -0.3840 -0.3055
vn -0.8713 -0.3840 -0.3055
vn -0.8811 0.2994 0.3661
vn -0.8811 0.2994 0.3661
vn -0.8811 0.2994 0.3661
vn -0.8811 0.2994 0.3661
vn 0.3528 0.9338 -0.0590
vn 0.3528 0.9338 -0.0590
vn 0.3528 0.9338 -0.0590
vn 0.3528 0.9338 -0.0590
vn 0.2195 -0.9462 -0.2377
vn 0.2195 -0.9462 -0.2377
vn 0.2195 -0.9462 -0.2377
vn 0.2195 -0.9462 -0.2377
vn 0.2472 0.3042 0.9200
vn 0.2472 0.3042 0.9200
vn 0.2472 0.3042 0.9200
vn 0.2472 0.3042 0.9200
vn 0.1546 0.0676 0.9857
vn 0.2669 0.3002 0.9158
vn -0.1882 0.2654 0.9456
vn -0.6033 0.0112 0.7974
vn 0.1546 0.0676 0.9857
vn -0.6033 0.0112 0.7974
vn 0.1361 0.0204 0.9905
vn 0.2669 0.3002 0.9158
vn 0.1546 0.0676 0.9857
vn 0.1361 0.0204 0.9905
vn 0.8138 0.0000 0.5811
vn -0.1546 -0.0676 -0.9857
vn -0.1361 -0.0204 -0.9905
vn 0.6033 -0.0112 -0.7974
vn 0.1882 -0.2654 -0.9456
vn -0.1546 -0.0676 -0.9857
vn 0.1882 -0.2654 -0.9456
vn -0.2669 -0.3002 -0.9158
vn -0.2669 -0.3002 -0.9158
vn -0.8138 -0.0000 -0.5811
vn -0.1361 -0.0204 -0.9905
vn -0.1546 -0.0676 -0.9857
vn 0.3577 -0.1535 0.9211
vn 0.4806 0.0794 0.8734
vn 0.0401 0.0739 0.9965
vn -0.4238 -0.1111 0.8989
vn 0.3577 -0.1535 0.9211
vn -0.4238 -0.1111 0.8989
vn 0.3351 -0.1991 0.9209
vn 0.4806 0.0794 0.8734
vn 0.3577 -0.1535 0.9211
vn 0.3351 -0.1991 0.9209
vn 0.9086 -0.1843 0.3748
vn -0.3577 0.1535 -0.9211
vn -0.3351 0.1991 -0.9209
vn 0.4238 0.1111 -0.8989
vn -0.0401 -0.0739 -0.9965
vn -0.3577 0.1535 -0.9211
vn -0.0401 -0.0739 -0.9965
vn -0.4806 -0.0794 -0.8734
vn -0.4806 -0.0794 -0.8734
vn -0.9086 0.1843 -0.3748
vn -0.3351 0.1991 -0.9209
vn -0.3577 0.1535 -0.9211
vn -0.4074 -0.2245 0.8852
vn -0.3820 -0.2686 0.8843
vn 0.3695 -0.1343 0.9195
vn -0.1105 0.0170 0.9937
vn -0.4074 -0.2245 0.8852
vn -0.1105 0.0170 0.9937
vn -0.5414 0.0028 0.8408
vn -0.5414 0.0028 0.8408
vn -0.9179 -0.2585 0.3011
vn -0.3820 -0.2686 0.8843
vn -0.4074 -0.2245 0.8852
vn 0.4074 0.2245 -0.8852
vn 0.5414 -0.0028 -0.8408
vn 0.1105 -0.0170 -0.9937
vn -0.3695 0.1343 -0.9195
vn 0.4074 0.2245 -0.8852
vn -0.3695 0.1343 -0.9195
vn 0.3820 0.2686 -0.8843
vn 0.5414 -0.0028 -0.8408
vn 0.4074 0.2245 -0.8852
vn 0.3820 0.2686 -0.8843
vn 0.9179 0.2585 -0.3011
vn -0.9646 0.2465 -0.0935
vn -0.9646 0.2465 -0.0935
vn -0.9646 0.2465 -0.0935
vn -0.9646 0.2465 -0.0935
vn -0.6579 -0.5400 -0.5249
vn -0.6579 -0.5400 -0.5249
vn -0.6579 -0.5400 -0.5249
vn -0.6579 -0.5400 -0.5249
vn 0.4946 -0.4532 -0.7416
vn 0.4946 -0.4532 -0.7416
vn 0.4946 -0.4532 -0.7416
vn 0.4946 -0.4532 -0.7416
vn -0.4867 0.8102 -0.3266
vn -0.4867 0.8102 -0.3266
vn -0.4867 0.8102 -0.3266
vn -0.4867 0.8102 -0.3266
vn 0.9011 0.4011 -0.1649
vn 0.9011 0.4011 -0.1649
vn 0.9011 0.4011 -0.1649
vn 0.9011 0.4011 -0.1649
vn 0.6038 -0.0280 -0.7966
vn 0.6038 -0.0280 -0.7966
vn 0.6038 -0.0280 -0.7966
vn 0.6038 -0.0280 -0.7966
vn -0.0549 0.8474 0.5281
vn -0.0549 0.8474 0.5281
vn -0.0549 0.8474 0.5281
vn -0.0549 0.8474 0.5281
vn -0.9270 0.3334 0.1717
vn -0.9270 0.3334 0.1717
vn -0.9270 0.3334 0.1717
vn -0.9270 0.3334 0.1717
vn -0.8103 -0.3657 -0.4580
vn -0.8103 -0.3657 -0.4580
vn -0.8103 -0.3657 -0.4580
vn -0.8103 -0.3657 -0.4580
vn 0.4278 -0.9002 0.0819
vn 0.4278 -0.9002 0.0819
vn 0.4278 -0.9002 0.0819
vn 0.4278 -0.9002 0.0819
vn 0.2765 -0.3232 -0.9050
vn 0.2765 -0.3232 -0.9050
vn 0.2765 -0.3232 -0.9050
vn 0.2765 -0.3232 -0.9050
vn -0.4422 0.8955 -0.0508
vn -0.4422 0.8955 -0.0508
vn -0.4422 0.8955 -0.0508
vn -0.4422 0.8955 -0.0508
vn 0.8905 0.3570 -0.2822
vn 0.8905 0.3570 -0.2822
vn 0.8905 0.3570 -0.2822
vn 0.8905 0.3570 -0.2822
vn 0.4224 0.0945 -0.9015
vn 0.4224 0.0945 -0.9015
vn 0.4224 0.0945 -0.9015
vn 0.4224 0.0945 -0.9015
vn -0.0215 0.5165 0.8560
vn -0.0215 0.5165 0.8560
vn -0.0215 0.5165 0.8560
vn -0.0215 0.5165 0.8560
vn 0.3662 0.9302 -0.0272
vn 0.3662 0.9302 -0.0272
vn 0.3662 0.9302 -0.0272
vn 0.3662 0.9302 -0.0272
vn -0.8714 0.3123 -0.3783
vn -0.8714 0.3123 -0.3783
vn -0.8714 0.3123 -0.3783
vn -0.8714 0.3123 -0.3783
vn -0.3147 0.1327 -0.9399
vn -0.3147 0.1327 -0.9399
vn -0.3147 0.1327 -0.9399
vn -0.3147 0.1327 -0.9399
vn 0.3725 -0.1448 0.9167
vn 0.3725 -0.1448 0.9167
vn 0.3725 -0.1448 0.9167
vn 0.3725 -0.1448 0.9167
vn 0.8713 0.3840 0.3055
vn 0.8713 0.3840 0.3055
vn 0.8713 0.3840 0.3055
vn 0.8713 0.3840 0.3055
vn 0.8811 -0.2994 -0.3661
vn 0.8811 -0.2994 -0.3661
vn 0.8811 -0.2994 -0.3661
vn 0.8811 -0.2994 -0.3661
vn -0.3528 -0.9338 0.0590
vn -0.3528 -0.9338 0.0590
vn -0.3528 -0.9338 0.0590
vn -0.3528 -0.9338 0.0590
vn -0.2195 0.9462 0.2377
vn -0.2195 0.9462 0.2377
vn -0.2195 0.9462 0.2377
vn -0.2195 0.9462 0.2377
vn -0.2472 -0.3042 -0.9200
vn -0.2472 -0.3042 -0.9200
vn -0.2472 -0.3042 -0.9200
vn -0.2472 -0.3042 -0.9200
vn 0.4925 0.8205 0.2903
vn 0.4925 0.8205 0.2903
vn 0.4925 0.8205 0.2903
vn 0.4925 0.8205 0.2903
vn -0.6456 -0.5118 -0.5668
vn -0.6456 -0.5118 -0.5668
vn -0.6456 -0.5118 -0.5668
vn -0.6456 -0.5118 -0.5668
vn -0.8766 0.2363 0.4193
vn -0.8766 0.2363 0.4193
vn -0.8766 0.2363 0.4193
vn -0.8766 0.2363 0.4193
vn -0.6115 0.1249 0.7813
vn -0.6115 0.1249 0.7813
vn -0.6115 0.1249 0.7813
vn -0.6115 0.1249 0.7813
vn -0.0323 0.9400 -0.3396
vn -0.0323 0.9400 -0.3396
vn -0.0323 0.9400 -0.3396
vn -0.0323 0.9400 -0.3396
vn -0.8235 -0.2811 -0.4929
vn -0.8235 -0.2811 -0.4929
vn -0.8235 -0.2811 -0.4929
vn -0.8235 -0.2811 -0.4929
vn -0.7106 0.5014 0.4935
vn -0.7106 0.5014 0.4935
vn -0.7106 0.5014 0.4935
vn -0.7106 0.5014 0.4935
vn 0.8437 0.2707 0.4636
vn 0.8437 0.2707 0.4636
vn 0.8437 0.2707 0.4636
vn 0.8437 0.2707 0.4636
vn -0.4693 0.3160 0.8245
vn -0.4693 0.3160 0.8245
vn -0.4693 0.3160 0.8245
vn -0.4693 0.3160 0.8245
vn -0.1005 0.6983 0.7087
vn -0.1005 0.6983 0.7087
vn -0.1005 0.6983 0.7087
vn -0.1005 0.6983 0.7087
vn -0.3709 -0.4323 0.8219
vn -0.3709 -0.4323 0.8219
vn -0.3709 -0.4323 0.8219
vn -0.3709 -0.4323 0.8219
vn 0.4348 -0.3688 0.8215
vn 0.4348 -0.3688 0.8215
vn 0.4348 -0.3688 0.8215
vn 0.4348 -0.3688 0.8215
vn -0.0313 0.7827 0.6216
vn -0.0313 0.7827 0.6216
vn -0.0313 0.7827 0.6216
vn -0.0313 0.7827 0.6216
vn -0.1090 0.8564 0.5047
vn -0.1090 0.8564 0.5047
vn -0.1090 0.8564 0.5047
vn -0.1090 0.8564 0.5047
vn 0.0667 -0.8793 -0.4715
vn 0.0667 -0.8793 -0.4715
vn 0.0667 -0.8793 -0.4715
vn 0.0667 -0.8793 -0.4715
vn 0.4607 0.5719 0.6787
vn 0.4607 0.5719 0.6787
vn 0.4607 0.5719 0.6787
vn 0.4607 0.5719 0.6787
vn -0.7958 -0.3795 0.4718
vn -0.7958 -0.3795 0.4718
vn -0.7958 -0.3795 0.4718
vn -0.7958 -0.3795 0.4718
vn 0.0096 0.3258 0.9454
vn 0.0096 0.3258 0.9454
vn 0.0096 0.3258 0.9454
vn 0.0096 0.3258 0.9454
vn 0.8934 -0.1370 0.4279
vn 0.8934 -0.1370 0.4279
vn 0.8934 -0.1370 0.4279
vn 0.8934 -0.1370 0.4279
vn -0.4250 0.8720 0.2431
vn -0.4250 0.8720 0.2431
vn -0.4250 0.8720 0.2431
vn -0.4250 0.8720 0.2431
vn -0.4925 -0.8205 -0.2903
vn -0.4925 -0.8205 -0.2903
vn -0.4925 -0.8205 -0.2903
vn -0.4925 -0.8205 -0.2903
vn 0.6456 0.5118 0.5668
vn 0.6456 0.5118 0.5668
vn 0.6456 0.5118 0.5668
vn 0.6456 0.5118 0.5668
vn 0.8766 -0.2363 -0.4193
vn 0.8766 -0.2363 -0.4193
vn 0.8766 -0.2363 -0.4193
vn 0.8766 -0.2363 -0.4193
vn 0.6115 -0.1249 -0.7813
vn 0.6115 -0.1249 -0.7813
vn 0.6115 -0.1249 -0.7813
vn 0.6115 -0.1249 -0.7813
vn 0.0323 -0.9400 0.3396
vn 0.0323 -0.9400 0.3396
vn 0.0323 -0.9400 0.3396
vn 0.0323 -0.9400 0.3396
vn 0.8235 0.2811 0.4929
vn 0.8235 0.2811 0.4929
vn 0.8235 0.2811 0.4929
vn 0.8235 0.2811 0.4929
vn 0.7106 -0.5014 -0.4935
vn 0.7106 -0.5014 -0.4935
vn 0.7106 -0.5014 -0.4935
vn 0.7106 -0.5014 -0.4935
vn -0.8437 -0.2707 -0.4636
vn -0.8437 -0.2707 -0.4636
vn -0.8437 -0.2707 -0.4636
vn -0.8437 -0.2707 -0.4636
vn 0.4693 -0.3160 -0.8245
vn 0.4693 -0.3160 -0.8245
vn 0.4693 -0.3160 -0.8245
vn 0.4693 -0.3160 -0.8245
vn 0.1005 -0.6983 -0.7087
vn 0.1005 -0.6983 -0.7087
vn 0.1005 -0.6983 -0.7087
vn 0.1005 -0.6983 -0.7087
vn 0.3709 0.4323 -0.8219
vn 0.3709 0.4323 -0.8219
vn 0.3709 0.4323 -0.8219
vn 0.3709 0.4323 -0.8219
vn -0.4348 0.3688 -0.8215
vn -0.4348 0.3688 -0.8215
vn -0.4348 0.3688 -0.8215
vn -0.4348 0.3688 -0.8215
vn 0.0313 -0.7827 -0.6216
vn 0.0313 -0.7827 -0.6216
vn 0.0313 -0.7827 -0.6216
vn 0.0313 -0.7827 -0.6216
vn 0.1090 -0.8564 -0.5047
vn 0.1090 -0.8564 -0.5047
vn 0.1090 -0.8564 -0.5047
vn 0.1090 -0.8564 -0.5047
vn -0.0667 0.8793 0.4715
vn -0.0667 0.8793 0.4715
vn -0.0667 0.8793 0.4715
vn -0.0667 0.8793 0.4715
vn -0.4607 -0.5719 -0.6787
vn -0.4607 -0.5719 -0.6787
vn -0.4607 -0.5719 -0.6787
vn -0.4607 -0.5719 -0.6787
vn 0.7958 0.3795 -0.4718
vn 0.7959 0.3795 -0.4718
vn 0.7958 0.3795 -0.4718
vn 0.7958 0.3795 -0.4718
vn -0.0096 -0.3258 -0.9454
vn -0.0096 -0.3258 -0.9454
vn -0.0096 -0.3258 -0.9454
vn -0.0096 -0.3258 -0.9454
vn -0.8934 0.1370 -0.4279
vn -0.8934 0.1370 -0.4279
vn -0.8934 0.1370 -0.4279
vn -0.8934 0.1370 -0.4279
vn 0.4250 -0.8720 -0.2431
vn 0.4250 -0.8720 -0.2431
vn 0.4250 -0.8720 -0.2431
vn 0.4250 -0.8720 -0.2431
# 418 vertex normals

vt 0.6079 0.9093 0.0000
vt 0.4220 0.9093 0.0000
vt 0.4220 0.7234 0.0000
vt 0.6079 0.7234 0.0000
vt 0.0151 0.3799 0.0000
vt 0.3879 0.3799 0.0000
vt 0.3879 0.5825 0.0000
vt 0.0151 0.5825 0.0000
vt 0.0151 0.4627 0.0000
vt 0.1332 0.4606 0.0000
vt 0.0151 0.3799 0.0000
vt 0.3879 0.3799 0.0000
vt 0.3879 0.5825 0.0000
vt 0.0151 0.5825 0.0000
vt 0.0151 0.4627 0.0000
vt 0.1332 0.4606 0.0000
vt 0.0151 0.3799 0.0000
vt 0.3879 0.3799 0.0000
vt 0.3879 0.5825 0.0000
vt 0.0151 0.5825 0.0000
vt 0.0151 0.4627 0.0000
vt 0.1332 0.4606 0.0000
vt 0.0151 0.3799 0.0000
vt 0.3879 0.3799 0.0000
vt 0.3879 0.5825 0.0000
vt 0.0151 0.5825 0.0000
vt 0.0151 0.4627 0.0000
vt 0.1332 0.4606 0.0000
vt 0.0151 0.3799 0.0000
vt 0.3879 0.3799 0.0000
vt 0.3879 0.5825 0.0000
vt 0.0151 0.5825 0.0000
vt 0.0151 0.4627 0.0000
vt 0.1332 0.4606 0.0000
vt 0.0151 0.3799 0.0000
vt 0.3879 0.3799 0.0000
vt 0.3879 0.5825 0.0000
vt 0.0151 0.5825 0.0000
vt 0.0151 0.4627 0.0000
vt 0.1332 0.4606 0.0000
vt 0.6079 0.9093 0.0000
vt 0.4220 0.9093 0.0000
vt 0.4220 0.7234 0.0000
vt 0.6079 0.7234 0.0000
vt 0.4220 0.7234 0.0000
vt 0.6079 0.7234 0.0000
vt 0.6079 0.9093 0.0000
vt 0.4220 0.9093 0.0000
vt 0.4220 0.7234 0.0000
vt 0.4220 0.9093 0.0000
vt 0.6079 0.9093 0.0000
vt 0.6079 0.7234 0.0000
# 52 texture coords

g arbuste_02
usemtl Material__3
s 1
f 1/1/1 2/2/2 3/3/3 4/4/4 
f 5/1/5 6/2/6 7/3/7 8/4/8 
f 9/1/9 10/2/10 11/3/11 12/4/12 
f 13/1/13 14/2/14 15/3/15 16/4/16 
f 17/1/17 18/2/18 19/3/19 20/4/20 
f 21/1/21 22/2/22 23/3/23 24/4/24 
f 25/1/25 26/2/26 27/3/27 28/4/28 
f 29/1/29 30/2/30 31/3/31 32/4/32 
f 33/1/33 34/2/34 35/3/35 36/4/36 
f 37/1/37 38/2/38 39/3/39 40/4/40 
f 41/1/41 42/2/42 43/3/43 44/4/44 
f 45/1/45 46/2/46 47/3/47 48/4/48 
f 49/1/49 50/2/50 51/3/51 52/4/52 
f 53/1/53 54/2/54 55/3/55 56/4/56 
f 57/1/57 58/2/58 59/3/59 60/4/60 
f 61/1/61 62/2/62 63/3/63 64/4/64 
f 65/1/65 66/2/66 67/3/67 68/4/68 
f 69/1/69 70/2/70 71/3/71 72/4/72 
f 73/1/73 74/2/74 75/3/75 76/4/76 
f 77/1/77 78/2/78 79/3/79 80/4/80 
f 81/1/81 82/2/82 83/3/83 84/4/84 
f 85/1/85 86/2/86 87/3/87 88/4/88 
f 89/1/89 90/2/90 91/3/91 92/4/92 
f 93/1/93 94/2/94 95/3/95 96/4/96 
f 102/10/97 98/6/98 99/7/99 100/8/100 
f 102/10/101 100/8/102 101/9/103 
f 98/6/104 102/10/105 101/9/106 97/5/107 
f 108/16/108 107/15/109 106/14/110 105/13/111 
f 108/16/112 105/13/113 104/12/114 
f 104/12/115 103/11/116 107/15/117 108/16/118 
f 114/22/119 110/18/120 111/19/121 112/20/122 
f 114/22/123 112/20/124 113/21/125 
f 110/18/126 114/22/127 113/21/128 109/17/129 
f 120/28/130 119/27/131 118/26/132 117/25/133 
f 120/28/134 117/25/135 116/24/136 
f 116/24/137 115/23/138 119/27/139 120/28/140 
f 126/34/141 125/33/142 124/32/143 123/31/144 
f 126/34/145 123/31/146 122/30/147 
f 122/30/148 121/29/149 125/33/150 126/34/151 
f 132/40/152 128/36/153 129/37/154 130/38/155 
f 132/40/156 130/38/157 131/39/158 
f 128/36/159 132/40/160 131/39/161 127/35/162 
f 133/41/163 136/44/164 135/43/165 134/42/166 
f 137/41/167 140/44/168 139/43/169 138/42/170 
f 141/41/171 144/44/172 143/43/173 142/42/174 
f 145/41/175 148/44/176 147/43/177 146/42/178 
f 149/41/179 152/44/180 151/43/181 150/42/182 
f 153/41/183 156/44/184 155/43/185 154/42/186 
f 157/41/187 160/44/188 159/43/189 158/42/190 
f 161/41/191 164/44/192 163/43/193 162/42/194 
f 165/41/195 168/44/196 167/43/197 166/42/198 
f 169/41/199 172/44/200 171/43/201 170/42/202 
f 173/41/203 176/44/204 175/43/205 174/42/206 
f 177/41/207 180/44/208 179/43/209 178/42/210 
f 181/41/211 184/44/212 183/43/213 182/42/214 
f 185/41/215 188/44/216 187/43/217 186/42/218 
f 189/41/219 192/44/220 191/43/221 190/42/222 
f 193/41/223 196/44/224 195/43/225 194/42/226 
f 197/41/227 200/44/228 199/43/229 198/42/230 
f 201/41/231 204/44/232 203/43/233 202/42/234 
f 205/41/235 208/44/236 207/43/237 206/42/238 
f 209/41/239 212/44/240 211/43/241 210/42/242 
f 213/41/243 216/44/244 215/43/245 214/42/246 
f 217/41/247 220/44/248 219/43/249 218/42/250 
f 221/41/251 224/44/252 223/43/253 222/42/254 
f 225/41/255 228/44/256 227/43/257 226/42/258 
f 231/47/259 232/48/260 229/45/261 230/46/262 
f 235/47/263 236/48/264 233/45/265 234/46/266 
f 239/47/267 240/48/268 237/45/269 238/46/270 
f 243/47/271 244/48/272 241/45/273 242/46/274 
f 247/47/275 248/48/276 245/45/277 246/46/278 
f 251/47/279 252/48/280 249/45/281 250/46/282 
f 255/47/283 256/48/284 253/45/285 254/46/286 
f 259/47/287 260/48/288 257/45/289 258/46/290 
f 263/47/291 264/48/292 261/45/293 262/46/294 
f 267/47/295 268/48/296 265/45/297 266/46/298 
f 271/47/299 272/48/300 269/45/301 270/46/302 
f 275/47/303 276/48/304 273/45/305 274/46/306 
f 279/47/307 280/48/308 277/45/309 278/46/310 
f 283/47/311 284/48/312 281/45/313 282/46/314 
f 287/47/315 288/48/316 285/45/317 286/46/318 
f 291/47/319 292/48/320 289/45/321 290/46/322 
f 295/47/323 296/48/324 293/45/325 294/46/326 
f 299/47/327 300/48/328 297/45/329 298/46/330 
f 303/47/331 304/48/332 301/45/333 302/46/334 
f 307/47/335 308/48/336 305/45/337 306/46/338 
f 311/51/339 312/52/340 309/49/341 310/50/342 
f 315/51/343 316/52/344 313/49/345 314/50/346 
f 319/51/347 320/52/348 317/49/349 318/50/350 
f 323/51/351 324/52/352 321/49/353 322/50/354 
f 327/51/355 328/52/356 325/49/357 326/50/358 
f 331/51/359 332/52/360 329/49/361 330/50/362 
f 335/51/363 336/52/364 333/49/365 334/50/366 
f 339/51/367 340/52/368 337/49/369 338/50/370 
f 343/51/371 344/52/372 341/49/373 342/50/374 
f 347/51/375 348/52/376 345/49/377 346/50/378 
f 351/51/379 352/52/380 349/49/381 350/50/382 
f 355/51/383 356/52/384 353/49/385 354/50/386 
f 359/51/387 360/52/388 357/49/389 358/50/390 
f 363/51/391 364/52/392 361/49/393 362/50/394 
f 367/51/395 368/52/396 365/49/397 366/50/398 
f 371/51/399 372/52/400 369/49/401 370/50/402 
f 375/51/403 376/52/404 373/49/405 374/50/406 
f 379/51/407 380/52/408 377/49/409 378/50/410 
f 383/51/411 384/52/412 381/49/413 382/50/414 
f 387/51/415 388/52/416 385/49/417 386/50/418 
# 100 polygons - 6 triangles

