# 3ds Max Wavefront OBJ Exporter v0.97b - (c)2007 guruware
# File Created: 16.06.2016 09:26:45

mtllib tronc_02.mtl

#
# object Tronc_02
#

v  -14.0369 0.0174 1.2281
v  -9.0572 0.0174 10.7940
v  -3.2348 0.0174 18.5242
v  10.7940 0.0174 9.0572
v  17.4609 0.0174 -4.2604
v  12.4592 0.0174 -11.6838
v  -10.7940 0.0174 -9.0572
v  -13.2382 5.0782 1.1582
v  -8.5418 4.3425 10.1798
v  -2.9606 6.0927 17.7708
v  10.1798 6.3036 8.5418
v  17.4894 7.5116 -3.9029
v  12.1203 7.5116 -10.9572
v  -0.5024 5.5750 -19.8406
v  -10.1798 5.7283 -8.5418
v  -12.6863 11.5680 1.1099
v  -8.1857 11.5680 9.7554
v  -2.7711 12.3749 14.8022
v  10.1292 13.7659 8.1857
v  18.1694 14.8823 -2.8516
v  11.8862 14.8823 -10.4551
v  -0.3004 14.8823 -14.1694
v  -9.7554 13.0991 -8.1857
v  -12.5589 17.4385 1.1330
v  -8.1857 19.2835 9.7554
v  -2.7711 19.2445 14.4184
v  9.7554 18.7045 8.1857
v  17.5331 18.6135 -2.8516
v  11.8862 18.6135 -10.4551
v  -1.1099 18.0475 -13.0457
v  -9.7554 19.2626 -8.1857
v  -10.7042 20.5907 0.9365
v  -6.9068 20.5907 8.2312
v  -2.0906 20.5907 12.5487
v  8.2312 20.5907 6.9068
v  15.5511 20.5907 -2.6782
v  11.0453 20.5907 -8.6519
v  -0.9365 20.5907 -10.7042
v  -8.2312 20.5907 -6.9068
v  -10.7042 19.0118 0.9365
v  -6.9068 19.0118 8.2312
v  -2.0906 19.0118 12.5487
v  11.0453 19.0118 -8.6519
v  -0.9365 19.0118 -10.7042
v  -8.2312 19.0118 -6.9068
v  5.9436 0.0174 -12.7629
v  5.7208 5.2602 -12.0564
v  5.9069 12.6696 -12.2623
v  6.2909 18.6135 -11.4936
v  5.7381 20.5907 -8.7301
v  5.7381 19.0118 -8.7301
v  -7.5602 0.0174 -12.7071
v  -7.2182 5.2602 -12.0500
v  -6.9819 12.6696 -11.5960
v  -6.9819 19.2626 -11.5960
v  -6.1331 20.5907 -9.9655
v  -6.1331 19.0118 -9.9655
v  -6.3056 0.0174 11.5147
v  6.1651 0.0174 18.8422
v  -18.5143 4.4228 8.9015
v  -6.0828 4.3425 10.8082
v  5.8231 6.3036 18.1851
v  -11.0189 14.8823 6.0595
v  -5.9289 12.3749 10.3201
v  5.5867 12.3749 15.2832
v  -11.0189 19.2835 6.0595
v  -5.9289 19.7403 10.3201
v  5.5867 19.2445 14.8993
v  -9.3884 20.5907 5.2107
v  -5.3762 20.5907 8.5670
v  4.7380 20.5907 13.2688
v  -9.3884 19.0118 5.2107
v  4.7380 19.0118 13.2688
v  15.9997 0.0174 7.4178
v  16.3216 6.9157 6.6135
v  16.5761 14.8823 5.5910
v  15.9398 18.7045 5.5910
v  14.3895 20.5907 4.6033
v  14.3895 19.0118 4.6033
v  26.7943 -0.1218 1.8931
v  23.6884 5.3948 1.2355
v  21.7572 9.5556 1.0936
v  21.4217 9.5556 3.1351
v  22.6745 5.3948 4.2644
v  25.9622 -0.1218 4.8718
v  20.3153 -0.0522 -2.5897
v  20.0111 6.4532 -1.5255
v  20.1167 12.2190 -0.8790
v  19.1523 12.2190 4.3631
v  19.3379 6.4532 5.3047
v  19.1324 -0.0522 5.7292
v  -4.6630 19.0118 -0.2088
v  -5.3762 19.0118 8.5670
v  -0.7178 20.6201 6.8377
v  15.5511 19.0118 -2.6782
v  -3.2337 20.3509 -5.4663
v  7.9200 19.2313 -0.8412
v  -4.1269 20.6201 4.3353
v  3.3563 19.0118 4.2796
v  8.2312 19.0118 6.9068
v  11.0220 24.4901 8.2260
v  16.8593 22.0372 5.8698
v  19.4010 25.0882 -0.8457
v  12.1947 21.8852 -9.7035
v  11.5748 21.8852 -8.3740
v  17.9375 25.0882 -0.5297
v  15.9256 22.0372 4.9406
v  9.9062 24.4901 7.2898
v  -2.4610 23.8020 15.0069
v  5.5417 21.8222 15.4674
v  9.5689 23.8020 8.9816
v  8.3378 23.8020 7.9486
v  4.8934 21.8222 14.2217
v  -1.9139 23.8020 13.5038
v  -10.2471 24.9074 10.0080
v  -5.8494 22.5735 10.6192
v  -4.0331 22.9304 14.9586
v  -3.5026 22.9304 13.5011
v  -4.8380 22.5735 9.5577
v  -9.1763 24.9074 8.8119
v  -10.6393 22.9304 6.3587
v  -11.9439 22.9304 7.0379
v  -14.5447 25.0179 1.2288
v  -11.8402 22.0587 5.9185
v  -10.5355 22.0587 5.2393
v  -12.9478 25.0179 1.0566
v  -9.3698 22.0587 -6.7243
v  -10.5897 22.0587 -7.7479
v  11.8862 23.4809 -11.5889
v  6.2909 23.4809 -11.6171
v  0.6439 22.2892 -14.6871
v  -6.9819 25.9202 -13.0387
v  -9.7554 23.4809 -9.3196
v  -8.2312 23.4809 -8.0407
v  -6.1331 25.9202 -11.4082
v  0.8173 22.2892 -12.7050
v  5.7381 23.4809 -9.8639
v  11.0453 23.4809 -9.7857
v  -16.5282 0.0000 5.0898
v  -19.5183 -0.0000 9.7281
v  -14.6064 -0.0000 11.6409
v  -13.7159 4.4228 10.5876
v  -11.9763 8.4611 9.4611
v  -13.2243 11.1589 7.7917
v  -14.6855 8.6620 4.7162
v  -15.8422 4.8659 4.7352
v  -1.0754 0.6553 -21.9025
v  -5.0262 0.6553 -18.3744
v  -3.9221 5.5750 -17.5158
v  -2.3310 10.0420 -14.8422
v  0.3075 11.7270 -15.3320
v  3.0619 10.0420 -14.1246
v  2.9493 5.5750 -19.0295
v  2.3032 0.6553 -18.8886
# 154 vertices

vn -0.8970 0.2781 0.3435
vn -0.8831 0.3749 0.2820
vn -0.8204 0.1625 -0.5482
vn -0.8312 0.0887 -0.5488
vn -0.6602 0.1479 0.7364
vn -0.6300 0.1323 0.7652
vn -0.1123 0.1340 0.9846
vn -0.0582 0.1668 0.9843
vn 0.5148 0.1280 0.8477
vn 0.4710 0.2341 0.8505
vn -0.5398 0.2492 0.8041
vn -0.5483 0.1273 0.8266
vn 0.3815 0.0921 0.9198
vn 0.3728 0.0932 0.9232
vn 0.6619 0.0787 0.7455
vn 0.6481 0.1249 0.7513
vn 0.5226 0.0895 -0.8479
vn 0.5064 0.0922 -0.8574
vn 0.7456 0.0631 -0.6634
vn 0.6868 0.0320 -0.7261
vn 0.5542 0.1233 -0.8232
vn 0.5549 0.1139 -0.8241
vn 0.5064 0.0922 -0.8574
vn 0.5226 0.0895 -0.8479
vn -0.7669 0.3009 -0.5668
vn -0.6798 0.3961 -0.6172
vn -0.1085 0.4042 -0.9082
vn -0.0339 0.3897 -0.9203
vn -0.8615 0.1392 -0.4883
vn -0.8939 0.1352 -0.4273
vn -0.9018 0.1209 -0.4150
vn -0.8707 0.1037 -0.4808
vn -0.8831 0.3749 0.2820
vn -0.6611 0.5635 0.4954
vn -0.8748 0.3875 -0.2907
vn -0.8204 0.1625 -0.5482
vn -0.6300 0.1323 0.7652
vn -0.5672 0.0266 0.8231
vn -0.3569 0.1454 0.9228
vn -0.1123 0.1340 0.9846
vn 0.4710 0.2341 0.8505
vn 0.4494 0.2511 0.8573
vn -0.5311 0.1758 0.8289
vn -0.5398 0.2492 0.8041
vn 0.3728 0.0932 0.9232
vn 0.6879 0.2284 0.6890
vn 0.6347 0.0722 0.7694
vn 0.6619 0.0787 0.7455
vn 0.7456 0.0631 -0.6634
vn 0.5064 0.0922 -0.8574
vn 0.5485 0.0157 -0.8360
vn 0.9150 0.2084 -0.3453
vn 0.5549 0.1139 -0.8241
vn 0.3445 0.0587 -0.9370
vn 0.5485 0.0157 -0.8360
vn 0.5064 0.0922 -0.8574
vn -0.6798 0.3961 -0.6172
vn -0.5239 0.4201 -0.7409
vn 0.0998 0.5027 -0.8587
vn -0.1085 0.4042 -0.9082
vn -0.8707 0.1037 -0.4808
vn -0.9018 0.1209 -0.4150
vn -0.9709 0.1584 -0.1797
vn -0.8813 0.0342 -0.4713
vn -0.8658 0.2125 0.4530
vn -0.8776 -0.0902 0.4709
vn -0.9948 -0.1016 0.0118
vn -0.9709 0.1584 -0.1797
vn -0.5672 0.0266 0.8231
vn -0.5668 -0.0752 0.8204
vn -0.5144 -0.1050 0.8511
vn -0.3569 0.1454 0.9228
vn 0.4494 0.2511 0.8573
vn 0.4835 -0.0598 0.8733
vn -0.4543 -0.0151 0.8907
vn -0.5311 0.1758 0.8289
vn 0.6879 0.2284 0.6890
vn 0.7482 -0.0771 0.6590
vn 0.6388 0.0354 0.7686
vn 0.6347 0.0722 0.7694
vn 0.9150 0.2084 -0.3453
vn 0.5485 0.0157 -0.8360
vn 0.5551 0.0465 -0.8305
vn 0.9590 0.0058 -0.2834
vn 0.3445 0.0587 -0.9370
vn 0.2617 0.0170 -0.9650
vn 0.5551 0.0465 -0.8305
vn 0.5485 0.0157 -0.8360
vn -0.6125 0.0823 -0.7862
vn -0.5486 -0.1016 -0.8299
vn -0.1209 -0.0215 -0.9924
vn -0.0466 0.2737 -0.9607
vn -0.8813 0.0342 -0.4713
vn -0.9709 0.1584 -0.1797
vn -0.9948 -0.1016 0.0118
vn -0.8760 -0.0006 -0.4824
vn -0.3376 0.3415 0.8772
vn 0.5960 0.6181 0.5126
vn 0.3674 0.9270 0.0752
vn -0.7752 0.6241 0.0978
vn -0.2628 0.7051 0.6587
vn 0.5586 0.6575 -0.5056
vn 0.2433 0.9180 -0.3130
vn -0.4778 0.6512 0.5896
vn 0.3934 0.4557 0.7985
vn -0.1137 0.9400 -0.3215
vn -0.3352 0.7630 -0.5527
vn -0.5922 0.6250 0.5086
vn 0.6934 0.3880 0.6072
vn -0.3308 0.9233 -0.1949
vn -0.6097 0.7819 -0.1295
vn 0.0592 0.7428 0.6669
vn 0.7863 0.6136 -0.0721
vn -0.0774 0.5669 -0.8202
vn -0.7885 0.6139 0.0373
vn -0.3578 0.9266 0.1156
vn 0.1070 0.7576 -0.6439
vn -0.1649 0.8220 0.5451
vn 0.4178 0.7144 0.5613
vn 0.6706 0.5121 -0.5366
vn -0.3864 0.6850 -0.6177
vn 0.1724 0.8966 0.4079
vn -0.0408 0.9616 0.2713
vn 0.1511 0.3915 -0.9077
vn -0.3502 0.4847 -0.8015
vn -0.7752 0.6241 0.0978
vn 0.3674 0.9270 0.0752
vn 0.6220 0.7462 -0.2373
vn 0.8168 0.3911 -0.4241
vn 0.8808 0.0000 -0.4734
vn 1.0000 0.0000 0.0034
vn 0.9684 0.2495 -0.0039
vn 0.5016 0.1179 -0.8571
vn 0.5213 0.0000 -0.8534
vn 0.5222 -0.0000 -0.8528
vn 0.4621 0.1898 -0.8663
vn -0.4444 0.3180 -0.8375
vn -0.4634 -0.0000 -0.8862
vn 0.4733 -0.0000 -0.8809
vn 0.4295 0.3446 -0.8347
vn -0.6439 0.3459 -0.6824
vn -0.7741 0.0000 -0.6331
vn -0.6543 -0.0000 -0.7562
vn -0.6196 0.2420 -0.7466
vn -0.9328 0.1635 0.3213
vn -0.3794 0.4134 0.8278
vn -0.4526 -0.0000 0.8917
vn -0.9704 0.0000 0.2416
vn -0.1460 0.1812 0.9725
vn -0.1506 -0.0000 0.9886
vn -0.4526 -0.0000 0.8917
vn -0.3794 0.4134 0.8278
vn 0.5690 0.1369 0.8109
vn 0.5273 -0.0000 0.8497
vn -0.0731 -0.0000 0.9973
vn -0.0799 0.4235 0.9024
vn 0.8110 0.3887 0.4373
vn 0.9684 0.2495 -0.0039
vn 1.0000 0.0000 0.0034
vn 0.8990 -0.0000 0.4380
vn 0.7378 0.0455 -0.6735
vn -0.0339 0.3897 -0.9203
vn -0.1085 0.4042 -0.9082
vn 0.6289 0.2145 -0.7473
vn 0.6289 0.2145 -0.7473
vn -0.1085 0.4042 -0.9082
vn 0.0998 0.5027 -0.8587
vn 0.6306 0.3100 -0.7115
vn -0.0466 0.2737 -0.9607
vn -0.1209 -0.0215 -0.9924
vn 0.2617 0.0170 -0.9650
vn 0.3445 0.0587 -0.9370
vn 0.1070 0.7576 -0.6439
vn 0.1511 0.3915 -0.9077
vn -0.0408 0.9616 0.2713
vn -0.1649 0.8220 0.5451
vn -0.0799 0.4235 0.9024
vn -0.0731 -0.0000 0.9973
vn -0.1506 -0.0000 0.9886
vn -0.1460 0.1812 0.9725
vn -0.8163 0.1604 -0.5550
vn -0.8615 0.1392 -0.4883
vn -0.8707 0.1037 -0.4808
vn -0.7653 0.1577 -0.6241
vn -0.7653 0.1577 -0.6241
vn -0.8707 0.1037 -0.4808
vn -0.8813 0.0342 -0.4713
vn -0.6125 0.0823 -0.7862
vn -0.8813 0.0342 -0.4713
vn -0.8760 -0.0006 -0.4824
vn -0.5486 -0.1016 -0.8299
vn -0.6125 0.0823 -0.7862
vn -0.3864 0.6850 -0.6177
vn -0.9111 0.4082 0.0562
vn 0.0166 0.5620 0.8270
vn 0.1724 0.8966 0.4079
vn 0.8110 0.3887 0.4373
vn 0.8990 -0.0000 0.4380
vn 0.5273 -0.0000 0.8497
vn 0.5690 0.1369 0.8109
vn -0.8970 0.2781 0.3435
vn -0.1315 0.2546 0.9581
vn -0.1244 0.2735 0.9538
vn -0.8831 0.3749 0.2820
vn -0.6602 0.1479 0.7364
vn -0.5483 0.1273 0.8266
vn -0.5398 0.2492 0.8041
vn -0.6300 0.1323 0.7652
vn 0.5148 0.1280 0.8477
vn 0.6481 0.1249 0.7513
vn 0.6619 0.0787 0.7455
vn 0.4710 0.2341 0.8505
vn -0.8831 0.3749 0.2820
vn -0.1244 0.2735 0.9538
vn -0.2168 0.2829 0.9343
vn -0.6611 0.5635 0.4954
vn -0.6300 0.1323 0.7652
vn -0.5398 0.2492 0.8041
vn -0.5311 0.1758 0.8289
vn -0.5672 0.0266 0.8231
vn 0.4710 0.2341 0.8505
vn 0.6619 0.0787 0.7455
vn 0.6347 0.0722 0.7694
vn 0.4494 0.2511 0.8573
vn -0.3569 0.1454 0.9228
vn -0.5144 -0.1050 0.8511
vn -0.8776 -0.0902 0.4709
vn -0.8658 0.2125 0.4530
vn -0.5311 0.1758 0.8289
vn -0.4543 -0.0151 0.8907
vn -0.5668 -0.0752 0.8204
vn -0.5672 0.0266 0.8231
vn 0.6347 0.0722 0.7694
vn 0.6388 0.0354 0.7686
vn 0.4835 -0.0598 0.8733
vn 0.4494 0.2511 0.8573
vn -0.9514 0.2647 -0.1576
vn -0.4778 0.6512 0.5896
vn 0.2433 0.9180 -0.3130
vn -0.0144 0.5679 -0.8230
vn -0.2628 0.7051 0.6587
vn -0.0854 0.5281 0.8449
vn 0.5639 0.8235 0.0619
vn 0.5586 0.6575 -0.5056
vn 0.3934 0.4557 0.7985
vn 0.7346 0.6784 -0.0136
vn -0.1647 0.7262 -0.6675
vn -0.1137 0.9400 -0.3215
vn 0.4621 0.1898 -0.8663
vn 0.5222 -0.0000 -0.8528
vn 0.8808 0.0000 -0.4734
vn 0.8168 0.3911 -0.4241
vn 0.4295 0.3446 -0.8347
vn 0.4733 -0.0000 -0.8809
vn 0.5213 0.0000 -0.8534
vn 0.5016 0.1179 -0.8571
vn -0.6196 0.2420 -0.7466
vn -0.6543 -0.0000 -0.7562
vn -0.4634 -0.0000 -0.8862
vn -0.4444 0.3180 -0.8375
vn 0.6468 0.4412 0.6221
vn 0.8592 0.4561 -0.2319
vn 0.8608 0.4015 -0.3129
vn 0.6104 0.3514 0.7099
vn 0.6104 0.3514 0.7099
vn 0.8608 0.4015 -0.3129
vn 0.9004 0.3840 -0.2047
vn 0.7961 0.4050 0.4496
vn 0.9150 0.2084 -0.3453
vn 0.9590 0.0058 -0.2834
vn 0.7482 -0.0771 0.6590
vn 0.6879 0.2284 0.6890
vn 0.6934 0.3880 0.6072
vn 0.7863 0.6136 -0.0721
vn -0.3578 0.9266 0.1156
vn -0.3308 0.9233 -0.1949
vn -0.9328 0.1635 0.3213
vn -0.9704 0.0000 0.2416
vn -0.7741 0.0000 -0.6331
vn -0.6439 0.3459 -0.6824
vn 0.7456 0.0631 -0.6634
vn 0.6876 0.1412 -0.7122
vn 0.5776 0.1288 -0.8061
vn 0.6868 0.0320 -0.7261
vn 0.7456 0.0631 -0.6634
vn 0.9150 0.2084 -0.3453
vn 0.8699 0.3889 -0.3033
vn 0.6876 0.1412 -0.7122
vn 0.9150 0.2084 -0.3453
vn 0.6879 0.2284 0.6890
vn 0.7165 0.4255 0.5528
vn 0.8699 0.3889 -0.3033
vn 0.3728 0.0932 0.9232
vn 0.4072 0.1428 0.9021
vn 0.7165 0.4255 0.5528
vn 0.6879 0.2284 0.6890
vn 0.3728 0.0932 0.9232
vn 0.3815 0.0921 0.9198
vn 0.3302 0.1035 0.9382
vn 0.4072 0.1428 0.9021
vn 0.8608 0.4015 -0.3129
vn 0.8592 0.4561 -0.2319
vn 0.5776 0.1288 -0.8061
vn 0.6876 0.1412 -0.7122
vn 0.9004 0.3840 -0.2047
vn 0.8608 0.4015 -0.3129
vn 0.6876 0.1412 -0.7122
vn 0.8699 0.3889 -0.3033
vn 0.7961 0.4050 0.4496
vn 0.9004 0.3840 -0.2047
vn 0.8699 0.3889 -0.3033
vn 0.7165 0.4255 0.5528
vn 0.4072 0.1428 0.9021
vn 0.6104 0.3514 0.7099
vn 0.7961 0.4050 0.4496
vn 0.7165 0.4255 0.5528
vn 0.3302 0.1035 0.9382
vn 0.6468 0.4412 0.6221
vn 0.6104 0.3514 0.7099
vn 0.4072 0.1428 0.9021
vn -0.2049 0.9476 0.2450
vn -0.2049 0.9476 0.2450
vn -0.2049 0.9476 0.2450
vn -0.2049 0.9476 0.2450
vn -0.2349 0.9413 0.2426
vn -0.2349 0.9413 0.2426
vn -0.2349 0.9413 0.2426
vn -0.2349 0.9413 0.2426
vn -0.0075 0.9999 0.0139
vn -0.0075 0.9999 0.0139
vn -0.0075 0.9999 0.0139
vn -0.0075 0.9999 0.0139
vn 0.0206 0.9997 0.0158
vn 0.0206 0.9997 0.0158
vn 0.0206 0.9997 0.0158
vn 0.0206 0.9997 0.0158
vn 0.1051 0.9876 -0.1163
vn 0.1051 0.9876 -0.1163
vn 0.1051 0.9876 -0.1163
vn 0.1051 0.9876 -0.1163
vn -0.1219 0.9904 0.0649
vn -0.1219 0.9904 0.0649
vn -0.1219 0.9904 0.0649
vn -0.1219 0.9904 0.0649
vn 0.0139 0.9996 -0.0225
vn 0.0139 0.9996 -0.0225
vn 0.0139 0.9996 -0.0225
vn 0.0139 0.9996 -0.0225
vn -0.1125 0.9699 -0.2161
vn -0.1125 0.9699 -0.2161
vn -0.1125 0.9699 -0.2161
vn -0.1125 0.9699 -0.2161
vn -0.1645 0.9759 -0.1434
vn -0.1645 0.9759 -0.1434
vn -0.1645 0.9759 -0.1434
vn -0.1645 0.9759 -0.1434
vn 0.1628 0.9808 0.1072
vn 0.1628 0.9808 0.1072
vn 0.1628 0.9808 0.1072
vn 0.1628 0.9808 0.1072
vn -0.0081 0.9837 0.1797
vn -0.0160 0.9995 0.0286
vn -0.0119 0.9940 0.1085
vn -0.0046 0.9693 0.2457
vn 0.1967 0.9263 -0.3215
vn 0.1967 0.9263 -0.3215
vn 0.1967 0.9263 -0.3215
vn 0.1967 0.9263 -0.3215
vn 0.6388 0.0354 0.7686
vn 0.7482 -0.0771 0.6590
vn 0.6934 0.3880 0.6072
vn 0.0592 0.7428 0.6669
vn 0.7482 -0.0771 0.6590
vn 0.9590 0.0058 -0.2834
vn 0.7863 0.6136 -0.0721
vn 0.6934 0.3880 0.6072
vn 0.9590 0.0058 -0.2834
vn 0.5551 0.0465 -0.8305
vn -0.0774 0.5669 -0.8202
vn 0.7863 0.6136 -0.0721
vn 0.5551 0.0465 -0.8305
vn -0.3794 0.4134 0.8278
vn -0.7885 0.6139 0.0373
vn -0.0774 0.5669 -0.8202
vn -0.3794 0.4134 0.8278
vn -0.9328 0.1635 0.3213
vn -0.3578 0.9266 0.1156
vn -0.7885 0.6139 0.0373
vn -0.9328 0.1635 0.3213
vn -0.6439 0.3459 -0.6824
vn -0.3308 0.9233 -0.1949
vn -0.3578 0.9266 0.1156
vn -0.6439 0.3459 -0.6824
vn -0.6196 0.2420 -0.7466
vn -0.6097 0.7819 -0.1295
vn -0.3308 0.9233 -0.1949
vn -0.6196 0.2420 -0.7466
vn 0.6388 0.0354 0.7686
vn 0.0592 0.7428 0.6669
vn -0.6097 0.7819 -0.1295
vn -0.4543 -0.0151 0.8907
vn 0.4835 -0.0598 0.8733
vn 0.3934 0.4557 0.7985
vn -0.5922 0.6250 0.5086
vn 0.4835 -0.0598 0.8733
vn 0.6388 0.0354 0.7686
vn 0.7346 0.6784 -0.0136
vn 0.3934 0.4557 0.7985
vn 0.6388 0.0354 0.7686
vn -0.6196 0.2420 -0.7466
vn -0.1647 0.7262 -0.6675
vn 0.7346 0.6784 -0.0136
vn -0.6196 0.2420 -0.7466
vn -0.4444 0.3180 -0.8375
vn -0.1137 0.9400 -0.3215
vn -0.1647 0.7262 -0.6675
vn -0.4444 0.3180 -0.8375
vn 0.4295 0.3446 -0.8347
vn -0.3352 0.7630 -0.5527
vn -0.1137 0.9400 -0.3215
vn 0.4295 0.3446 -0.8347
vn -0.4543 -0.0151 0.8907
vn -0.5922 0.6250 0.5086
vn -0.3352 0.7630 -0.5527
vn -0.5668 -0.0752 0.8204
vn -0.2628 0.7051 0.6587
vn -0.4778 0.6512 0.5896
vn -0.5144 -0.1050 0.8511
vn -0.5668 -0.0752 0.8204
vn -0.4543 -0.0151 0.8907
vn -0.0854 0.5281 0.8449
vn -0.2628 0.7051 0.6587
vn -0.4543 -0.0151 0.8907
vn 0.4295 0.3446 -0.8347
vn 0.5639 0.8235 0.0619
vn -0.0854 0.5281 0.8449
vn 0.4295 0.3446 -0.8347
vn 0.5016 0.1179 -0.8571
vn 0.5586 0.6575 -0.5056
vn 0.5639 0.8235 0.0619
vn 0.5016 0.1179 -0.8571
vn 0.4621 0.1898 -0.8663
vn 0.2433 0.9180 -0.3130
vn 0.5586 0.6575 -0.5056
vn 0.4621 0.1898 -0.8663
vn 0.8168 0.3911 -0.4241
vn -0.0144 0.5679 -0.8230
vn 0.2433 0.9180 -0.3130
vn 0.8168 0.3911 -0.4241
vn -0.8776 -0.0902 0.4709
vn -0.9514 0.2647 -0.1576
vn -0.0144 0.5679 -0.8230
vn -0.8776 -0.0902 0.4709
vn -0.5144 -0.1050 0.8511
vn -0.4778 0.6512 0.5896
vn -0.9514 0.2647 -0.1576
vn -0.9948 -0.1016 0.0118
vn -0.8776 -0.0902 0.4709
vn -0.3376 0.3415 0.8772
vn -0.7752 0.6241 0.0978
vn -0.8776 -0.0902 0.4709
vn 0.8168 0.3911 -0.4241
vn 0.5960 0.6181 0.5126
vn -0.3376 0.3415 0.8772
vn 0.8168 0.3911 -0.4241
vn 0.9684 0.2495 -0.0039
vn 0.3674 0.9270 0.0752
vn 0.5960 0.6181 0.5126
vn 0.9684 0.2495 -0.0039
vn 0.8110 0.3887 0.4373
vn 0.6220 0.7462 -0.2373
vn 0.3674 0.9270 0.0752
vn 0.8110 0.3887 0.4373
vn -0.8760 -0.0006 -0.4824
vn -0.3502 0.4847 -0.8015
vn 0.6220 0.7462 -0.2373
vn -0.8760 -0.0006 -0.4824
vn -0.9948 -0.1016 0.0118
vn -0.7752 0.6241 0.0978
vn -0.3502 0.4847 -0.8015
vn 0.5551 0.0465 -0.8305
vn 0.2617 0.0170 -0.9650
vn 0.1070 0.7576 -0.6439
vn 0.6706 0.5121 -0.5366
vn 0.2617 0.0170 -0.9650
vn -0.1209 -0.0215 -0.9924
vn 0.1511 0.3915 -0.9077
vn 0.1070 0.7576 -0.6439
vn -0.1209 -0.0215 -0.9924
vn -0.5486 -0.1016 -0.8299
vn -0.3864 0.6850 -0.6177
vn 0.1511 0.3915 -0.9077
vn -0.5486 -0.1016 -0.8299
vn -0.8760 -0.0006 -0.4824
vn -0.9111 0.4082 0.0562
vn -0.3864 0.6850 -0.6177
vn -0.8760 -0.0006 -0.4824
vn 0.8110 0.3887 0.4373
vn 0.0166 0.5620 0.8270
vn -0.9111 0.4082 0.0562
vn 0.8110 0.3887 0.4373
vn 0.5690 0.1369 0.8109
vn 0.1724 0.8966 0.4079
vn 0.0166 0.5620 0.8270
vn 0.5690 0.1369 0.8109
vn -0.0799 0.4235 0.9024
vn -0.0408 0.9616 0.2713
vn 0.1724 0.8966 0.4079
vn -0.0799 0.4235 0.9024
vn -0.1460 0.1812 0.9725
vn -0.1649 0.8220 0.5451
vn -0.0408 0.9616 0.2713
vn -0.1460 0.1812 0.9725
vn -0.3794 0.4134 0.8278
vn 0.4178 0.7144 0.5613
vn -0.1649 0.8220 0.5451
vn -0.3794 0.4134 0.8278
vn 0.5551 0.0465 -0.8305
vn 0.6706 0.5121 -0.5366
vn 0.4178 0.7144 0.5613
vn -0.0582 0.1668 0.9843
vn -0.1123 0.1340 0.9846
vn -0.1244 0.2735 0.9538
vn -0.1315 0.2546 0.9581
vn -0.1123 0.1340 0.9846
vn -0.3569 0.1454 0.9228
vn -0.2168 0.2829 0.9343
vn -0.1244 0.2735 0.9538
vn -0.3569 0.1454 0.9228
vn -0.8658 0.2125 0.4530
vn -0.6611 0.5635 0.4954
vn -0.2168 0.2829 0.9343
vn -0.8658 0.2125 0.4530
vn -0.9709 0.1584 -0.1797
vn -0.8748 0.3875 -0.2907
vn -0.6611 0.5635 0.4954
vn -0.9018 0.1209 -0.4150
vn -0.8204 0.1625 -0.5482
vn -0.8748 0.3875 -0.2907
vn -0.9709 0.1584 -0.1797
vn -0.9018 0.1209 -0.4150
vn -0.8939 0.1352 -0.4273
vn -0.8312 0.0887 -0.5488
vn -0.8204 0.1625 -0.5482
vn -0.8163 0.1604 -0.5550
vn -0.7653 0.1577 -0.6241
vn -0.6798 0.3961 -0.6172
vn -0.7669 0.3009 -0.5668
vn -0.7653 0.1577 -0.6241
vn -0.6125 0.0823 -0.7862
vn -0.5239 0.4201 -0.7409
vn -0.6798 0.3961 -0.6172
vn -0.6125 0.0823 -0.7862
vn -0.0466 0.2737 -0.9607
vn 0.0998 0.5027 -0.8587
vn -0.5239 0.4201 -0.7409
vn -0.0466 0.2737 -0.9607
vn 0.3445 0.0587 -0.9370
vn 0.6306 0.3100 -0.7115
vn 0.0998 0.5027 -0.8587
vn 0.5549 0.1139 -0.8241
vn 0.6289 0.2145 -0.7473
vn 0.6306 0.3100 -0.7115
vn 0.3445 0.0587 -0.9370
vn 0.5549 0.1139 -0.8241
vn 0.5542 0.1233 -0.8232
vn 0.7378 0.0455 -0.6735
vn 0.6289 0.2145 -0.7473
# 568 vertex normals

vt 0.5556 0.9601 0.0000
vt 0.5278 0.9727 0.0000
vt 0.5281 0.9451 0.0000
vt 0.5497 0.9294 0.0000
vt 0.9558 0.6447 0.3824
vt 0.3443 0.6447 0.3544
vt 0.3425 0.6672 0.3393
vt 0.9552 0.6672 0.3652
vt 0.3802 0.6447 0.4672
vt 0.4272 0.6447 0.4779
vt 0.4259 0.6774 0.4611
vt 0.3803 0.6763 0.4496
vt 0.4710 0.6447 0.3113
vt 0.5019 0.6447 0.3742
vt 0.5068 0.6805 0.3690
vt 0.4693 0.6774 0.2923
vt 0.5789 0.6447 0.3204
vt 0.6512 0.6447 0.2904
vt 0.6493 0.6836 0.2738
vt 0.5763 0.6836 0.3206
vt 0.7081 0.6447 0.2563
vt 0.7089 0.6719 0.2400
vt 0.6405 0.8499 0.0000
vt 0.6726 0.8587 0.0000
vt 0.6637 0.8938 0.0000
vt 0.6407 0.8879 0.0000
vt 0.8289 0.6447 0.3970
vt 0.8889 0.6447 0.4088
vt 0.8892 0.6710 0.3904
vt 0.8299 0.6744 0.3777
vt 0.5226 0.8910 0.0000
vt 0.5446 0.9037 0.0000
vt 0.3412 0.7089 0.3289
vt 0.9548 0.7047 0.3533
vt 0.4264 0.7089 0.3937
vt 0.3754 0.7089 0.3851
vt 0.5128 0.7219 0.3606
vt 0.4705 0.7161 0.2846
vt 0.6477 0.7219 0.2624
vt 0.5683 0.7219 0.3362
vt 0.7075 0.7104 0.2450
vt 0.6528 0.9232 0.0000
vt 0.6328 0.9328 0.0000
vt 0.8895 0.7047 0.3777
vt 0.8307 0.7127 0.3644
vt 0.9230 0.7219 0.3633
vt 0.8826 0.8577 0.3911
vt 0.9230 0.7448 0.3633
vt 0.8897 0.7352 0.3747
vt 0.3412 0.7472 0.3289
vt 0.9548 0.7448 0.3533
vt 0.9178 0.8285 0.3388
vt 0.4267 0.7446 0.3849
vt 0.9147 0.8177 0.3068
vt 0.8820 0.8456 0.3545
vt 0.3745 0.7446 0.3770
vt 0.5109 0.7418 0.3474
vt 0.4681 0.7418 0.2792
vt 0.6477 0.7413 0.2624
vt 0.5687 0.7413 0.3215
vt 0.7020 0.7413 0.2289
vt 0.9469 0.8567 0.3447
vt 0.3355 0.8307 0.2845
vt 0.3360 0.8186 0.2529
vt 0.9445 0.8445 0.3110
vt 0.3787 0.8440 0.3417
vt 0.4387 0.8276 0.3641
vt 0.4362 0.8154 0.3312
vt 0.3855 0.8325 0.3064
vt 0.4910 0.8542 0.2854
vt 0.5290 0.8297 0.3721
vt 0.5324 0.8175 0.3422
vt 0.4949 0.8406 0.2497
vt 0.5686 0.8581 0.3905
vt 0.6449 0.8300 0.3033
vt 0.6456 0.8160 0.2736
vt 0.5692 0.8462 0.3572
vt 0.6531 0.8423 0.3300
vt 0.7010 0.8433 0.2800
vt 0.7009 0.8311 0.2392
vt 0.6575 0.8311 0.2881
vt 0.7448 0.8320 0.3554
vt 0.7916 0.8662 0.4008
vt 0.7917 0.8541 0.3566
vt 0.7453 0.8198 0.3090
vt 0.8234 0.8299 0.3749
vt 0.8271 0.8177 0.3362
vt 0.8818 0.8038 0.3028
vt 0.9179 0.8038 0.2820
vt 0.9179 0.7890 0.2820
vt 0.8818 0.7890 0.3028
vt 0.9525 0.8038 0.2636
vt 0.3364 0.8038 0.2441
vt 0.3364 0.7890 0.2441
vt 0.9525 0.7890 0.2636
vt 0.3819 0.8038 0.2866
vt 0.4363 0.8038 0.3085
vt 0.4363 0.7890 0.3085
vt 0.3819 0.7890 0.2866
vt 0.4862 0.8038 0.2140
vt 0.5312 0.8038 0.3051
vt 0.5312 0.7890 0.3051
vt 0.4862 0.7890 0.2140
vt 0.5867 0.8038 0.3032
vt 0.6508 0.8038 0.2697
vt 0.6508 0.7890 0.2697
vt 0.5867 0.7890 0.3032
vt 0.6970 0.8038 0.2145
vt 0.6970 0.7890 0.2145
vt 0.7616 0.8038 0.2768
vt 0.7973 0.8038 0.3293
vt 0.7973 0.7890 0.3293
vt 0.7616 0.7890 0.2768
vt 0.8220 0.8038 0.3160
vt 0.8220 0.7890 0.3160
vt 0.8214 0.8400 0.3820
vt 0.8159 0.8311 0.3332
vt 0.9195 0.8364 0.3483
vt 0.9223 0.8259 0.3162
vt 0.3695 0.8315 0.3500
vt 0.7585 0.7219 0.3147
vt 0.8044 0.7104 0.3591
vt 0.8044 0.7447 0.3591
vt 0.7667 0.7384 0.2988
vt 0.8307 0.7447 0.3644
vt 0.3659 0.8220 0.3158
vt 0.4873 0.8469 0.2738
vt 0.6145 0.8589 0.0000
vt 0.6226 0.8916 0.0000
vt 0.6099 0.9270 0.0000
vt 0.4806 0.8341 0.2350
vt 0.6506 0.8250 0.3108
vt 0.4863 0.8255 0.2625
vt 0.3759 0.8218 0.3306
vt 0.9180 0.8169 0.3221
vt 0.8226 0.8179 0.3647
vt 0.8021 0.6447 0.3881
vt 0.8034 0.6719 0.3709
vt 0.4980 0.9657 0.0000
vt 0.5040 0.9349 0.0000
vt 0.5074 0.9046 0.0000
vt 0.4162 0.8417 0.0000
vt 0.4304 0.8386 0.0000
vt 0.4363 0.8797 0.0000
vt 0.4193 0.8837 0.0000
vt 0.4385 0.9101 0.0000
vt 0.4277 0.9117 0.0000
vt 0.4921 0.8648 0.0000
vt 0.0661 0.3398 0.0000
vt 0.1039 0.3177 0.0000
vt 0.1212 0.3202 0.0000
vt 0.1183 0.3696 0.0000
vt 0.1712 0.2912 0.0000
vt 0.1639 0.3566 0.0000
vt 0.2457 0.3102 0.0000
vt 0.2575 0.3906 0.0000
vt 0.2241 0.4707 0.0000
vt 0.1962 0.3992 0.0000
vt 0.3132 0.4388 0.0000
vt 0.2970 0.5197 0.0000
vt 0.1705 0.5450 0.0000
vt 0.0927 0.5397 0.0000
vt 0.0894 0.4759 0.0000
vt 0.0310 0.4715 0.0000
vt 0.0356 0.3795 0.0000
vt 0.0945 0.4151 0.0000
vt 0.2264 0.5649 0.0000
vt 0.0411 0.5117 0.0000
vt 0.4751 0.9070 0.0000
vt 0.4584 0.8945 0.0000
vt 0.4736 0.8556 0.0000
vt 0.4625 0.9487 0.0000
vt 0.4500 0.9300 0.0000
vt 0.5122 0.7591 0.3701
vt 0.4757 0.7719 0.2989
vt 0.5551 0.7750 0.3697
vt 0.6407 0.7583 0.2558
vt 0.4260 0.7580 0.3976
vt 0.3777 0.7683 0.3876
vt 0.4637 0.7683 0.2925
vt 0.3430 0.7619 0.3330
vt 0.9470 0.7740 0.3912
vt 0.3686 0.7638 0.3971
vt 0.9258 0.7638 0.3905
vt 0.9198 0.7592 0.3791
vt 0.8885 0.7746 0.4205
vt 0.8351 0.7592 0.3771
vt 0.7023 0.7666 0.2316
vt 0.6545 0.7666 0.2809
vt 0.7510 0.7604 0.3180
vt 0.7985 0.7793 0.3838
vt 0.8249 0.7666 0.3787
vt 0.4137 0.9594 0.0000
vt 0.4202 0.9351 0.0000
vt 0.3875 0.9145 0.0000
vt 0.4046 0.9015 0.0000
vt 0.3671 0.8743 0.0000
vt 0.3850 0.8647 0.0000
vt 0.4682 0.9478 0.0000
vt 0.4781 0.9202 0.0000
vt 0.4946 0.8771 0.0000
vt 0.5253 0.8616 0.0000
vt 0.5614 0.8765 0.0000
vt 0.5734 0.9179 0.0000
vt 0.5800 0.9508 0.0000
vt 0.7115 0.8721 0.0000
vt 0.7003 0.9076 0.0000
vt 0.6856 0.9578 0.0000
vt 0.6355 0.9645 0.0000
vt 0.5889 0.9554 0.0000
vt 0.5756 0.9048 0.0000
vt 0.5698 0.8677 0.0000
vt 0.9727 0.6447 0.3544
vt 0.9709 0.6672 0.3393
vt 0.9695 0.7089 0.3289
vt 0.9695 0.7472 0.3289
vt 0.9713 0.7619 0.3330
vt 0.9743 0.8347 0.2845
vt 0.9755 0.8225 0.2529
vt 0.9650 0.8038 0.2441
vt 0.9650 0.7890 0.2441
# 221 texture coords

g Tronc_02
usemtl Checker
s 1
f 140/2/1 60/3/2 146/4/3 139/1/4 
f 58/213/5 61/214/6 9/8/7 2/5/8 
f 59/10/9 62/11/10 10/12/11 3/9/12 
f 74/14/13 75/15/14 11/16/15 4/13/16 
f 6/18/17 13/19/18 12/20/19 5/17/20 
f 46/21/21 47/22/22 13/19/23 6/18/24 
f 148/24/25 149/25/26 14/26/27 147/23/28 
f 7/27/29 1/28/30 8/29/31 15/30/32 
f 60/3/33 144/31/34 145/32/35 146/4/36 
f 61/214/37 64/215/38 17/34/39 9/8/40 
f 62/11/41 65/35/42 18/36/43 10/12/44 
f 75/15/45 76/37/46 19/38/47 11/16/48 
f 12/20/49 13/19/50 21/39/51 20/40/52 
f 47/22/53 48/41/54 21/39/55 13/19/56 
f 149/25/57 150/42/58 151/43/59 14/26/60 
f 15/30/61 8/29/62 16/44/63 23/45/64 
f 63/46/65 66/48/66 24/49/67 16/44/68 
f 64/215/69 67/216/70 25/51/71 17/34/72 
f 65/35/73 68/53/74 26/56/75 18/36/76 
f 76/37/77 77/57/78 27/58/79 19/38/80 
f 20/40/81 21/39/82 29/59/83 28/60/84 
f 48/41/85 49/61/86 29/59/87 21/39/88 
f 54/122/89 55/123/90 30/124/91 22/121/92 
f 23/45/93 16/44/94 24/49/95 31/125/96 
f 124/52/97 125/54/98 126/55/99 123/47/100 
f 116/218/101 119/219/102 120/65/103 115/62/104 
f 110/67/105 113/68/106 114/69/107 109/66/108 
f 102/71/109 107/72/110 108/73/111 101/70/112 
f 103/74/113 104/75/114 105/76/115 106/77/116 
f 130/79/117 137/80/118 138/81/119 129/78/120 
f 132/83/121 135/84/122 136/85/123 131/82/124 
f 128/86/125 123/47/126 126/55/127 127/87/128 
f 69/89/129 72/90/130 40/91/131 32/88/132 
f 70/220/133 93/221/134 41/95/135 33/92/136 
f 71/97/137 73/98/138 42/99/139 34/96/140 
f 78/101/141 79/102/142 100/103/143 35/100/144 
f 36/104/145 37/105/146 43/106/147 95/107/148 
f 50/108/149 51/109/150 43/106/151 37/105/152 
f 56/111/153 57/112/154 44/113/155 38/110/156 
f 39/114/157 32/88/158 40/91/159 45/115/160 
f 154/128/161 147/23/162 14/26/163 153/129/164 
f 153/129/165 14/26/166 151/43/167 152/130/168 
f 22/121/169 30/124/170 49/61/171 48/41/172 
f 130/79/173 131/82/174 136/85/175 137/80/176 
f 38/110/177 44/113/178 51/109/179 50/108/180 
f 52/137/181 7/27/182 15/30/183 53/138/184 
f 53/138/185 15/30/186 23/45/187 54/122/188 
f 23/45/189 31/125/190 55/123/191 54/122/192 
f 132/83/193 133/116/194 134/117/195 135/84/196 
f 39/114/197 45/115/198 57/112/199 56/111/200 
f 140/2/201 141/139/202 142/140/203 60/3/204 
f 58/6/205 3/9/206 10/12/207 61/7/208 
f 59/10/209 4/13/210 11/16/211 62/11/212 
f 60/3/213 142/140/214 143/141/215 144/31/216 
f 61/7/217 10/12/218 18/36/219 64/33/220 
f 62/11/221 11/16/222 19/38/223 65/35/224 
f 17/34/225 25/51/226 66/48/227 63/46/228 
f 18/36/229 26/56/230 67/50/231 64/33/232 
f 19/38/233 27/58/234 68/53/235 65/35/236 
f 122/118/237 115/62/238 120/65/239 121/119/240 
f 116/63/241 117/120/242 118/126/243 119/64/244 
f 110/67/245 111/127/246 112/131/247 113/68/248 
f 33/92/249 41/95/250 72/90/251 69/89/252 
f 34/96/253 42/99/254 93/94/255 70/93/256 
f 35/100/257 100/103/258 73/98/259 71/97/260 
f 85/142/261 80/143/262 81/144/263 84/145/264 
f 84/145/265 81/144/266 82/146/267 83/147/268 
f 20/40/269 28/60/270 77/57/271 76/37/272 
f 102/71/273 103/74/274 106/77/275 107/72/276 
f 36/104/277 95/107/278 79/102/279 78/101/280 
f 12/169/281 87/170/282 86/171/283 5/148/284 
f 12/169/285 20/172/286 88/173/287 87/170/288 
f 20/172/289 76/193/290 89/194/291 88/173/292 
f 75/195/293 90/196/294 89/194/295 76/193/296 
f 75/195/297 74/197/298 91/198/299 90/196/300 
f 81/144/301 80/143/302 86/171/303 87/170/304 
f 82/146/305 81/144/306 87/170/307 88/173/308 
f 83/147/309 82/146/310 88/173/311 89/194/312 
f 90/196/313 84/145/314 83/147/315 89/194/316 
f 91/198/317 85/142/318 84/145/319 90/196/320 
s off
f 72/149/321 41/150/322 93/151/323 98/152/324 
f 93/151/325 42/153/326 94/154/327 98/152/328 
f 73/155/329 100/156/330 97/157/331 99/158/332 
f 79/159/333 95/160/334 97/157/335 100/156/336 
f 51/161/337 44/162/338 96/163/339 97/157/340 
f 45/164/341 40/165/342 92/166/343 96/163/344 
f 43/167/345 51/161/346 97/157/347 95/160/348 
f 57/168/349 45/164/350 96/163/351 44/162/352 
f 40/165/353 72/149/354 98/152/355 92/166/356 
f 42/153/357 73/155/358 99/158/359 94/154/360 
s 1
f 92/166/361 99/158/362 97/157/363 96/163/364 
s off
f 94/154/365 99/158/366 92/166/367 98/152/368 
s 1
f 27/58/369 77/57/370 102/174/371 101/175/372 
f 77/57/373 28/60/374 103/176/375 102/174/376 
f 28/60/377 29/59/378 104/177/379 103/176/380 
f 29/132/381 37/105/382 105/76/383 104/75/384 
f 37/105/385 36/104/386 106/77/387 105/76/388 
f 36/104/389 78/101/390 107/72/391 106/77/392 
f 78/101/393 35/100/394 108/73/395 107/72/396 
f 35/100/397 27/133/398 101/70/399 108/73/400 
f 26/56/401 68/53/402 110/178/403 109/179/404 
f 68/53/405 27/58/406 111/180/407 110/178/408 
f 27/133/409 35/100/410 112/131/411 111/127/412 
f 35/100/413 71/97/414 113/68/415 112/131/416 
f 71/97/417 34/96/418 114/69/419 113/68/420 
f 34/96/421 26/134/422 109/66/423 114/69/424 
f 67/216/425 116/217/426 115/182/427 25/51/428 
f 67/50/429 26/56/430 117/183/431 116/181/432 
f 26/134/433 34/96/434 118/126/435 117/120/436 
f 34/96/437 70/93/438 119/64/439 118/126/440 
f 70/220/441 33/92/442 120/65/443 119/219/444 
f 33/92/445 69/89/446 121/119/447 120/65/448 
f 69/89/449 66/135/450 122/118/451 121/119/452 
f 66/48/453 25/51/454 115/182/455 122/184/456 
f 24/49/457 66/48/458 124/185/459 123/186/460 
f 66/135/461 69/89/462 125/54/463 124/52/464 
f 69/89/465 32/88/466 126/55/467 125/54/468 
f 32/88/469 39/114/470 127/87/471 126/55/472 
f 39/114/473 31/136/474 128/86/475 127/87/476 
f 31/125/477 24/49/478 123/186/479 128/187/480 
f 29/59/481 49/61/482 130/188/483 129/189/484 
f 49/61/485 30/124/486 131/190/487 130/188/488 
f 30/124/489 55/123/490 132/191/491 131/190/492 
f 55/123/493 31/125/494 133/192/495 132/191/496 
f 31/136/497 39/114/498 134/117/499 133/116/500 
f 39/114/501 56/111/502 135/84/503 134/117/504 
f 56/111/505 38/110/506 136/85/507 135/84/508 
f 38/110/509 50/108/510 137/80/511 136/85/512 
f 50/108/513 37/105/514 138/81/515 137/80/516 
f 37/105/517 29/132/518 129/78/519 138/81/520 
f 2/199/521 9/200/522 142/140/523 141/139/524 
f 9/200/525 17/201/526 143/141/527 142/140/528 
f 17/201/529 63/202/530 144/31/531 143/141/532 
f 63/202/533 16/203/534 145/32/535 144/31/536 
f 8/204/537 146/4/538 145/32/539 16/203/540 
f 8/204/541 1/205/542 139/1/543 146/4/544 
f 52/206/545 53/207/546 149/25/547 148/24/548 
f 53/207/549 54/208/550 150/42/551 149/25/552 
f 54/208/553 22/209/554 151/43/555 150/42/556 
f 22/209/557 48/210/558 152/130/559 151/43/560 
f 47/211/561 153/129/562 152/130/563 48/210/564 
f 47/211/565 46/212/566 154/128/567 153/129/568 
# 142 polygons

