# 3ds Max Wavefront OBJ Exporter v0.97b - (c)2007 guruware
# File Created: 08.05.2016 20:05:45

#
# object Tomahawk_04
#

v  11.9325 0.0000 -28.7484
v  9.2144 0.5007 -29.2276
v  2.7085 0.5007 -20.5892
v  3.2713 0.0000 -17.5875
v  12.3915 0.0000 -30.7559
v  8.8120 0.0000 -45.5369
v  7.2296 0.5007 -40.9822
v  9.6493 0.5007 -31.2348
v  6.1302 0.8791 -29.7715
v  2.0994 0.9552 -27.4991
v  4.6354 0.9255 -36.0933
v  6.4865 0.8716 -31.7925
v  7.1930 0.0000 -41.7785
v  1.4823 0.9552 -29.1272
v  1.3363 0.0000 -28.2988
v  2.0994 0.0000 -27.4991
v  4.6364 0.0000 -36.0963
v  2.5461 0.9552 -35.1598
v  2.7708 0.0000 -36.4347
v  1.6725 0.9552 -30.2058
v  2.7085 0.0000 -20.5892
v  -0.0598 0.9552 -35.6193
v  -0.4399 0.9552 -33.4632
v  2.1659 0.9552 -33.0037
v  -1.1235 0.9552 -29.5867
v  -1.2695 0.0000 -28.7583
v  0.1650 0.0000 -36.8941
v  -0.9333 0.9552 -30.6653
v  6.1302 0.0000 -29.7715
v  6.4865 0.0000 -31.7925
v  9.6493 0.0000 -31.2348
v  9.2144 0.0000 -29.2276
v  -5.0976 1.0642 -39.5507
v  -6.2412 1.0709 -38.8878
v  -4.7914 1.0916 -37.5996
v  -3.4854 1.0963 -38.7462
v  -7.3876 0.4279 -38.5458
v  -6.4715 0.4561 -37.8537
v  -5.3486 0.9960 -41.0459
v  -4.9304 1.0173 -41.6042
v  -5.6469 1.0363 -42.6463
v  -6.5694 1.0463 -41.2940
v  -6.1284 0.4102 -43.3554
v  -7.4754 0.4209 -41.5398
v  -3.4339 1.0842 -41.6500
v  -2.8723 1.0822 -41.0176
v  -1.8263 1.0858 -41.7898
v  -3.0286 1.0642 -42.9840
v  -1.1927 0.4573 -42.3076
v  -2.8008 0.4245 -43.9689
v  -2.7076 1.0646 -40.0122
v  -1.9834 1.0580 -37.4144
v  -1.1443 1.0616 -39.7259
v  -1.4872 0.3323 -36.6257
v  -0.2693 0.4356 -39.6224
v  -8.2359 1.0576 -37.9336
v  -6.7313 1.0150 -37.1338
v  -9.3901 1.0677 -37.3575
v  -7.3427 1.0478 -35.9939
v  -9.8850 0.2760 -37.0700
v  -7.5535 0.2696 -35.2904
v  -6.7116 1.0554 -44.2647
v  -8.3434 1.0565 -42.0742
v  -7.8971 1.0614 -45.5354
v  -9.9577 1.0575 -42.6111
v  -8.2809 0.2705 -46.0824
v  -10.7039 0.2695 -42.8066
v  -0.3565 1.0975 -42.9315
v  -2.3767 1.0622 -45.0363
v  0.9220 1.0995 -43.7748
v  -1.4465 1.0619 -46.6180
v  1.3941 0.3022 -44.2120
v  -1.1148 0.2714 -47.4351
v  -0.6423 1.0586 -36.6054
v  0.5870 1.0639 -39.6755
v  1.0745 1.0588 -36.3968
v  1.8885 1.0647 -39.7786
v  1.6767 0.2819 -36.3366
v  2.4985 0.2853 -39.8285
v  -3.3184 1.1641 -20.8885
v  -1.6087 1.1641 -33.0926
v  -2.3445 0.2307 -33.2514
v  -4.0601 0.2318 -20.8854
v  -1.4874 1.1641 -20.8991
v  0.0592 1.1641 -32.7261
v  -0.7458 0.2317 -20.9022
v  0.7950 0.2307 -32.5673
v  0.5432 1.1641 3.7718
v  -3.2550 1.1641 -17.5037
v  -4.0032 0.2315 -17.4988
v  -0.3563 0.2271 3.5604
v  2.7789 1.1641 4.2968
v  -1.3880 1.1641 -17.5160
v  3.6791 0.2271 4.5083
v  -0.6405 0.2316 -17.5210
v  -6.8937 1.1641 15.6525
v  -0.1919 1.1641 6.8243
v  -1.0752 0.2265 6.6330
v  -7.1115 0.2250 14.8919
v  -6.3537 1.1641 17.5380
v  2.0153 1.1641 7.3070
v  -6.1359 0.2250 18.2986
v  2.9081 0.2266 7.5041
v  -8.7245 1.1641 15.6880
v  -8.5084 0.2297 14.9229
v  -9.2629 1.1641 17.5944
v  -9.4790 0.2297 18.3595
v  -12.0308 0.2284 11.3668
v  -12.5794 1.1641 11.5367
v  -13.9446 1.1641 11.9596
v  -14.4933 0.2284 12.1296
v  -12.3813 1.1641 7.2522
v  -11.8540 0.2185 7.6687
v  -13.6795 1.1641 6.2266
v  -14.2068 0.2185 5.8100
v  -9.7207 1.1641 6.4878
v  -10.0307 0.2127 7.1484
v  -8.9621 1.1641 4.8712
v  -8.6520 0.2127 4.2106
v  -8.8924 1.1641 8.3756
v  -9.5678 0.2158 8.1988
v  -7.2340 1.1641 8.8096
v  -6.5586 0.2158 8.9864
v  -11.0970 1.1641 10.0354
v  -11.4207 0.2321 9.6055
v  -10.2885 1.1641 11.1092
v  -9.9649 0.2321 11.5391
v  -11.3617 0.1340 9.6838
v  -5.4577 1.2114 -36.9182
v  -5.4157 1.0682 -35.6802
v  -3.8046 1.0550 -36.1437
v  -5.4169 0.2720 -34.9219
v  -3.5335 0.2777 -35.5812
v  0.7950 0.0000 -32.5673
v  1.6767 0.0000 -36.3366
v  -2.3445 0.0000 -33.2514
v  -4.0601 0.0000 -20.8854
v  -0.7458 0.0000 -20.9022
v  -4.0032 0.0000 -17.4988
v  -0.3563 0.0000 3.5604
v  -1.0752 0.0000 6.6330
v  -7.1115 0.0000 14.8919
v  -6.1359 0.0000 18.2986
v  2.9081 0.0000 7.5041
v  -8.5084 0.0000 14.9229
v  -12.0308 0.0000 11.3668
v  -14.4933 0.0000 12.1296
v  -9.4790 0.0000 18.3595
v  -11.8540 0.0000 7.6687
v  -8.6520 0.0000 4.2106
v  -14.2068 0.0000 5.8100
v  -6.5586 0.0000 8.9864
v  -9.9649 0.0000 11.5391
v  -5.5047 0.9729 -40.3450
v  -6.7409 1.0415 -40.1610
v  -7.7149 0.4246 -40.1147
v  -4.1607 1.0731 -41.7861
v  -4.1466 1.0572 -43.1863
v  -4.0492 0.4172 -44.2040
v  -8.7111 1.0582 -39.9426
v  -10.3695 1.0583 -39.9511
v  -11.1553 0.2707 -40.0188
v  -4.0085 1.0559 -45.3469
v  -4.2619 1.0565 -47.1783
v  -4.2216 0.2647 -48.0516
v  -11.3617 0.0000 9.6838
v  -1.4872 0.0000 -36.6257
v  -4.1653 0.6428 -40.6222
v  -11.4207 0.0000 9.6055
v  3.6791 0.0000 4.5083
v  -0.6405 0.0000 -17.5210
v  -10.0307 0.0000 7.1484
v  -9.5678 0.0000 8.1988
v  -3.5335 0.0000 -35.5812
v  -5.4169 0.0000 -34.9219
v  -7.5535 0.0000 -35.2904
v  -9.8850 0.0000 -37.0700
v  -11.1553 0.0000 -40.0188
v  -10.7039 0.0000 -42.8066
v  -8.2809 0.0000 -46.0824
v  -4.2216 0.0000 -48.0516
v  -1.1148 0.0000 -47.4351
v  1.3941 0.0000 -44.2120
v  2.4985 0.0000 -39.8285
v  2.7085 -0.5007 -20.5892
v  9.2144 -0.5007 -29.2276
v  9.6493 -0.5007 -31.2348
v  7.2296 -0.5007 -40.9822
v  2.0994 -0.9552 -27.4991
v  6.1302 -0.8791 -29.7715
v  6.4865 -0.8716 -31.7925
v  4.6354 -0.9255 -36.0933
v  1.4823 -0.9552 -29.1272
v  2.5461 -0.9552 -35.1598
v  1.6725 -0.9552 -30.2058
v  -0.0598 -0.9552 -35.6193
v  2.1659 -0.9552 -33.0037
v  -0.4399 -0.9552 -33.4632
v  -1.1235 -0.9552 -29.5867
v  -0.9333 -0.9552 -30.6653
v  -5.0976 -1.0642 -39.5507
v  -3.4854 -1.0963 -38.7462
v  -4.7914 -1.0916 -37.5996
v  -6.2412 -1.0709 -38.8878
v  -6.4715 -0.4561 -37.8537
v  -7.3876 -0.4279 -38.5458
v  -5.3486 -0.9960 -41.0459
v  -6.5694 -1.0463 -41.2940
v  -5.6469 -1.0363 -42.6463
v  -4.9304 -1.0173 -41.6042
v  -7.4754 -0.4209 -41.5398
v  -6.1284 -0.4102 -43.3554
v  -3.4339 -1.0842 -41.6500
v  -3.0286 -1.0642 -42.9840
v  -1.8263 -1.0858 -41.7898
v  -2.8723 -1.0822 -41.0176
v  -2.8008 -0.4245 -43.9689
v  -1.1927 -0.4573 -42.3076
v  -2.7076 -1.0646 -40.0122
v  -1.1443 -1.0616 -39.7259
v  -1.9834 -1.0580 -37.4144
v  -0.2693 -0.4356 -39.6224
v  -1.4872 -0.3323 -36.6257
v  -6.7313 -1.0150 -37.1338
v  -8.2359 -1.0576 -37.9336
v  -7.3427 -1.0478 -35.9939
v  -9.3901 -1.0677 -37.3575
v  -7.5535 -0.2696 -35.2904
v  -9.8850 -0.2760 -37.0700
v  -8.3434 -1.0565 -42.0742
v  -6.7116 -1.0554 -44.2647
v  -9.9577 -1.0575 -42.6111
v  -7.8971 -1.0614 -45.5354
v  -10.7039 -0.2695 -42.8066
v  -8.2809 -0.2705 -46.0824
v  -2.3767 -1.0622 -45.0363
v  -0.3565 -1.0975 -42.9315
v  -1.4465 -1.0619 -46.6180
v  0.9220 -1.0995 -43.7748
v  -1.1148 -0.2714 -47.4351
v  1.3941 -0.3022 -44.2120
v  0.5870 -1.0639 -39.6755
v  -0.6423 -1.0586 -36.6054
v  1.8885 -1.0647 -39.7786
v  1.0745 -1.0588 -36.3968
v  2.4985 -0.2853 -39.8285
v  1.6767 -0.2819 -36.3366
v  -3.3184 -1.1641 -20.8885
v  -4.0601 -0.2318 -20.8854
v  -2.3445 -0.2307 -33.2514
v  -1.6087 -1.1641 -33.0926
v  -1.4874 -1.1641 -20.8991
v  0.0592 -1.1641 -32.7261
v  -0.7458 -0.2317 -20.9022
v  0.7950 -0.2307 -32.5673
v  0.5432 -1.1641 3.7718
v  -0.3563 -0.2271 3.5604
v  -4.0032 -0.2315 -17.4988
v  -3.2550 -1.1641 -17.5037
v  2.7789 -1.1641 4.2968
v  -1.3880 -1.1641 -17.5160
v  3.6791 -0.2271 4.5083
v  -0.6405 -0.2316 -17.5210
v  -6.8937 -1.1641 15.6525
v  -7.1115 -0.2250 14.8919
v  -1.0752 -0.2265 6.6330
v  -0.1919 -1.1641 6.8243
v  -6.3537 -1.1641 17.5380
v  2.0153 -1.1641 7.3070
v  -6.1359 -0.2250 18.2986
v  2.9081 -0.2266 7.5041
v  -8.7245 -1.1641 15.6880
v  -8.5084 -0.2297 14.9229
v  -9.2629 -1.1641 17.5944
v  -9.4790 -0.2297 18.3595
v  -12.5794 -1.1641 11.5367
v  -12.0308 -0.2284 11.3668
v  -13.9446 -1.1641 11.9596
v  -14.4933 -0.2284 12.1296
v  -12.3813 -1.1641 7.2522
v  -11.8540 -0.2185 7.6687
v  -13.6795 -1.1641 6.2266
v  -14.2068 -0.2185 5.8100
v  -9.7207 -1.1641 6.4878
v  -10.0307 -0.2127 7.1484
v  -8.9621 -1.1641 4.8712
v  -8.6520 -0.2127 4.2106
v  -8.8924 -1.1641 8.3756
v  -9.5678 -0.2158 8.1988
v  -7.2340 -1.1641 8.8096
v  -6.5586 -0.2158 8.9864
v  -11.0970 -1.1641 10.0354
v  -11.4207 -0.2321 9.6055
v  -10.2885 -1.1641 11.1092
v  -9.9649 -0.2321 11.5391
v  -11.3617 -0.1340 9.6838
v  -5.4577 -1.2114 -36.9182
v  -3.8046 -1.0550 -36.1437
v  -5.4157 -1.0682 -35.6802
v  -3.5335 -0.2777 -35.5812
v  -5.4169 -0.2720 -34.9219
v  -5.5047 -0.9729 -40.3450
v  -6.7409 -1.0415 -40.1610
v  -7.7149 -0.4246 -40.1147
v  -4.1607 -1.0731 -41.7861
v  -4.1466 -1.0572 -43.1863
v  -4.0492 -0.4172 -44.2040
v  -8.7111 -1.0582 -39.9426
v  -10.3695 -1.0583 -39.9511
v  -11.1553 -0.2707 -40.0188
v  -4.0085 -1.0559 -45.3469
v  -4.2619 -1.0565 -47.1783
v  -4.2216 -0.2647 -48.0516
v  -4.1653 -0.6428 -40.6222
# 314 vertices

vn 0.8899 -0.0000 0.4561
vn 0.1691 0.9810 0.0949
vn 0.1844 0.9781 0.0966
vn 0.8845 0.0000 0.4666
vn 0.9144 0.0000 -0.4048
vn 0.9163 0.0000 -0.4006
vn 0.1776 0.9809 -0.0788
vn 0.1731 0.9819 -0.0768
vn 0.0796 0.9945 0.0685
vn 0.0671 0.9972 0.0322
vn 0.0719 0.9969 -0.0317
vn 0.0684 0.9973 -0.0273
vn -0.9732 0.0000 -0.2301
vn -0.9723 0.0000 -0.2338
vn -0.8360 0.5056 -0.2133
vn -0.8705 0.1056 0.4808
vn -0.7984 0.3699 0.4751
vn -0.7686 0.0000 0.6398
vn -0.8256 0.0000 0.5642
vn -0.9526 0.0000 -0.3042
vn -0.9513 0.0005 -0.3083
vn -0.0885 0.6958 -0.7128
vn -0.5602 0.0023 -0.8283
vn -0.4099 -0.0000 -0.9121
vn 0.0024 0.0000 -1.0000
vn 0.0096 1.0000 -0.0000
vn 0.0110 0.9999 -0.0031
vn -0.9520 0.0000 0.3062
vn -0.9532 0.0000 0.3022
vn -0.9359 0.0000 0.3522
vn -0.0000 1.0000 -0.0000
vn 0.0103 0.9999 -0.0003
vn 0.0118 0.9999 0.0008
vn 0.0000 0.6143 0.7891
vn 0.0000 -0.0000 1.0000
vn 0.0000 0.0000 1.0000
vn -0.0000 0.0000 -1.0000
vn -0.0000 0.7677 -0.6408
vn 1.0000 0.0000 0.0000
vn 0.0016 0.0000 1.0000
vn 0.0270 0.9885 -0.1487
vn -0.0029 0.9990 -0.0448
vn -0.0384 0.9948 -0.0941
vn -0.0194 0.9980 -0.0607
vn -0.3745 0.8327 0.4079
vn -0.4187 0.8357 0.3554
vn -0.3076 0.8014 0.5129
vn -0.3248 0.7970 0.5092
vn 0.1446 0.9874 0.0641
vn 0.0537 0.9883 0.1431
vn -0.0048 0.9998 0.0200
vn 0.0529 0.9985 0.0143
vn -0.5948 0.7913 -0.1416
vn -0.4793 0.7698 -0.4215
vn -0.4628 0.7781 -0.4246
vn -0.5876 0.7990 -0.1278
vn -0.0602 0.9895 0.1312
vn -0.1137 0.9892 0.0928
vn 0.0010 1.0000 0.0021
vn -0.0082 0.9999 -0.0152
vn 0.2074 0.7983 -0.5654
vn 0.5001 0.7512 -0.4307
vn 0.4811 0.7571 -0.4419
vn 0.1558 0.8075 -0.5690
vn -0.1082 0.9941 -0.0047
vn 0.0159 0.9999 0.0066
vn 0.0021 1.0000 0.0069
vn 0.6347 0.7671 -0.0933
vn 0.6290 0.7070 0.3233
vn 0.5330 0.7526 0.3867
vn 0.6236 0.7791 -0.0635
vn 0.0289 0.8097 -0.5862
vn 0.4146 0.8262 -0.3815
vn 0.1681 0.9742 -0.1506
vn -0.0276 0.9392 -0.3423
vn 0.0120 0.9999 -0.0030
vn -0.0308 0.9995 -0.0019
vn -0.1864 0.6249 0.7581
vn -0.5480 0.5333 0.6444
vn -0.5574 0.5614 0.6117
vn -0.1724 0.6384 0.7501
vn 0.5713 0.8122 0.1182
vn 0.4231 0.8271 0.3700
vn 0.1811 0.9690 0.1679
vn 0.2545 0.9650 0.0633
vn 0.0023 1.0000 0.0018
vn 0.0005 1.0000 0.0004
vn -0.7426 0.6457 -0.1777
vn -0.6156 0.5969 -0.5146
vn -0.6006 0.6083 -0.5189
vn -0.7411 0.6526 -0.1577
vn -0.1902 0.8437 0.5019
vn -0.4348 0.8199 0.3723
vn -0.1959 0.9655 0.1717
vn -0.0765 0.9741 0.2128
vn -0.0034 1.0000 0.0003
vn -0.0072 1.0000 -0.0023
vn 0.2852 0.6897 -0.6656
vn 0.6760 0.5622 -0.4764
vn 0.6439 0.5785 -0.5007
vn 0.2460 0.6985 -0.6720
vn -0.6352 0.7690 0.0714
vn -0.7193 0.6876 -0.0992
vn -0.3926 0.9169 -0.0712
vn -0.2702 0.9618 0.0441
vn -0.0009 0.9999 -0.0134
vn 0.0009 1.0000 0.0060
vn 0.8112 0.5674 -0.1416
vn 0.8232 0.5652 0.0537
vn 0.8253 0.5623 0.0526
vn 0.8080 0.5693 -0.1519
vn -0.4760 0.8778 0.0540
vn -0.4631 0.8862 -0.0152
vn -0.8146 0.5800 -0.0062
vn -0.8127 0.5749 0.0951
vn 0.0000 1.0000 -0.0000
vn 0.0002 0.9999 -0.0161
vn 0.8120 0.5748 -0.1007
vn 0.8153 0.5789 0.0109
vn 0.8144 0.5801 0.0119
vn 0.8116 0.5750 -0.1031
vn -0.3681 0.9286 0.0471
vn -0.4602 0.8783 0.1295
vn -0.7867 0.5781 0.2166
vn -0.7525 0.6470 0.1231
vn 0.7537 0.6501 -0.0962
vn 0.7837 0.5756 -0.2334
vn 0.7841 0.5772 -0.2279
vn 0.7517 0.6476 -0.1246
vn -0.1933 0.9765 -0.0954
vn -0.3641 0.9268 -0.0924
vn -0.7422 0.6335 -0.2186
vn -0.7738 0.5068 -0.3800
vn 0.7398 0.5290 0.4157
vn 0.7363 0.6431 0.2103
vn 0.7316 0.6355 0.2467
vn 0.7440 0.5220 0.4172
vn -0.1564 0.5842 -0.7964
vn 0.1564 0.5842 0.7964
vn 0.5096 0.5284 -0.6790
vn 0.5203 0.4336 -0.7357
vn 0.5187 0.4525 -0.7254
vn 0.5077 0.5405 -0.6709
vn -0.5628 0.5168 0.6451
vn -0.5779 0.4481 0.6820
vn -0.5762 0.4570 0.6776
vn -0.5613 0.5227 0.6417
vn 0.8834 0.4546 -0.1140
vn -0.8834 0.4546 0.1140
vn 0.3909 0.4546 0.8004
vn -0.3909 0.4546 -0.8004
vn -0.7411 0.4546 0.4941
vn 0.7411 0.4546 -0.4941
vn -0.6511 0.4546 -0.6077
vn -0.6512 0.4546 -0.6077
vn 0.6512 0.4546 0.6077
vn -0.6823 0.0000 0.7311
vn -0.0911 0.9840 -0.1534
vn 0.0281 0.9916 0.1266
vn 0.0495 0.9985 0.0231
vn 0.1972 0.6343 0.7475
vn 0.1878 0.6430 0.7425
vn 0.4477 0.6179 0.6463
vn 0.4746 0.5790 0.6630
vn 1.0000 0.0000 0.0060
vn 0.9984 0.0000 0.0559
vn 1.0000 0.0000 0.0063
vn -0.9998 0.0000 -0.0188
vn -0.9935 0.0000 0.1138
vn -0.9998 0.0000 -0.0194
vn 0.9923 0.0000 -0.1241
vn -0.9641 0.0000 0.2655
vn -0.9895 0.0000 0.1448
vn -0.9895 -0.0000 0.1449
vn -0.9641 0.0000 0.2654
vn -0.9674 -0.0000 -0.2532
vn -0.8975 0.0000 -0.4409
vn -0.8975 -0.0000 -0.4409
vn 0.8664 0.0000 0.4994
vn 0.9553 0.0000 0.2956
vn 0.5775 0.0000 -0.8164
vn -0.6583 0.0000 0.7528
vn 0.9920 0.0000 -0.1264
vn -0.4394 -0.0000 -0.8983
vn -0.4394 0.0000 -0.8983
vn 0.8322 0.0000 -0.5544
vn 0.7295 -0.0000 0.6839
vn 0.7295 0.0000 0.6839
vn 0.1066 0.9922 -0.0640
vn 0.0561 0.9980 -0.0277
vn -0.5535 0.8233 0.1258
vn -0.5714 0.8131 0.1114
vn -0.0008 0.9847 0.1743
vn -0.0141 0.9998 -0.0107
vn -0.1831 0.8047 -0.5647
vn -0.1499 0.8116 -0.5647
vn 0.5771 0.8094 -0.1084
vn 0.2632 0.9629 -0.0596
vn -0.0003 1.0000 -0.0021
vn -0.7266 0.6428 0.2425
vn -0.7260 0.6563 0.2052
vn 0.1561 0.8428 0.5151
vn 0.0570 0.9728 0.2246
vn -0.0002 1.0000 0.0005
vn -0.2365 0.6868 -0.6873
vn -0.2008 0.6942 -0.6912
vn -0.9972 0.0000 -0.0742
vn -0.0061 0.9990 0.0439
vn -0.6823 0.0000 0.7310
vn 0.9591 0.0000 -0.2830
vn 0.9894 0.0000 -0.1449
vn -0.1954 0.0000 -0.9807
vn 0.1915 0.0000 0.9815
vn -0.9917 0.0000 0.1289
vn 0.4372 0.0000 0.8993
vn -0.8312 0.0000 0.5560
vn -0.7338 -0.0000 -0.6794
vn -0.7338 0.0000 -0.6794
vn 0.6024 -0.0000 0.7982
vn 0.5476 0.0000 0.8367
vn 0.5471 0.0000 0.8371
vn 0.6024 0.0000 0.7982
vn 0.2550 0.0000 0.9669
vn 0.2547 0.0000 0.9670
vn -0.2347 0.0000 0.9721
vn -0.2346 0.0000 0.9721
vn -0.6695 0.0000 0.7428
vn -0.6694 0.0000 0.7429
vn -0.8358 0.0000 0.5491
vn -0.9999 0.0000 0.0140
vn -0.9750 0.0000 -0.2223
vn -0.7627 0.0000 -0.6468
vn -0.7626 0.0000 -0.6469
vn -0.5861 0.0000 -0.8103
vn 0.0214 0.0000 -0.9998
vn 0.6705 0.0000 -0.7420
vn 0.8090 0.0000 -0.5878
vn 0.8088 0.0000 -0.5881
vn 0.9833 0.0000 -0.1818
vn 0.9834 0.0000 -0.1814
vn 0.1844 -0.9781 0.0966
vn 0.1691 -0.9810 0.0949
vn 0.1731 -0.9819 -0.0768
vn 0.1776 -0.9809 -0.0788
vn 0.0671 -0.9972 0.0322
vn 0.0796 -0.9945 0.0685
vn 0.0684 -0.9973 -0.0273
vn 0.0719 -0.9969 -0.0317
vn -0.8360 -0.5056 -0.2133
vn -0.8705 -0.1056 0.4808
vn -0.7984 -0.3699 0.4751
vn -0.9513 -0.0005 -0.3083
vn -0.0885 -0.6958 -0.7128
vn -0.5602 -0.0023 -0.8283
vn 0.0110 -0.9999 -0.0031
vn 0.0096 -1.0000 -0.0000
vn -0.0000 -1.0000 -0.0000
vn 0.0118 -0.9999 0.0008
vn 0.0103 -0.9999 -0.0003
vn 0.0000 -0.6143 0.7891
vn -0.0000 -0.7677 -0.6408
vn 0.0270 -0.9885 -0.1487
vn -0.0194 -0.9980 -0.0607
vn -0.0384 -0.9948 -0.0941
vn -0.0029 -0.9990 -0.0448
vn -0.3745 -0.8327 0.4079
vn -0.3248 -0.7970 0.5092
vn -0.3076 -0.8014 0.5129
vn -0.4187 -0.8357 0.3554
vn 0.1446 -0.9874 0.0641
vn 0.0529 -0.9985 0.0143
vn -0.0048 -0.9998 0.0200
vn 0.0537 -0.9883 0.1431
vn -0.5948 -0.7913 -0.1416
vn -0.5876 -0.7990 -0.1278
vn -0.4628 -0.7781 -0.4246
vn -0.4793 -0.7698 -0.4215
vn -0.0602 -0.9895 0.1312
vn -0.0082 -0.9999 -0.0152
vn 0.0010 -1.0000 0.0021
vn -0.1137 -0.9892 0.0928
vn 0.2074 -0.7983 -0.5654
vn 0.1558 -0.8075 -0.5690
vn 0.4811 -0.7571 -0.4419
vn 0.5001 -0.7512 -0.4307
vn -0.1082 -0.9941 -0.0047
vn 0.0021 -1.0000 0.0069
vn 0.0159 -0.9999 0.0066
vn 0.6347 -0.7671 -0.0933
vn 0.6236 -0.7791 -0.0635
vn 0.5330 -0.7526 0.3867
vn 0.6290 -0.7070 0.3233
vn 0.0289 -0.8097 -0.5862
vn -0.0276 -0.9392 -0.3423
vn 0.1681 -0.9742 -0.1506
vn 0.4146 -0.8262 -0.3815
vn -0.0308 -0.9995 -0.0019
vn 0.0120 -0.9999 -0.0030
vn -0.1864 -0.6249 0.7581
vn -0.1724 -0.6384 0.7501
vn -0.5574 -0.5614 0.6117
vn -0.5480 -0.5333 0.6444
vn 0.5713 -0.8122 0.1182
vn 0.2545 -0.9650 0.0633
vn 0.1811 -0.9690 0.1679
vn 0.4231 -0.8271 0.3700
vn 0.0005 -1.0000 0.0004
vn 0.0023 -1.0000 0.0018
vn -0.7426 -0.6457 -0.1777
vn -0.7411 -0.6526 -0.1577
vn -0.6006 -0.6083 -0.5189
vn -0.6156 -0.5969 -0.5146
vn -0.1902 -0.8437 0.5019
vn -0.0765 -0.9741 0.2128
vn -0.1959 -0.9655 0.1717
vn -0.4348 -0.8199 0.3723
vn -0.0072 -1.0000 -0.0023
vn -0.0034 -1.0000 0.0003
vn 0.2852 -0.6897 -0.6656
vn 0.2460 -0.6985 -0.6720
vn 0.6439 -0.5785 -0.5007
vn 0.6760 -0.5622 -0.4764
vn -0.6352 -0.7690 0.0714
vn -0.2702 -0.9618 0.0441
vn -0.3926 -0.9169 -0.0712
vn -0.7193 -0.6876 -0.0992
vn 0.0009 -1.0000 0.0060
vn -0.0009 -0.9999 -0.0134
vn 0.8112 -0.5674 -0.1416
vn 0.8080 -0.5693 -0.1519
vn 0.8253 -0.5623 0.0526
vn 0.8232 -0.5652 0.0537
vn -0.4760 -0.8778 0.0540
vn -0.8127 -0.5749 0.0951
vn -0.8146 -0.5800 -0.0062
vn -0.4631 -0.8862 -0.0152
vn 0.0000 -1.0000 -0.0000
vn 0.0002 -0.9999 -0.0161
vn 0.8120 -0.5748 -0.1007
vn 0.8116 -0.5750 -0.1031
vn 0.8144 -0.5801 0.0119
vn 0.8153 -0.5789 0.0109
vn -0.3681 -0.9286 0.0471
vn -0.7525 -0.6470 0.1231
vn -0.7867 -0.5781 0.2166
vn -0.4602 -0.8783 0.1295
vn 0.7537 -0.6501 -0.0962
vn 0.7517 -0.6476 -0.1246
vn 0.7841 -0.5772 -0.2279
vn 0.7837 -0.5756 -0.2334
vn -0.1933 -0.9765 -0.0954
vn -0.7738 -0.5068 -0.3800
vn -0.7422 -0.6335 -0.2186
vn -0.3641 -0.9268 -0.0924
vn 0.7398 -0.5290 0.4157
vn 0.7440 -0.5220 0.4172
vn 0.7316 -0.6355 0.2467
vn 0.7363 -0.6431 0.2103
vn -0.1564 -0.5842 -0.7964
vn 0.1564 -0.5842 0.7964
vn 0.5096 -0.5284 -0.6790
vn 0.5077 -0.5405 -0.6709
vn 0.5187 -0.4525 -0.7254
vn 0.5203 -0.4336 -0.7357
vn -0.5628 -0.5168 0.6451
vn -0.5613 -0.5227 0.6417
vn -0.5762 -0.4570 0.6776
vn -0.5779 -0.4481 0.6820
vn 0.8834 -0.4546 -0.1140
vn -0.8834 -0.4546 0.1140
vn 0.3909 -0.4546 0.8004
vn -0.3909 -0.4546 -0.8004
vn -0.7411 -0.4546 0.4941
vn 0.7411 -0.4546 -0.4941
vn -0.6511 -0.4546 -0.6077
vn -0.6512 -0.4546 -0.6077
vn 0.6512 -0.4546 0.6077
vn -0.6823 -0.0000 0.7311
vn -0.0911 -0.9840 -0.1534
vn 0.0495 -0.9985 0.0231
vn 0.0281 -0.9916 0.1266
vn 0.1972 -0.6343 0.7475
vn 0.4746 -0.5790 0.6630
vn 0.4477 -0.6179 0.6463
vn 0.1878 -0.6430 0.7425
vn 0.1066 -0.9922 -0.0640
vn 0.0561 -0.9980 -0.0277
vn -0.5535 -0.8233 0.1258
vn -0.5714 -0.8131 0.1114
vn -0.0008 -0.9847 0.1743
vn -0.0141 -0.9998 -0.0107
vn -0.1831 -0.8047 -0.5647
vn -0.1499 -0.8116 -0.5647
vn 0.5771 -0.8094 -0.1084
vn 0.2632 -0.9629 -0.0596
vn -0.0003 -1.0000 -0.0021
vn -0.7266 -0.6428 0.2425
vn -0.7260 -0.6563 0.2052
vn 0.1561 -0.8428 0.5151
vn 0.0570 -0.9728 0.2246
vn -0.0002 -1.0000 0.0005
vn -0.2365 -0.6868 -0.6873
vn -0.2008 -0.6942 -0.6912
vn -0.9972 -0.0000 -0.0742
vn -0.0061 -0.9990 0.0439
# 405 vertex normals

vt 0.4410 0.2559 0.0000
vt 0.4808 0.2559 0.0000
vt 0.5514 0.3946 0.0000
vt 0.5359 0.4358 0.0000
vt 0.4395 0.2262 0.0000
vt 0.5273 0.0256 0.0000
vt 0.5383 0.0941 0.0000
vt 0.4796 0.2263 0.0000
vt 0.5259 0.2559 0.0000
vt 0.5773 0.2982 0.0000
vt 0.5629 0.1699 0.0000
vt 0.5259 0.2263 0.0000
vt 0.5408 0.0829 0.0000
vt 0.5902 0.2766 0.0000
vt 0.5902 0.2887 0.0000
vt 0.5902 0.1884 0.0000
vt 0.5902 0.1698 0.0000
vt 0.5902 0.2609 0.0000
vt 0.6283 0.1884 0.0000
vt 0.6283 0.2199 0.0000
vt 0.5902 0.2199 0.0000
vt 0.6283 0.2766 0.0000
vt 0.6283 0.2887 0.0000
vt 0.6283 0.1698 0.0000
vt 0.6283 0.2609 0.0000
vt 0.7980 0.1453 0.0000
vt 0.8125 0.1575 0.0000
vt 0.7887 0.1722 0.0000
vt 0.7731 0.1526 0.0000
vt 0.8279 0.1652 0.0000
vt 0.8132 0.1728 0.0000
vt 0.8053 0.1247 0.0000
vt 0.8007 0.1157 0.0000
vt 0.8135 0.1027 0.0000
vt 0.8232 0.1242 0.0000
vt 0.8221 0.0939 0.0000
vt 0.8367 0.1230 0.0000
vt 0.7796 0.1113 0.0000
vt 0.7701 0.1189 0.0000
vt 0.7572 0.1053 0.0000
vt 0.7772 0.0914 0.0000
vt 0.7495 0.0964 0.0000
vt 0.7764 0.0768 0.0000
vt 0.7652 0.1327 0.0000
vt 0.7484 0.1678 0.0000
vt 0.7423 0.1329 0.0000
vt 0.7394 0.1777 0.0000
vt 0.7297 0.1322 0.0000
vt 0.8384 0.1760 0.0000
vt 0.8151 0.1836 0.0000
vt 0.8533 0.1871 0.0000
vt 0.8209 0.2013 0.0000
vt 0.8597 0.1924 0.0000
vt 0.8221 0.2118 0.0000
vt 0.8326 0.0824 0.0000
vt 0.8503 0.1176 0.0000
vt 0.8526 0.0674 0.0000
vt 0.8745 0.1140 0.0000
vt 0.8594 0.0606 0.0000
vt 0.8856 0.1131 0.0000
vt 0.7392 0.0854 0.0000
vt 0.7731 0.0606 0.0000
vt 0.7231 0.0703 0.0000
vt 0.7639 0.0359 0.0000
vt 0.7175 0.0629 0.0000
vt 0.7612 0.0235 0.0000
vt 0.7274 0.1759 0.0000
vt 0.7176 0.1293 0.0000
vt 0.7025 0.1745 0.0000
vt 0.6994 0.1246 0.0000
vt 0.6938 0.1739 0.0000
vt 0.6909 0.1223 0.0000
vt 0.7261 0.4055 0.0000
vt 0.7323 0.2281 0.0000
vt 0.7432 0.2277 0.0000
vt 0.7366 0.4074 0.0000
vt 0.7001 0.4007 0.0000
vt 0.7078 0.2291 0.0000
vt 0.6896 0.3988 0.0000
vt 0.6969 0.2296 0.0000
vt 0.6096 0.7456 0.0000
vt 0.7167 0.4533 0.0000
vt 0.7273 0.4553 0.0000
vt 0.6229 0.7448 0.0000
vt 0.5766 0.7474 0.0000
vt 0.6902 0.4485 0.0000
vt 0.5633 0.7482 0.0000
vt 0.6797 0.4465 0.0000
vt 0.6854 0.9326 0.0000
vt 0.6124 0.7907 0.0000
vt 0.6254 0.7902 0.0000
vt 0.6904 0.9224 0.0000
vt 0.6730 0.9580 0.0000
vt 0.5799 0.7920 0.0000
vt 0.6680 0.9683 0.0000
vt 0.5667 0.7926 0.0000
vt 0.7113 0.9377 0.0000
vt 0.7101 0.9263 0.0000
vt 0.7141 0.9661 0.0000
vt 0.7153 0.9775 0.0000
vt 0.7690 0.8847 0.0000
vt 0.7763 0.8885 0.0000
vt 0.7946 0.8979 0.0000
vt 0.8020 0.9017 0.0000
vt 0.7842 0.8272 0.0000
vt 0.7757 0.8318 0.0000
vt 0.8052 0.8159 0.0000
vt 0.8137 0.8113 0.0000
vt 0.7484 0.8097 0.0000
vt 0.7511 0.8199 0.0000
vt 0.7417 0.7849 0.0000
vt 0.7389 0.7748 0.0000
vt 0.7319 0.8344 0.0000
vt 0.7419 0.8336 0.0000
vt 0.7073 0.8364 0.0000
vt 0.6973 0.8373 0.0000
vt 0.7590 0.8635 0.0000
vt 0.7647 0.8582 0.0000
vt 0.7449 0.8767 0.0000
vt 0.7392 0.8820 0.0000
vt 0.7637 0.8592 0.0000
vt 0.7965 0.1835 0.0000
vt 0.7928 0.2009 0.0000
vt 0.7711 0.1903 0.0000
vt 0.7909 0.2117 0.0000
vt 0.7658 0.1976 0.0000
vt 0.8057 0.1350 0.0000
vt 0.8228 0.1407 0.0000
vt 0.8365 0.1438 0.0000
vt 0.7903 0.1112 0.0000
vt 0.7936 0.0913 0.0000
vt 0.7947 0.0766 0.0000
vt 0.8502 0.1487 0.0000
vt 0.8737 0.1528 0.0000
vt 0.8850 0.1538 0.0000
vt 0.7970 0.0603 0.0000
vt 0.8052 0.0350 0.0000
vt 0.8068 0.0225 0.0000
vt 0.7874 0.1277 0.0000
vt 0.5081 0.7441 0.0000
vt 0.4132 0.5642 0.0000
vt 0.3977 0.6054 0.0000
vt 0.4684 0.7441 0.0000
vt 0.5096 0.7738 0.0000
vt 0.4695 0.7737 0.0000
vt 0.4108 0.9059 0.0000
vt 0.4219 0.9744 0.0000
vt 0.3718 0.7018 0.0000
vt 0.4233 0.7441 0.0000
vt 0.4233 0.7737 0.0000
vt 0.3863 0.8301 0.0000
vt 0.4083 0.9171 0.0000
vt 0.3590 0.7113 0.0000
vt 0.3590 0.7234 0.0000
vt 0.3590 0.8116 0.0000
vt 0.3590 0.8302 0.0000
vt 0.3590 0.7391 0.0000
vt 0.3208 0.8116 0.0000
vt 0.3590 0.7801 0.0000
vt 0.3208 0.7801 0.0000
vt 0.3208 0.7113 0.0000
vt 0.3208 0.7234 0.0000
vt 0.3208 0.8302 0.0000
vt 0.3208 0.7391 0.0000
vt 0.1538 0.8547 0.0000
vt 0.1787 0.8474 0.0000
vt 0.1631 0.8278 0.0000
vt 0.1393 0.8425 0.0000
vt 0.1386 0.8272 0.0000
vt 0.1239 0.8348 0.0000
vt 0.1465 0.8753 0.0000
vt 0.1286 0.8758 0.0000
vt 0.1383 0.8973 0.0000
vt 0.1511 0.8843 0.0000
vt 0.1151 0.8770 0.0000
vt 0.1297 0.9061 0.0000
vt 0.1722 0.8887 0.0000
vt 0.1746 0.9086 0.0000
vt 0.1946 0.8947 0.0000
vt 0.1817 0.8811 0.0000
vt 0.1754 0.9232 0.0000
vt 0.2023 0.9036 0.0000
vt 0.1866 0.8673 0.0000
vt 0.2095 0.8671 0.0000
vt 0.2033 0.8322 0.0000
vt 0.2221 0.8678 0.0000
vt 0.2124 0.8223 0.0000
vt 0.1367 0.8164 0.0000
vt 0.1134 0.8240 0.0000
vt 0.1309 0.7987 0.0000
vt 0.0984 0.8129 0.0000
vt 0.1297 0.7882 0.0000
vt 0.0921 0.8076 0.0000
vt 0.1015 0.8824 0.0000
vt 0.1192 0.9176 0.0000
vt 0.0773 0.8860 0.0000
vt 0.0992 0.9326 0.0000
vt 0.0662 0.8869 0.0000
vt 0.0924 0.9394 0.0000
vt 0.1787 0.9394 0.0000
vt 0.2126 0.9146 0.0000
vt 0.1879 0.9641 0.0000
vt 0.2286 0.9297 0.0000
vt 0.1906 0.9765 0.0000
vt 0.2343 0.9371 0.0000
vt 0.2341 0.8707 0.0000
vt 0.2244 0.8241 0.0000
vt 0.2523 0.8754 0.0000
vt 0.2493 0.8255 0.0000
vt 0.2609 0.8777 0.0000
vt 0.2580 0.8261 0.0000
vt 0.2257 0.5945 0.0000
vt 0.2152 0.5926 0.0000
vt 0.2086 0.7723 0.0000
vt 0.2195 0.7719 0.0000
vt 0.2517 0.5993 0.0000
vt 0.2440 0.7709 0.0000
vt 0.2622 0.6012 0.0000
vt 0.2549 0.7704 0.0000
vt 0.3422 0.2544 0.0000
vt 0.3289 0.2552 0.0000
vt 0.2245 0.5447 0.0000
vt 0.2351 0.5467 0.0000
vt 0.3752 0.2526 0.0000
vt 0.2616 0.5515 0.0000
vt 0.3885 0.2518 0.0000
vt 0.2721 0.5535 0.0000
vt 0.2664 0.0674 0.0000
vt 0.2614 0.0776 0.0000
vt 0.3264 0.2098 0.0000
vt 0.3394 0.2093 0.0000
vt 0.2788 0.0420 0.0000
vt 0.3719 0.2080 0.0000
vt 0.2838 0.0317 0.0000
vt 0.3850 0.2074 0.0000
vt 0.2405 0.0623 0.0000
vt 0.2417 0.0737 0.0000
vt 0.2377 0.0339 0.0000
vt 0.2365 0.0225 0.0000
vt 0.1755 0.1115 0.0000
vt 0.1828 0.1153 0.0000
vt 0.1572 0.1021 0.0000
vt 0.1498 0.0983 0.0000
vt 0.1676 0.1728 0.0000
vt 0.1761 0.1682 0.0000
vt 0.1466 0.1841 0.0000
vt 0.1381 0.1887 0.0000
vt 0.2034 0.1903 0.0000
vt 0.2007 0.1801 0.0000
vt 0.2101 0.2151 0.0000
vt 0.2129 0.2252 0.0000
vt 0.2199 0.1656 0.0000
vt 0.2099 0.1664 0.0000
vt 0.2445 0.1636 0.0000
vt 0.2545 0.1627 0.0000
vt 0.1928 0.1365 0.0000
vt 0.1871 0.1418 0.0000
vt 0.2069 0.1233 0.0000
vt 0.2126 0.1180 0.0000
vt 0.1881 0.1408 0.0000
vt 0.1553 0.8165 0.0000
vt 0.1807 0.8097 0.0000
vt 0.1590 0.7991 0.0000
vt 0.1859 0.8024 0.0000
vt 0.1609 0.7883 0.0000
vt 0.1461 0.8650 0.0000
vt 0.1290 0.8593 0.0000
vt 0.1153 0.8562 0.0000
vt 0.1615 0.8888 0.0000
vt 0.1582 0.9087 0.0000
vt 0.1571 0.9234 0.0000
vt 0.1016 0.8513 0.0000
vt 0.0781 0.8472 0.0000
vt 0.0668 0.8462 0.0000
vt 0.1548 0.9397 0.0000
vt 0.1466 0.9650 0.0000
vt 0.1450 0.9775 0.0000
vt 0.1644 0.8723 0.0000
# 278 texture coords

g Tomahawk_04
s 4
f 1/1/1 2/2/2 3/3/3 4/4/4 
f 5/5/5 6/6/6 7/7/7 8/8/8 
f 2/2/2 9/9/9 10/10/10 3/3/3 
f 7/7/7 11/11/11 12/12/12 8/8/8 
s 2
f 6/6/13 13/13/14 7/7/15 
f 10/10/16 14/14/17 15/15/18 16/10/19 
f 17/11/20 11/11/21 7/7/15 13/13/14 
s 1
f 18/16/22 11/11/23 17/11/24 19/17/25 
s 4
f 9/9/9 20/18/26 14/14/27 10/10/10 
s 2
f 21/3/28 3/3/29 10/10/16 16/10/19 
f 3/3/29 21/3/28 4/4/30 
s 4
f 22/19/31 23/20/31 24/21/32 18/16/33 
s 1
f 14/14/34 25/22/34 26/23/35 15/15/36 
f 19/17/25 27/24/37 22/19/38 18/16/22 
s 4
f 25/22/31 14/14/27 20/18/26 28/25/31 
f 12/12/12 11/11/11 18/16/33 24/21/32 
f 23/20/31 28/25/31 20/18/26 24/21/32 
f 9/9/9 12/12/12 24/21/32 20/18/26 
s off
f 9/9/39 29/9/39 30/12/39 12/12/39 
f 8/8/36 12/12/36 30/12/36 31/8/36 
f 1/1/37 32/2/37 2/2/37 
f 8/8/40 31/8/40 5/5/40 
s 1
f 33/26/41 34/27/42 35/28/43 36/29/44 
s 2
f 34/27/45 37/30/46 38/31/47 35/28/48 
s 1
f 39/32/49 40/33/50 41/34/51 42/35/52 
s 2
f 42/35/53 41/34/54 43/36/55 44/37/56 
s 1
f 45/38/57 46/39/58 47/40/59 48/41/60 
s 2
f 48/41/61 47/40/62 49/42/63 50/43/64 
s 1
f 51/44/65 36/29/44 52/45/66 53/46/67 
s 2
f 53/46/68 52/45/69 54/47/70 55/48/71 
s 1
f 38/31/72 37/30/73 56/49/74 57/50/75 
f 57/50/75 56/49/74 58/51/76 59/52/77 
s 2
f 59/52/78 58/51/79 60/53/80 61/54/81 
s 1
f 44/37/82 43/36/83 62/55/84 63/56/85 
f 63/56/85 62/55/84 64/57/86 65/58/87 
s 2
f 65/58/88 64/57/89 66/59/90 67/60/91 
s 1
f 50/43/92 49/42/93 68/61/94 69/62/95 
f 69/62/95 68/61/94 70/63/96 71/64/97 
s 2
f 71/64/98 70/63/99 72/65/100 73/66/101 
s 1
f 55/48/102 54/47/103 74/67/104 75/68/105 
f 75/68/105 74/67/104 76/69/106 77/70/107 
s 2
f 77/70/108 76/69/109 78/71/110 79/72/111 
s 1
f 80/73/112 81/74/113 82/75/114 83/76/115 
f 84/77/116 85/78/117 81/74/113 80/73/112 
s 2
f 86/79/118 87/80/119 85/78/120 84/77/121 
s 1
f 88/81/122 89/82/123 90/83/124 91/84/125 
f 92/85/116 93/86/116 89/82/123 88/81/122 
s 2
f 94/87/126 95/88/127 93/86/128 92/85/129 
s 1
f 96/89/130 97/90/131 98/91/132 99/92/133 
f 100/93/116 101/94/116 97/90/131 96/89/130 
s 2
f 102/95/134 103/96/135 101/94/136 100/93/137 
f 104/97/138 96/89/138 99/92/138 105/98/138 
s 1
f 106/99/116 100/93/116 96/89/130 104/97/116 
s 4
f 107/100/139 102/95/139 100/93/139 106/99/139 
f 105/98/140 108/101/141 109/102/142 104/97/143 
s 1
f 104/97/116 109/102/116 110/103/116 106/99/116 
s 2
f 106/99/144 110/103/145 111/104/146 107/100/147 
f 112/105/148 109/102/148 108/101/148 113/106/148 
s 1
f 114/107/116 110/103/116 109/102/116 112/105/116 
s 4
f 115/108/149 111/104/149 110/103/149 114/107/149 
f 116/109/150 112/105/150 113/106/150 117/110/150 
s 1
f 118/111/116 114/107/116 112/105/116 116/109/116 
s 2
f 119/112/151 115/108/151 114/107/151 118/111/151 
f 120/113/152 116/109/152 117/110/152 121/114/152 
s 1
f 122/115/116 118/111/116 116/109/116 120/113/116 
s 4
f 123/116/153 119/112/153 118/111/153 122/115/153 
f 124/117/154 120/113/155 121/114/155 125/118/154 
s 1
f 126/119/116 122/115/116 120/113/116 124/117/116 
s 2
f 127/120/156 123/116/156 122/115/156 126/119/156 
s 8
f 124/117/157 125/118/157 128/121/157 126/119/157 
s 1
f 129/122/158 130/123/159 131/124/160 35/28/43 
s 2
f 130/123/161 132/125/162 133/126/163 131/124/164 
s 1
f 36/29/44 35/28/43 131/124/160 52/45/66 
s 2
f 52/45/69 131/124/164 133/126/163 54/47/70 
s 1
f 134/80/165 135/71/166 78/71/166 87/80/167 
s 4
f 136/75/168 137/76/169 83/76/169 82/75/170 
s 1
f 138/79/171 134/80/165 87/80/167 86/79/171 
s 4
f 139/83/172 140/84/173 91/84/174 90/83/175 
f 141/91/176 142/92/177 99/92/178 98/91/176 
s 1
f 143/95/179 144/96/180 103/96/180 102/95/179 
f 145/98/181 146/101/181 108/101/181 105/98/181 
f 147/104/182 148/100/182 107/100/182 111/104/182 
s 8
f 146/101/183 149/106/183 113/106/183 108/101/183 
s 1
f 150/112/184 151/108/184 115/108/184 119/112/185 
s 8
f 152/116/186 150/112/186 119/112/186 123/116/186 
s 1
f 153/120/187 152/116/187 123/116/187 127/120/188 
f 81/74/113 74/67/104 54/47/103 82/75/114 
f 85/78/117 76/69/106 74/67/104 81/74/113 
s 2
f 87/80/119 78/71/110 76/69/109 85/78/120 
s 1
f 154/127/189 39/32/49 42/35/52 155/128/190 
s 2
f 155/128/191 42/35/53 44/37/56 156/129/192 
s 1
f 157/130/193 45/38/57 48/41/60 158/131/194 
s 2
f 158/131/195 48/41/61 50/43/64 159/132/196 
s 1
f 156/129/197 44/37/82 63/56/85 160/133/198 
f 160/133/198 63/56/85 65/58/87 161/134/199 
s 2
f 161/134/200 65/58/88 67/60/91 162/135/201 
s 1
f 159/132/202 50/43/92 69/62/95 163/136/203 
f 163/136/203 69/62/95 71/64/97 164/137/204 
s 2
f 164/137/205 71/64/98 73/66/101 165/138/206 
s 1
f 129/122/158 35/28/43 38/31/72 57/50/75 
f 129/122/158 57/50/75 59/52/77 130/123/159 
s 2
f 130/123/161 59/52/78 61/54/81 132/125/162 
s 8
f 126/119/157 128/121/157 166/121/157 153/120/157 
f 127/120/157 126/119/157 153/120/157 
s 4
f 54/47/207 167/47/207 136/75/168 82/75/170 
s 1
f 154/127/189 155/128/190 34/27/42 33/26/41 
s 2
f 155/128/191 156/129/192 37/30/46 34/27/45 
s 1
f 156/129/197 160/133/198 56/49/74 37/30/73 
f 160/133/198 161/134/199 58/51/76 56/49/74 
s 2
f 161/134/200 162/135/201 60/53/80 58/51/79 
s 1
f 157/130/193 158/131/194 41/34/51 40/33/50 
s 2
f 158/131/195 159/132/196 43/36/55 41/34/54 
s 1
f 159/132/202 163/136/203 62/55/84 43/36/83 
f 163/136/203 164/137/204 64/57/86 62/55/84 
s 2
f 164/137/205 165/138/206 66/59/90 64/57/89 
s 1
f 51/44/65 53/46/67 47/40/59 46/39/58 
s 2
f 53/46/68 55/48/71 49/42/63 47/40/62 
s 1
f 55/48/102 75/68/105 68/61/94 49/42/93 
f 75/68/105 77/70/107 70/63/96 68/61/94 
s 2
f 77/70/108 79/72/111 72/65/100 70/63/99 
s 1
f 33/26/41 36/29/44 168/139/208 
f 40/33/50 39/32/49 168/139/208 
f 46/39/58 45/38/57 168/139/208 
f 36/29/44 51/44/65 168/139/208 
f 39/32/49 154/127/189 168/139/208 
f 45/38/57 157/130/193 168/139/208 
f 154/127/189 33/26/41 168/139/208 
f 157/130/193 40/33/50 168/139/208 
f 51/44/65 46/39/58 168/139/208 
s 8
f 128/121/157 125/118/157 169/118/209 166/121/157 
s 1
f 83/76/115 90/83/124 89/82/123 80/73/112 
f 80/73/112 89/82/123 93/86/116 84/77/116 
s 2
f 84/77/121 93/86/128 95/88/127 86/79/118 
s 1
f 91/84/125 98/91/132 97/90/131 88/81/122 
f 88/81/122 97/90/131 101/94/116 92/85/116 
s 2
f 92/85/129 101/94/136 103/96/135 94/87/126 
s 4
f 83/76/169 137/76/169 139/83/172 90/83/175 
f 91/84/174 140/84/173 141/91/176 98/91/176 
s 1
f 29/9/37 9/9/37 2/2/37 32/2/37 
f 95/88/210 94/87/211 170/87/211 171/88/210 
s 8
f 105/98/212 99/92/212 142/92/212 145/98/212 
f 102/95/213 107/100/213 148/100/213 143/95/213 
f 111/104/214 115/108/214 151/108/214 147/104/214 
s 1
f 117/110/215 113/106/215 149/106/215 172/110/215 
s 8
f 121/114/216 117/110/216 172/110/216 173/114/216 
s 1
f 125/118/217 121/114/218 173/114/217 169/118/217 
s 8
f 54/47/219 133/126/220 174/126/221 167/47/222 
f 133/126/220 132/125/223 175/125/224 174/126/221 
f 132/125/223 61/54/225 176/54/226 175/125/224 
f 61/54/225 60/53/227 177/53/228 176/54/226 
f 60/53/227 162/135/229 178/135/229 177/53/228 
s 1
f 162/135/230 67/60/231 179/60/231 178/135/230 
f 67/60/231 66/59/232 180/59/233 179/60/231 
f 66/59/232 165/138/234 181/138/234 180/59/233 
s 4
f 165/138/235 73/66/235 182/66/235 181/138/235 
s 1
f 73/66/236 72/65/237 183/65/238 182/66/236 
f 72/65/237 79/72/239 184/72/240 183/65/238 
f 79/72/239 78/71/166 135/71/166 184/72/240 
f 94/87/211 103/96/180 144/96/180 170/87/211 
f 86/79/171 95/88/210 171/88/210 138/79/171 
s 4
f 1/140/1 4/141/4 185/142/241 186/143/242 
f 5/144/5 187/145/243 188/146/244 6/147/6 
f 186/143/242 185/142/241 189/148/245 190/149/246 
f 188/146/244 187/145/243 191/150/247 192/151/248 
s 2
f 6/147/13 188/146/249 13/152/14 
f 189/148/250 16/148/19 15/153/18 193/154/251 
f 17/151/20 13/152/14 188/146/249 192/151/252 
s 1
f 194/155/253 19/156/25 17/151/24 192/151/254 
s 4
f 190/149/246 189/148/245 193/154/255 195/157/256 
s 2
f 21/142/28 16/148/19 189/148/250 185/142/29 
f 185/142/29 4/141/30 21/142/28 
s 4
f 196/158/257 194/155/258 197/159/259 198/160/257 
s 1
f 193/154/260 15/153/36 26/161/35 199/162/260 
f 19/156/25 194/155/253 196/158/261 27/163/37 
s 4
f 199/162/257 200/164/257 195/157/256 193/154/255 
f 191/150/247 197/159/259 194/155/258 192/151/248 
f 198/160/257 197/159/259 195/157/256 200/164/257 
f 190/149/246 195/157/256 197/159/259 191/150/247 
s off
f 190/149/39 191/150/39 30/150/39 29/149/39 
f 187/145/36 31/145/36 30/150/36 191/150/36 
f 1/140/37 186/143/37 32/143/37 
f 187/145/40 5/144/40 31/145/40 
s 1
f 201/165/262 202/166/263 203/167/264 204/168/265 
s 2
f 204/168/266 203/167/267 205/169/268 206/170/269 
s 1
f 207/171/270 208/172/271 209/173/272 210/174/273 
s 2
f 208/172/274 211/175/275 212/176/276 209/173/277 
s 1
f 213/177/278 214/178/279 215/179/280 216/180/281 
s 2
f 214/178/282 217/181/283 218/182/284 215/179/285 
s 1
f 219/183/286 220/184/287 221/185/288 202/166/263 
s 2
f 220/184/289 222/186/290 223/187/291 221/185/292 
s 1
f 205/169/293 224/188/294 225/189/295 206/170/296 
f 224/188/294 226/190/297 227/191/298 225/189/295 
s 2
f 226/190/299 228/192/300 229/193/301 227/191/302 
s 1
f 211/175/303 230/194/304 231/195/305 212/176/306 
f 230/194/304 232/196/307 233/197/308 231/195/305 
s 2
f 232/196/309 234/198/310 235/199/311 233/197/312 
s 1
f 217/181/313 236/200/314 237/201/315 218/182/316 
f 236/200/314 238/202/317 239/203/318 237/201/315 
s 2
f 238/202/319 240/204/320 241/205/321 239/203/322 
s 1
f 222/186/323 242/206/324 243/207/325 223/187/326 
f 242/206/324 244/208/327 245/209/328 243/207/325 
s 2
f 244/208/329 246/210/330 247/211/331 245/209/332 
s 1
f 248/212/333 249/213/334 250/214/335 251/215/336 
f 252/216/337 248/212/333 251/215/336 253/217/338 
s 2
f 254/218/339 252/216/340 253/217/341 255/219/342 
s 1
f 256/220/343 257/221/344 258/222/345 259/223/346 
f 260/224/337 256/220/343 259/223/346 261/225/337 
s 2
f 262/226/347 260/224/348 261/225/349 263/227/350 
s 1
f 264/228/351 265/229/352 266/230/353 267/231/354 
f 268/232/337 264/228/351 267/231/354 269/233/337 
s 2
f 270/234/355 268/232/356 269/233/357 271/235/358 
f 272/236/359 273/237/359 265/229/359 264/228/359 
s 1
f 274/238/337 272/236/337 264/228/351 268/232/337 
s 4
f 275/239/360 274/238/360 268/232/360 270/234/360 
f 273/237/361 272/236/362 276/240/363 277/241/364 
s 1
f 272/236/337 274/238/337 278/242/337 276/240/337 
s 2
f 274/238/365 275/239/366 279/243/367 278/242/368 
f 280/244/369 281/245/369 277/241/369 276/240/369 
s 1
f 282/246/337 280/244/337 276/240/337 278/242/337 
s 4
f 283/247/370 282/246/370 278/242/370 279/243/370 
f 284/248/371 285/249/371 281/245/371 280/244/371 
s 1
f 286/250/337 284/248/337 280/244/337 282/246/337 
s 2
f 287/251/372 286/250/372 282/246/372 283/247/372 
f 288/252/373 289/253/373 285/249/373 284/248/373 
s 1
f 290/254/337 288/252/337 284/248/337 286/250/337 
s 4
f 291/255/374 290/254/374 286/250/374 287/251/374 
f 292/256/375 293/257/375 289/253/375 288/252/376 
s 1
f 294/258/337 292/256/337 288/252/337 290/254/337 
s 2
f 295/259/377 294/258/377 290/254/377 291/255/377 
s 8
f 292/256/378 294/258/378 296/260/157 293/257/378 
s 1
f 297/261/379 203/167/264 298/262/380 299/263/381 
s 2
f 299/263/382 298/262/383 300/264/384 301/265/385 
s 1
f 202/166/263 221/185/288 298/262/380 203/167/264 
s 2
f 221/185/292 223/187/291 300/264/384 298/262/383 
s 1
f 134/219/165 255/219/167 247/211/166 135/211/166 
s 4
f 136/214/168 250/214/170 249/213/169 137/213/169 
s 1
f 138/218/171 254/218/171 255/219/167 134/219/165 
s 4
f 139/222/172 258/222/175 257/221/174 140/221/173 
f 141/230/176 266/230/176 265/229/178 142/229/177 
s 1
f 143/234/179 270/234/179 271/235/180 144/235/180 
f 145/237/181 273/237/181 277/241/181 146/241/181 
f 147/243/182 279/243/182 275/239/182 148/239/182 
s 8
f 146/241/183 277/241/183 281/245/183 149/245/183 
s 1
f 150/251/184 287/251/185 283/247/184 151/247/184 
s 8
f 152/255/186 291/255/186 287/251/186 150/251/186 
s 1
f 153/259/187 295/259/188 291/255/187 152/255/187 
f 251/215/336 250/214/335 223/187/326 243/207/325 
f 253/217/338 251/215/336 243/207/325 245/209/328 
s 2
f 255/219/342 253/217/341 245/209/332 247/211/331 
s 1
f 302/266/386 303/267/387 208/172/271 207/171/270 
s 2
f 303/267/388 304/268/389 211/175/275 208/172/274 
s 1
f 305/269/390 306/270/391 214/178/279 213/177/278 
s 2
f 306/270/392 307/271/393 217/181/283 214/178/282 
s 1
f 304/268/394 308/272/395 230/194/304 211/175/303 
f 308/272/395 309/273/396 232/196/307 230/194/304 
s 2
f 309/273/397 310/274/398 234/198/310 232/196/309 
s 1
f 307/271/399 311/275/400 236/200/314 217/181/313 
f 311/275/400 312/276/401 238/202/317 236/200/314 
s 2
f 312/276/402 313/277/403 240/204/320 238/202/319 
s 1
f 297/261/379 224/188/294 205/169/293 203/167/264 
f 297/261/379 299/263/381 226/190/297 224/188/294 
s 2
f 299/263/382 301/265/385 228/192/300 226/190/299 
s 8
f 166/260/157 296/260/157 294/258/378 153/259/157 
f 295/259/157 153/259/157 294/258/378 
s 4
f 223/187/404 250/214/170 136/214/168 167/187/207 
s 1
f 302/266/386 201/165/262 204/168/265 303/267/387 
s 2
f 303/267/388 204/168/266 206/170/269 304/268/389 
s 1
f 304/268/394 206/170/296 225/189/295 308/272/395 
f 308/272/395 225/189/295 227/191/298 309/273/396 
s 2
f 309/273/397 227/191/302 229/193/301 310/274/398 
s 1
f 305/269/390 210/174/273 209/173/272 306/270/391 
s 2
f 306/270/392 209/173/277 212/176/276 307/271/393 
s 1
f 307/271/399 212/176/306 231/195/305 311/275/400 
f 311/275/400 231/195/305 233/197/308 312/276/401 
s 2
f 312/276/402 233/197/312 235/199/311 313/277/403 
s 1
f 219/183/286 216/180/281 215/179/280 220/184/287 
s 2
f 220/184/289 215/179/285 218/182/284 222/186/290 
s 1
f 222/186/323 218/182/316 237/201/315 242/206/324 
f 242/206/324 237/201/315 239/203/318 244/208/327 
s 2
f 244/208/329 239/203/322 241/205/321 246/210/330 
s 1
f 201/165/262 314/278/405 202/166/263 
f 210/174/273 314/278/405 207/171/270 
f 216/180/281 314/278/405 213/177/278 
f 202/166/263 314/278/405 219/183/286 
f 207/171/270 314/278/405 302/266/386 
f 213/177/278 314/278/405 305/269/390 
f 302/266/386 314/278/405 201/165/262 
f 305/269/390 314/278/405 210/174/273 
f 219/183/286 314/278/405 216/180/281 
s 8
f 296/260/157 166/260/157 169/257/209 293/257/378 
s 1
f 249/213/334 248/212/333 259/223/346 258/222/345 
f 248/212/333 252/216/337 261/225/337 259/223/346 
s 2
f 252/216/340 254/218/339 263/227/350 261/225/349 
s 1
f 257/221/344 256/220/343 267/231/354 266/230/353 
f 256/220/343 260/224/337 269/233/337 267/231/354 
s 2
f 260/224/348 262/226/347 271/235/358 269/233/357 
s 4
f 249/213/169 258/222/175 139/222/172 137/213/169 
f 257/221/174 266/230/176 141/230/176 140/221/173 
s 1
f 29/149/37 32/143/37 186/143/37 190/149/37 
f 263/227/210 171/227/210 170/226/211 262/226/211 
s 8
f 273/237/212 145/237/212 142/229/212 265/229/212 
f 270/234/213 143/234/213 148/239/213 275/239/213 
f 279/243/214 147/243/214 151/247/214 283/247/214 
s 1
f 285/249/215 172/249/215 149/245/215 281/245/215 
s 8
f 289/253/216 173/253/216 172/249/216 285/249/216 
s 1
f 293/257/217 169/257/217 173/253/217 289/253/218 
s 8
f 223/187/222 167/187/222 174/264/221 300/264/220 
f 300/264/220 174/264/221 175/265/224 301/265/223 
f 301/265/223 175/265/224 176/192/226 228/192/225 
f 228/192/225 176/192/226 177/193/228 229/193/227 
f 229/193/227 177/193/228 178/274/229 310/274/229 
s 1
f 310/274/230 178/274/230 179/198/231 234/198/231 
f 234/198/231 179/198/231 180/199/233 235/199/232 
f 235/199/232 180/199/233 181/277/234 313/277/234 
s 4
f 313/277/235 181/277/235 182/204/235 240/204/235 
s 1
f 240/204/236 182/204/236 183/205/238 241/205/237 
f 241/205/237 183/205/238 184/210/240 246/210/239 
f 246/210/239 184/210/240 135/211/166 247/211/166 
f 262/226/211 170/226/211 144/235/180 271/235/180 
f 254/218/171 138/218/171 171/227/210 263/227/210 
# 292 polygons - 28 triangles

