# 3ds Max Wavefront OBJ Exporter v0.97b - (c)2007 guruware
# File Created: 08.05.2016 20:05:10

#
# object Tomahawk_01
#

v  6.2280 -2.3610 10.2677
v  7.1691 0.0000 9.3552
v  5.8405 0.0000 13.3553
v  4.9039 -2.3610 13.2650
v  1.8808 -2.6457 6.0509
v  3.9355 0.0000 5.9368
v  -2.1792 -2.3610 11.0040
v  -3.4426 0.0000 10.3920
v  -4.2834 0.0000 6.3932
v  -2.2287 -2.6457 6.2791
v  -1.1399 -2.3610 13.3100
v  -2.0805 0.0000 13.4142
v  0.5183 -2.3610 14.7118
v  0.0927 0.0000 15.2514
v  3.0002 -2.3610 15.2881
v  3.3455 0.0000 16.0068
v  4.2214 -3.0550 9.7987
v  4.2260 -3.0550 11.6658
v  3.2498 -3.0550 10.9634
v  3.0345 -3.0550 9.9922
v  2.8980 -3.0550 8.4816
v  2.1956 -3.0550 9.4578
v  1.0309 -3.0550 8.4861
v  1.2245 -3.0550 9.6731
v  -0.2862 -3.0550 9.8096
v  0.6900 -3.0550 10.5120
v  -0.2816 -3.0550 11.6767
v  0.9053 -3.0550 11.4831
v  1.0418 -3.0550 12.9938
v  1.7442 -3.0550 12.0176
v  2.9089 -3.0550 12.9892
v  2.7153 -3.0550 11.8023
v  11.7885 0.0000 -49.7428
v  10.1052 -2.6457 -49.5793
v  9.8833 -2.2194 -50.8338
v  11.2996 0.0000 -50.9702
v  6.7393 -2.6457 -49.2521
v  7.0508 -2.2194 -50.5610
v  5.0568 0.0000 -49.0885
v  5.6346 0.0000 -50.4246
v  9.1900 0.0000 -16.0385
v  3.9177 0.0000 -6.1934
v  1.9896 -2.6457 -6.5543
v  7.6339 -2.6457 -16.5113
v  -1.8733 -2.6457 -7.2757
v  4.5282 -2.6457 -17.4572
v  -3.8079 0.0000 -7.6364
v  2.9785 0.0000 -17.9302
v  3.1057 0.0000 -2.0639
v  1.1044 -2.6457 -2.4477
v  -2.8916 -2.6457 -3.2168
v  -4.8868 0.0000 -3.6018
v  1.7442 0.0000 12.0176
v  2.7153 0.0000 11.8023
v  0.9053 0.0000 11.4831
v  0.6900 0.0000 10.5120
v  1.2245 0.0000 9.6731
v  2.1956 0.0000 9.4578
v  3.0345 0.0000 9.9922
v  3.2498 0.0000 10.9634
v  10.3370 0.0000 -20.1771
v  8.8171 -2.6457 -20.6248
v  5.7761 -2.6457 -21.5202
v  4.2549 0.0000 -21.9678
v  9.5401 -1.6500 -51.9229
v  10.5936 0.0000 -52.0243
v  7.4331 -1.6500 -51.7203
v  6.3796 0.0000 -51.6190
v  8.9274 -0.6483 -52.3851
v  9.3413 0.0000 -52.4249
v  8.0995 -0.6483 -52.3055
v  7.6855 0.0000 -52.2656
v  8.5161 0.0000 -52.4727
v  24.6581 0.0000 -52.5345
v  21.6675 -1.1798 -50.7545
v  17.5788 -1.1798 -54.8596
v  19.5106 0.0000 -58.1235
v  26.1066 0.0000 -45.5230
v  22.9093 -1.1798 -45.3374
v  25.7017 0.0000 -37.4071
v  22.6153 -1.1798 -39.2306
v  23.2965 0.0000 -31.1629
v  20.7628 -1.1798 -34.4257
v  18.8582 0.0000 -25.0681
v  17.3898 -1.1798 -30.5567
v  14.1050 0.0000 -23.1537
v  14.1931 -1.1798 -29.1410
v  15.7910 -2.0072 -51.5661
v  18.0634 -2.0143 -48.7631
v  13.9331 -2.2507 -47.0546
v  15.2992 -2.0201 -37.0648
v  12.0772 -2.2507 -45.4951
v  17.5689 -2.0154 -38.5497
v  13.2422 -2.1807 -35.9482
v  11.6448 -2.2507 -37.8467
v  8.0563 -3.4775 -38.3265
v  8.3224 -3.4775 -44.2896
v  19.0001 -2.0165 -45.3526
v  18.8193 -2.0165 -41.3513
v  13.8122 0.0000 -28.2273
v  15.7910 0.0000 -51.5661
v  13.9331 0.0000 -47.0546
v  12.2586 0.0000 -46.5238
v  8.5233 -2.6603 -45.4291
v  11.3213 0.0000 -47.7451
v  5.3659 -2.2507 -42.5653
v  5.2995 -2.2507 -38.6287
v  4.3536 0.0000 -38.7955
v  4.4199 0.0000 -42.7321
v  7.6690 -2.6603 -36.1302
v  5.0192 0.0000 -36.4045
v  13.2421 0.0000 -35.9442
v  11.3656 0.0000 -36.2634
v  17.5788 0.0000 -54.8596
v  5.1428 0.0000 -45.1699
v  10.2235 0.0000 -35.3106
v  6.2280 2.3610 10.2677
v  4.9039 2.3610 13.2650
v  1.8808 2.6457 6.0509
v  -2.1792 2.3610 11.0040
v  -2.2287 2.6457 6.2791
v  -1.1399 2.3610 13.3100
v  0.5183 2.3610 14.7118
v  3.0002 2.3610 15.2881
v  4.2214 3.0550 9.7987
v  3.0345 3.0550 9.9922
v  3.2498 3.0550 10.9634
v  4.2260 3.0550 11.6658
v  2.8980 3.0550 8.4816
v  2.1956 3.0550 9.4578
v  1.0309 3.0550 8.4861
v  1.2245 3.0550 9.6731
v  -0.2862 3.0550 9.8096
v  0.6900 3.0550 10.5120
v  -0.2816 3.0550 11.6767
v  0.9053 3.0550 11.4831
v  1.0418 3.0550 12.9938
v  1.7442 3.0550 12.0176
v  2.9089 3.0550 12.9892
v  2.7153 3.0550 11.8023
v  9.8833 2.2194 -50.8338
v  10.1052 2.6457 -49.5793
v  7.0508 2.2194 -50.5610
v  6.7393 2.6457 -49.2521
v  7.6339 2.6457 -16.5113
v  1.9896 2.6457 -6.5543
v  4.5282 2.6457 -17.4572
v  -1.8733 2.6457 -7.2757
v  1.1044 2.6457 -2.4477
v  -2.8916 2.6457 -3.2168
v  8.8171 2.6457 -20.6248
v  5.7761 2.6457 -21.5202
v  9.5401 1.6500 -51.9229
v  7.4331 1.6500 -51.7203
v  8.9274 0.6483 -52.3851
v  8.0995 0.6483 -52.3055
v  17.5788 1.1798 -54.8596
v  21.6675 1.1798 -50.7545
v  22.9093 1.1798 -45.3374
v  22.6153 1.1798 -39.2306
v  20.7628 1.1798 -34.4257
v  17.3898 1.1798 -30.5567
v  14.1931 1.1798 -29.1410
v  15.7910 2.0072 -51.5661
v  13.9331 2.2507 -47.0546
v  18.0634 2.0143 -48.7631
v  15.2992 2.0201 -37.0648
v  17.5689 2.0154 -38.5497
v  12.0772 2.2507 -45.4951
v  11.6448 2.2507 -37.8467
v  13.2422 2.1807 -35.9482
v  8.3224 3.4775 -44.2896
v  8.0563 3.4775 -38.3265
v  19.0001 2.0165 -45.3526
v  18.8193 2.0165 -41.3513
v  8.5233 2.6603 -45.4291
v  5.3659 2.2507 -42.5653
v  5.2995 2.2507 -38.6287
v  7.6690 2.6603 -36.1302
# 179 vertices

vn 0.9433 -0.2853 0.1698
vn 0.9893 0.0000 0.1456
vn 0.9318 0.0000 0.3631
vn 0.8582 -0.3286 0.3944
vn 0.3127 -0.9110 -0.2688
vn 0.7892 0.0000 -0.6141
vn 0.5865 -0.0000 -0.8099
vn 0.4688 -0.7816 -0.4115
vn -0.6043 -0.7343 0.3092
vn -0.8934 0.0000 0.4493
vn -0.9655 0.0000 0.2605
vn -0.4424 -0.8916 0.0963
vn -0.4991 -0.6647 0.5560
vn -0.6999 -0.0000 0.7143
vn -0.2135 -0.6431 0.7354
vn -0.2940 -0.0000 0.9558
vn 0.0591 -0.7276 0.6834
vn -0.0536 0.0000 0.9986
vn 0.8362 0.0000 0.5484
vn 0.7975 -0.3005 0.5231
vn 0.1986 -0.9649 -0.1720
vn 0.2452 -0.9671 0.0673
vn 0.0000 -1.0000 -0.0000
vn 0.0885 -0.9817 -0.1686
vn -0.0657 -0.9953 -0.0705
vn -0.4018 -0.8928 -0.2036
vn -0.3121 -0.9427 0.1180
vn -0.0715 -0.9757 0.2072
vn 0.1345 -0.9785 0.1562
vn 0.3706 -0.9096 0.1879
vn 0.9436 0.0000 -0.3311
vn 0.4351 -0.8669 -0.2432
vn 0.3806 -0.8188 -0.4299
vn 0.8507 0.0000 -0.5257
vn -0.5078 -0.8559 -0.0977
vn -0.4944 -0.8196 -0.2895
vn -0.9997 0.0000 -0.0259
vn -0.9726 0.0000 -0.2325
vn 0.9775 0.0000 0.2111
vn 0.9832 -0.0000 0.1823
vn 0.4129 -0.9080 0.0715
vn 0.5040 -0.8560 0.1152
vn -0.4735 -0.8726 -0.1197
vn -0.4405 -0.8902 -0.1162
vn -0.9744 0.0000 -0.2248
vn -0.9625 -0.0000 -0.2713
vn 0.9912 0.0000 -0.1324
vn 0.4068 -0.9124 -0.0457
vn -0.4747 -0.8791 0.0424
vn -0.9973 -0.0000 0.0730
vn 0.0000 0.0000 -1.0000
vn 0.0000 -0.0000 -1.0000
vn -0.7071 0.0000 -0.7071
vn 0.7071 0.0000 -0.7071
vn 0.7071 -0.0000 -0.7071
vn 1.0000 0.0000 -0.0000
vn 1.0000 -0.0000 -0.0000
vn 0.7071 -0.0000 0.7071
vn 0.7071 0.0000 0.7071
vn 0.0000 -0.0000 1.0000
vn -0.7071 -0.0000 0.7071
vn -0.7071 0.0000 0.7071
vn -1.0000 0.0000 -0.0000
vn -1.0000 0.0000 0.0000
vn 1.0000 -0.0000 -0.0076
vn 0.5210 -0.8535 -0.0078
vn -0.4607 -0.8876 0.0004
vn -1.0000 0.0000 0.0097
vn 0.6283 -0.4915 -0.6031
vn -0.1213 -0.8909 -0.4376
vn -0.8265 -0.4536 -0.3334
vn 0.1306 -0.2453 -0.9606
vn -0.2372 -0.4598 -0.8558
vn -0.5778 -0.2226 -0.7853
vn -0.1158 -0.0978 -0.9884
vn -0.2622 -0.1917 -0.9458
vn -0.4049 -0.0945 -0.9095
vn 0.7857 0.0000 -0.6186
vn 0.2162 -0.9617 -0.1683
vn 0.1638 -0.9607 -0.2240
vn 0.6068 0.0000 -0.7949
vn 0.9672 0.0000 -0.2541
vn 0.2735 -0.9590 -0.0745
vn 0.9981 0.0000 0.0616
vn 0.2696 -0.9630 0.0057
vn 0.9290 0.0000 0.3701
vn 0.2203 -0.9720 0.0819
vn 0.7078 0.0000 0.7064
vn 0.1449 -0.9820 0.1208
vn 0.5290 0.0000 0.8486
vn 0.1035 -0.9840 0.1451
vn 0.0966 -0.9872 -0.1268
vn 0.1102 -0.9905 -0.0818
vn 0.0338 -0.9994 -0.0080
vn 0.0843 -0.9952 0.0494
vn 0.1278 -0.9918 -0.0044
vn 0.0986 -0.9939 0.0497
vn 0.1154 -0.9927 0.0356
vn 0.1619 -0.9865 -0.0242
vn -0.0237 -0.9997 0.0064
vn 0.0721 -0.9974 -0.0076
vn 0.1319 -0.9905 -0.0398
vn 0.1272 -0.9919 0.0044
vn -0.9732 0.0000 0.2301
vn -0.9720 0.0000 0.2349
vn -0.9184 -0.3175 0.2359
vn -0.9767 0.0000 -0.2144
vn -0.8527 -0.0940 -0.5139
vn -0.7944 0.0000 -0.6073
vn -0.7346 -0.2857 -0.6155
vn -0.6256 0.0000 -0.7801
vn -0.4446 -0.7105 -0.5454
vn -0.2795 -0.7044 -0.6525
vn 0.0655 0.0000 -0.9979
vn 0.0421 -0.6674 -0.7435
vn 0.6755 0.0000 -0.7373
vn -0.9101 -0.3884 0.1447
vn -0.9876 -0.0000 0.1570
vn -0.9876 0.0000 0.1570
vn -0.0905 -0.8941 0.4386
vn -0.1122 -0.6967 0.7085
vn -0.5899 -0.0000 0.8074
vn -0.4699 -0.6109 0.6372
vn -0.9022 0.0000 0.4314
vn -0.9535 -0.0000 0.3016
vn -0.9513 -0.0003 0.3083
vn -0.3818 -0.2977 0.8750
vn -0.6417 -0.0012 0.7669
vn -0.3478 0.0000 0.9376
vn 0.0060 0.0000 1.0000
vn -0.9484 0.0000 -0.3172
vn -0.4010 -0.9139 0.0638
vn -0.3926 -0.9181 0.0547
vn -0.9146 -0.0000 -0.4043
vn -0.9104 0.0000 -0.4137
vn -0.7552 -0.3709 -0.5405
vn 0.6654 0.0000 0.7465
vn 0.5386 -0.0000 0.8426
vn 0.4718 -0.6398 0.6067
vn -0.9359 0.0000 -0.3522
vn 0.9433 0.2853 0.1698
vn 0.8582 0.3286 0.3944
vn 0.3127 0.9110 -0.2688
vn 0.4688 0.7816 -0.4115
vn -0.6043 0.7343 0.3092
vn -0.4424 0.8916 0.0963
vn -0.4991 0.6647 0.5560
vn -0.2135 0.6431 0.7354
vn 0.0591 0.7276 0.6834
vn 0.7975 0.3005 0.5231
vn 0.1986 0.9649 -0.1720
vn 0.0000 1.0000 -0.0000
vn 0.2452 0.9671 0.0673
vn 0.0885 0.9817 -0.1686
vn -0.0657 0.9953 -0.0705
vn -0.4018 0.8928 -0.2036
vn -0.3121 0.9427 0.1180
vn -0.0715 0.9757 0.2072
vn 0.1345 0.9785 0.1562
vn 0.3706 0.9096 0.1879
vn 0.3806 0.8188 -0.4299
vn 0.4351 0.8669 -0.2432
vn -0.4944 0.8196 -0.2895
vn -0.5078 0.8559 -0.0977
vn 0.5040 0.8560 0.1152
vn 0.4129 0.9080 0.0715
vn -0.4405 0.8902 -0.1162
vn -0.4735 0.8726 -0.1197
vn 0.4068 0.9124 -0.0457
vn -0.4747 0.8791 0.0424
vn -0.7071 -0.0000 -0.7071
vn 0.0000 0.0000 1.0000
vn -1.0000 -0.0000 -0.0000
vn 0.5210 0.8535 -0.0078
vn -0.4607 0.8876 0.0004
vn 0.6283 0.4915 -0.6031
vn -0.1213 0.8909 -0.4376
vn -0.8265 0.4536 -0.3334
vn 0.1306 0.2453 -0.9606
vn -0.2372 0.4598 -0.8558
vn -0.5778 0.2226 -0.7853
vn -0.1158 0.0978 -0.9884
vn -0.2622 0.1917 -0.9458
vn -0.4049 0.0945 -0.9095
vn 0.1638 0.9607 -0.2240
vn 0.2162 0.9617 -0.1683
vn 0.2735 0.9590 -0.0745
vn 0.2696 0.9630 0.0057
vn 0.2203 0.9720 0.0819
vn 0.1449 0.9820 0.1208
vn 0.1035 0.9840 0.1451
vn 0.0966 0.9872 -0.1268
vn 0.0338 0.9994 -0.0080
vn 0.1102 0.9905 -0.0818
vn 0.0843 0.9952 0.0494
vn 0.0986 0.9939 0.0497
vn 0.1278 0.9918 -0.0044
vn 0.1619 0.9865 -0.0242
vn 0.1154 0.9927 0.0356
vn 0.0721 0.9974 -0.0076
vn -0.0237 0.9997 0.0064
vn 0.1319 0.9905 -0.0398
vn 0.1272 0.9919 0.0044
vn -0.9184 0.3175 0.2359
vn -0.8527 0.0940 -0.5139
vn -0.7346 0.2857 -0.6155
vn -0.2795 0.7044 -0.6525
vn -0.4446 0.7105 -0.5454
vn 0.0421 0.6674 -0.7435
vn -0.9101 0.3884 0.1447
vn -0.1122 0.6967 0.7085
vn -0.0905 0.8941 0.4386
vn -0.4699 0.6109 0.6372
vn -0.9513 0.0003 0.3083
vn -0.3818 0.2977 0.8750
vn -0.6417 0.0012 0.7669
vn -0.3926 0.9181 0.0547
vn -0.4010 0.9139 0.0638
vn -0.7552 0.3709 -0.5405
vn 0.4718 0.6398 0.6067
# 220 vertex normals

vt 0.8540 0.8743 0.0000
vt 0.8348 0.8677 0.0000
vt 0.8786 0.9143 0.0000
vt 0.8912 0.9068 0.0000
vt 0.8865 0.7891 0.0000
vt 0.8577 0.8006 0.0000
vt 0.9735 0.8309 0.0000
vt 0.9873 0.8140 0.0000
vt 0.9729 0.7545 0.0000
vt 0.9441 0.7660 0.0000
vt 0.9740 0.8690 0.0000
vt 0.9879 0.8643 0.0000
vt 0.9603 0.8987 0.0000
vt 0.9698 0.9035 0.0000
vt 0.9301 0.9223 0.0000
vt 0.9299 0.9347 0.0000
vt 0.8784 0.8552 0.0000
vt 0.8903 0.8807 0.0000
vt 0.8991 0.8649 0.0000
vt 0.8959 0.8502 0.0000
vt 0.8881 0.8287 0.0000
vt 0.9039 0.8376 0.0000
vt 0.9136 0.8169 0.0000
vt 0.9186 0.8344 0.0000
vt 0.9401 0.8266 0.0000
vt 0.9312 0.8424 0.0000
vt 0.9519 0.8521 0.0000
vt 0.9344 0.8570 0.0000
vt 0.9422 0.8785 0.0000
vt 0.9264 0.8697 0.0000
vt 0.9167 0.8904 0.0000
vt 0.9118 0.8729 0.0000
vt 0.3959 0.0902 0.0000
vt 0.4200 0.0818 0.0000
vt 0.4150 0.0632 0.0000
vt 0.3948 0.0704 0.0000
vt 0.4680 0.0648 0.0000
vt 0.4554 0.0489 0.0000
vt 0.4920 0.0563 0.0000
vt 0.4756 0.0417 0.0000
vt 0.6461 0.5340 0.0000
vt 0.7807 0.6348 0.0000
vt 0.8048 0.6176 0.0000
vt 0.6643 0.5176 0.0000
vt 0.8529 0.5832 0.0000
vt 0.7007 0.4849 0.0000
vt 0.8771 0.5659 0.0000
vt 0.7188 0.4686 0.0000
vt 0.8181 0.6861 0.0000
vt 0.8430 0.6681 0.0000
vt 0.8927 0.6321 0.0000
vt 0.9175 0.6142 0.0000
vt 0.9198 0.8609 0.0000
vt 0.9133 0.8621 0.0000
vt 0.9236 0.8555 0.0000
vt 0.9224 0.8490 0.0000
vt 0.9170 0.8452 0.0000
vt 0.9105 0.8464 0.0000
vt 0.9067 0.8518 0.0000
vt 0.9079 0.8583 0.0000
vt 0.6040 0.4848 0.0000
vt 0.6219 0.4690 0.0000
vt 0.6578 0.4374 0.0000
vt 0.6757 0.4216 0.0000
vt 0.4128 0.0462 0.0000
vt 0.3977 0.0515 0.0000
vt 0.4428 0.0355 0.0000
vt 0.4579 0.0302 0.0000
vt 0.4182 0.0359 0.0000
vt 0.4123 0.0380 0.0000
vt 0.4300 0.0318 0.0000
vt 0.4359 0.0297 0.0000
vt 0.4232 0.0321 0.0000
vt 0.2024 0.1341 0.0000
vt 0.2546 0.1393 0.0000
vt 0.2843 0.0572 0.0000
vt 0.2371 0.0250 0.0000
vt 0.2273 0.2390 0.0000
vt 0.2721 0.2212 0.0000
vt 0.2845 0.3473 0.0000
vt 0.3150 0.3027 0.0000
vt 0.3571 0.4173 0.0000
vt 0.3709 0.3566 0.0000
vt 0.4565 0.4722 0.0000
vt 0.4416 0.3879 0.0000
vt 0.5336 0.4681 0.0000
vt 0.4943 0.3869 0.0000
vt 0.3297 0.0908 0.0000
vt 0.3165 0.1436 0.0000
vt 0.3838 0.1406 0.0000
vt 0.4287 0.2857 0.0000
vt 0.4190 0.1501 0.0000
vt 0.3883 0.2799 0.0000
vt 0.4639 0.2879 0.0000
vt 0.4737 0.2518 0.0000
vt 0.5196 0.2224 0.0000
vt 0.4780 0.1426 0.0000
vt 0.3254 0.1961 0.0000
vt 0.3534 0.2496 0.0000
vt 0.5053 0.3969 0.0000
vt 0.4100 0.1372 0.0000
vt 0.4680 0.1284 0.0000
vt 0.4150 0.1146 0.0000
vt 0.5294 0.1474 0.0000
vt 0.5553 0.2007 0.0000
vt 0.5672 0.1924 0.0000
vt 0.5412 0.1391 0.0000
vt 0.5389 0.2499 0.0000
vt 0.5733 0.2293 0.0000
vt 0.4640 0.2879 0.0000
vt 0.4876 0.2716 0.0000
vt 0.5158 0.1104 0.0000
vt 0.5092 0.2774 0.0000
vt 0.1491 0.1293 0.0000
vt 0.1119 0.0968 0.0000
vt 0.1245 0.0894 0.0000
vt 0.1683 0.1360 0.0000
vt 0.1166 0.2146 0.0000
vt 0.1454 0.2031 0.0000
vt 0.0296 0.1728 0.0000
vt 0.0590 0.2376 0.0000
vt 0.0302 0.2492 0.0000
vt 0.0158 0.1897 0.0000
vt 0.0291 0.1347 0.0000
vt 0.0152 0.1394 0.0000
vt 0.0428 0.1050 0.0000
vt 0.0333 0.1002 0.0000
vt 0.0730 0.0813 0.0000
vt 0.0732 0.0689 0.0000
vt 0.1247 0.1485 0.0000
vt 0.1072 0.1534 0.0000
vt 0.1040 0.1388 0.0000
vt 0.1128 0.1230 0.0000
vt 0.1150 0.1749 0.0000
vt 0.0992 0.1661 0.0000
vt 0.0895 0.1867 0.0000
vt 0.0845 0.1693 0.0000
vt 0.0630 0.1771 0.0000
vt 0.0719 0.1612 0.0000
vt 0.0512 0.1515 0.0000
vt 0.0687 0.1466 0.0000
vt 0.0609 0.1251 0.0000
vt 0.0767 0.1340 0.0000
vt 0.0864 0.1133 0.0000
vt 0.0913 0.1307 0.0000
vt 0.6072 0.9134 0.0000
vt 0.6083 0.9333 0.0000
vt 0.5881 0.9404 0.0000
vt 0.5831 0.9219 0.0000
vt 0.5477 0.9548 0.0000
vt 0.5351 0.9389 0.0000
vt 0.5275 0.9619 0.0000
vt 0.5111 0.9473 0.0000
vt 0.3571 0.4697 0.0000
vt 0.3388 0.4861 0.0000
vt 0.1983 0.3860 0.0000
vt 0.2224 0.3688 0.0000
vt 0.3024 0.5188 0.0000
vt 0.1502 0.4205 0.0000
vt 0.2843 0.5351 0.0000
vt 0.1261 0.4377 0.0000
vt 0.1850 0.3176 0.0000
vt 0.1601 0.3356 0.0000
vt 0.1104 0.3715 0.0000
vt 0.0856 0.3895 0.0000
vt 0.0885 0.1422 0.0000
vt 0.0828 0.1441 0.0000
vt 0.0801 0.1494 0.0000
vt 0.0820 0.1551 0.0000
vt 0.0874 0.1579 0.0000
vt 0.0931 0.1560 0.0000
vt 0.0958 0.1506 0.0000
vt 0.0939 0.1449 0.0000
vt 0.3991 0.5189 0.0000
vt 0.3812 0.5347 0.0000
vt 0.3453 0.5663 0.0000
vt 0.3274 0.5821 0.0000
vt 0.6054 0.9522 0.0000
vt 0.5903 0.9575 0.0000
vt 0.5603 0.9682 0.0000
vt 0.5452 0.9735 0.0000
vt 0.5908 0.9656 0.0000
vt 0.5849 0.9677 0.0000
vt 0.5731 0.9719 0.0000
vt 0.5672 0.9740 0.0000
vt 0.5799 0.9715 0.0000
vt 0.8007 0.8696 0.0000
vt 0.7660 0.9787 0.0000
vt 0.7188 0.9464 0.0000
vt 0.7485 0.8643 0.0000
vt 0.7758 0.7646 0.0000
vt 0.7310 0.7824 0.0000
vt 0.6881 0.7009 0.0000
vt 0.7186 0.6564 0.0000
vt 0.6322 0.6471 0.0000
vt 0.6460 0.5864 0.0000
vt 0.5615 0.6157 0.0000
vt 0.5466 0.5314 0.0000
vt 0.5088 0.6168 0.0000
vt 0.4695 0.5356 0.0000
vt 0.6734 0.9128 0.0000
vt 0.6193 0.8630 0.0000
vt 0.6866 0.8601 0.0000
vt 0.5744 0.7179 0.0000
vt 0.6148 0.7238 0.0000
vt 0.5841 0.8536 0.0000
vt 0.5294 0.7519 0.0000
vt 0.5392 0.7158 0.0000
vt 0.5251 0.8610 0.0000
vt 0.4835 0.7813 0.0000
vt 0.6777 0.8075 0.0000
vt 0.6497 0.7540 0.0000
vt 0.4978 0.6067 0.0000
vt 0.5931 0.8665 0.0000
vt 0.5881 0.8891 0.0000
vt 0.5351 0.8753 0.0000
vt 0.4738 0.8563 0.0000
vt 0.4619 0.8646 0.0000
vt 0.4359 0.8113 0.0000
vt 0.4478 0.8030 0.0000
vt 0.4298 0.7744 0.0000
vt 0.4642 0.7538 0.0000
vt 0.5391 0.7157 0.0000
vt 0.5156 0.7320 0.0000
vt 0.4873 0.8933 0.0000
vt 0.4939 0.7263 0.0000
# 226 texture coords

g Tomahawk_01
s 1
f 1/1/1 2/2/2 3/3/3 4/4/4 
s 2
f 5/5/5 6/6/6 2/2/7 1/1/8 
f 7/7/9 8/8/10 9/9/11 10/10/12 
f 11/11/13 12/12/14 8/8/10 7/7/9 
f 13/13/15 14/14/16 12/12/14 11/11/13 
f 15/15/17 16/16/18 14/14/16 13/13/15 
s 1
f 4/4/4 3/3/3 16/16/19 15/15/20 
s 2
f 17/17/21 18/18/22 19/19/23 20/20/23 
f 21/21/24 17/17/21 20/20/23 22/22/23 
f 23/23/25 21/21/24 22/22/23 24/24/23 
f 25/25/26 23/23/25 24/24/23 26/26/23 
f 27/27/27 25/25/26 26/26/23 28/28/23 
f 29/29/28 27/27/27 28/28/23 30/30/23 
f 31/31/29 29/29/28 30/30/23 32/32/23 
f 18/18/22 31/31/29 32/32/23 19/19/23 
f 18/18/22 17/17/21 1/1/8 4/4/30 
f 17/17/21 21/21/24 5/5/5 1/1/8 
f 21/21/24 23/23/25 10/10/12 5/5/5 
f 23/23/25 25/25/26 7/7/9 10/10/12 
f 25/25/26 27/27/27 11/11/13 7/7/9 
f 27/27/27 29/29/28 13/13/15 11/11/13 
f 29/29/28 31/31/29 15/15/17 13/13/15 
f 31/31/29 18/18/22 4/4/30 15/15/17 
f 33/33/31 34/34/32 35/35/33 36/36/34 
f 34/34/32 37/37/35 38/38/36 35/35/33 
f 37/37/35 39/39/37 40/40/38 38/38/36 
f 41/41/39 42/42/40 43/43/41 44/44/42 
f 44/44/42 43/43/41 45/45/43 46/46/44 
f 46/46/44 45/45/43 47/47/45 48/48/46 
f 49/49/47 6/6/6 5/5/5 50/50/48 
f 50/50/48 5/5/5 10/10/12 51/51/49 
f 51/51/49 10/10/12 9/9/11 52/52/50 
s 1
f 30/30/51 53/53/52 54/54/53 32/32/53 
f 28/28/54 55/55/55 53/53/52 30/30/51 
f 26/26/56 56/56/57 55/55/55 28/28/54 
f 24/24/58 57/57/59 56/56/57 26/26/56 
f 22/22/60 58/58/60 57/57/59 24/24/58 
f 20/20/61 59/59/62 58/58/60 22/22/60 
f 19/19/63 60/60/64 59/59/62 20/20/61 
f 32/32/53 54/54/53 60/60/64 19/19/63 
s 2
f 61/61/65 41/41/39 44/44/42 62/62/66 
f 62/62/66 44/44/42 46/46/44 63/63/67 
f 63/63/67 46/46/44 48/48/46 64/64/68 
f 42/42/40 49/49/47 50/50/48 43/43/41 
f 43/43/41 50/50/48 51/51/49 45/45/43 
f 45/45/43 51/51/49 52/52/50 47/47/45 
s off
f 36/36/69 35/35/69 65/65/69 66/66/69 
f 35/35/70 38/38/70 67/67/70 65/65/70 
f 38/38/71 40/40/71 68/68/71 67/67/71 
f 66/66/72 65/65/72 69/69/72 70/70/72 
f 65/65/73 67/67/73 71/71/73 69/69/73 
f 67/67/74 68/68/74 72/72/74 71/71/74 
f 70/70/75 69/69/75 73/73/75 
f 69/69/76 71/71/76 73/73/76 
f 71/71/77 72/72/77 73/73/77 
s 2
f 33/33/31 61/61/65 62/62/66 34/34/32 
f 34/34/32 62/62/66 63/63/67 37/37/35 
f 37/37/35 63/63/67 64/64/68 39/39/37 
s 1
f 74/74/78 75/75/79 76/76/80 77/77/81 
f 78/78/82 79/79/83 75/75/79 74/74/78 
f 78/78/82 80/80/84 81/81/85 79/79/83 
f 80/80/84 82/82/86 83/83/87 81/81/85 
f 82/82/86 84/84/88 85/85/89 83/83/87 
f 84/84/88 86/86/90 87/87/91 85/85/89 
f 88/88/92 89/89/93 90/90/94 
f 91/91/95 92/92/96 90/90/94 93/93/97 
f 91/91/95 94/94/98 95/95/99 92/92/96 
f 95/95/99 96/96/100 97/97/101 92/92/96 
f 75/75/79 89/89/93 88/88/92 76/76/80 
f 79/79/83 98/98/102 89/89/93 75/75/79 
f 99/99/103 98/98/102 79/79/83 81/81/85 
f 93/93/97 99/99/103 81/81/85 83/83/87 
f 91/91/95 93/93/97 83/83/87 85/85/89 
f 91/91/95 85/85/89 87/87/91 94/94/98 
s 2
f 86/86/104 100/100/105 87/87/106 
s 1
f 98/98/102 90/90/94 89/89/93 
s 12
f 101/88/107 88/88/107 90/90/108 102/90/109 
s 4
f 90/90/108 92/92/110 103/101/111 102/90/109 
s 2
f 97/97/112 104/102/113 105/103/114 92/92/115 
f 103/101/116 92/92/115 105/103/114 
s 4
f 106/104/117 107/105/117 108/106/118 109/107/119 
s 2
f 96/96/120 110/108/121 111/109/122 107/105/123 
f 108/106/124 107/105/123 111/109/122 
f 112/110/125 94/94/126 87/87/106 100/100/105 
s 4
f 95/95/127 94/94/128 112/110/129 113/111/130 
s 1
f 99/99/103 93/93/97 90/90/94 
f 98/98/102 99/99/103 90/90/94 
s 2
f 101/88/131 114/76/131 76/76/131 88/88/131 
s 1
f 96/96/100 107/105/132 106/104/133 97/97/101 
s 2
f 109/107/134 115/112/135 104/102/113 106/104/136 
f 97/97/112 106/104/136 104/102/113 
f 113/111/137 116/113/138 110/108/121 95/95/139 
f 96/96/120 95/95/139 110/108/121 
s off
f 76/76/140 114/76/140 77/77/140 
s 2
f 111/109/122 110/108/121 116/113/138 
f 105/103/114 104/102/113 115/112/135 
s 1
f 117/114/141 118/115/142 3/116/3 2/117/2 
s 2
f 119/118/143 117/114/144 2/117/7 6/119/6 
f 120/120/145 121/121/146 9/122/11 8/123/10 
f 122/124/147 120/120/145 8/123/10 12/125/14 
f 123/126/148 122/124/147 12/125/14 14/127/16 
f 124/128/149 123/126/148 14/127/16 16/129/18 
s 1
f 118/115/142 124/128/150 16/129/19 3/116/3 
s 2
f 125/130/151 126/131/152 127/132/152 128/133/153 
f 129/134/154 130/135/152 126/131/152 125/130/151 
f 131/136/155 132/137/152 130/135/152 129/134/154 
f 133/138/156 134/139/152 132/137/152 131/136/155 
f 135/140/157 136/141/152 134/139/152 133/138/156 
f 137/142/158 138/143/152 136/141/152 135/140/157 
f 139/144/159 140/145/152 138/143/152 137/142/158 
f 128/133/153 127/132/152 140/145/152 139/144/159 
f 128/133/153 118/115/160 117/114/144 125/130/151 
f 125/130/151 117/114/144 119/118/143 129/134/154 
f 129/134/154 119/118/143 121/121/146 131/136/155 
f 131/136/155 121/121/146 120/120/145 133/138/156 
f 133/138/156 120/120/145 122/124/147 135/140/157 
f 135/140/157 122/124/147 123/126/148 137/142/158 
f 137/142/158 123/126/148 124/128/149 139/144/159 
f 139/144/159 124/128/149 118/115/160 128/133/153 
f 33/146/31 36/147/34 141/148/161 142/149/162 
f 142/149/162 141/148/161 143/150/163 144/151/164 
f 144/151/164 143/150/163 40/152/38 39/153/37 
f 41/154/39 145/155/165 146/156/166 42/157/40 
f 145/155/165 147/158/167 148/159/168 146/156/166 
f 147/158/167 48/160/46 47/161/45 148/159/168 
f 49/162/47 149/163/169 119/118/143 6/119/6 
f 149/163/169 150/164/170 121/121/146 119/118/143 
f 150/164/170 52/165/50 9/122/11 121/121/146 
s 1
f 138/143/52 140/145/171 54/166/53 53/167/52 
f 136/141/55 138/143/52 53/167/52 55/168/55 
f 134/139/57 136/141/55 55/168/55 56/169/57 
f 132/137/59 134/139/57 56/169/57 57/170/59 
f 130/135/172 132/137/59 57/170/59 58/171/60 
f 126/131/62 130/135/172 58/171/60 59/172/62 
f 127/132/173 126/131/62 59/172/62 60/173/64 
f 140/145/171 127/132/173 60/173/64 54/166/53 
s 2
f 61/174/65 151/175/174 145/155/165 41/154/39 
f 151/175/174 152/176/175 147/158/167 145/155/165 
f 152/176/175 64/177/68 48/160/46 147/158/167 
f 42/157/40 146/156/166 149/163/169 49/162/47 
f 146/156/166 148/159/168 150/164/170 149/163/169 
f 148/159/168 47/161/45 52/165/50 150/164/170 
s off
f 36/147/176 66/178/176 153/179/176 141/148/176 
f 141/148/177 153/179/177 154/180/177 143/150/177 
f 143/150/178 154/180/178 68/181/178 40/152/178 
f 66/178/179 70/182/179 155/183/179 153/179/179 
f 153/179/180 155/183/180 156/184/180 154/180/180 
f 154/180/181 156/184/181 72/185/181 68/181/181 
f 70/182/182 73/186/182 155/183/182 
f 155/183/183 73/186/183 156/184/183 
f 156/184/184 73/186/184 72/185/184 
s 2
f 33/146/31 142/149/162 151/175/174 61/174/65 
f 142/149/162 144/151/164 152/176/175 151/175/174 
f 144/151/164 39/153/37 64/177/68 152/176/175 
s 1
f 74/187/78 77/188/81 157/189/185 158/190/186 
f 78/191/82 74/187/78 158/190/186 159/192/187 
f 78/191/82 159/192/187 160/193/188 80/194/84 
f 80/194/84 160/193/188 161/195/189 82/196/86 
f 82/196/86 161/195/189 162/197/190 84/198/88 
f 84/198/88 162/197/190 163/199/191 86/200/90 
f 164/201/192 165/202/193 166/203/194 
f 167/204/195 168/205/196 165/202/193 169/206/197 
f 167/204/195 169/206/197 170/207/198 171/208/199 
f 170/207/198 169/206/197 172/209/200 173/210/201 
f 158/190/186 157/189/185 164/201/192 166/203/194 
f 159/192/187 158/190/186 166/203/194 174/211/202 
f 175/212/203 160/193/188 159/192/187 174/211/202 
f 168/205/196 161/195/189 160/193/188 175/212/203 
f 167/204/195 162/197/190 161/195/189 168/205/196 
f 167/204/195 171/208/199 163/199/191 162/197/190 
s 2
f 86/200/104 163/199/204 100/213/105 
s 1
f 174/211/202 166/203/194 165/202/193 
s 12
f 101/201/107 102/202/109 165/202/205 164/201/107 
s 4
f 165/202/205 102/202/109 103/214/111 169/206/206 
s 2
f 105/215/114 176/216/207 172/209/208 169/206/209 
f 103/214/116 105/215/114 169/206/209 
s 4
f 177/217/210 109/218/119 108/219/118 178/220/210 
s 2
f 111/221/122 179/222/211 173/210/212 178/220/213 
f 108/219/124 111/221/122 178/220/213 
f 112/223/125 100/213/105 163/199/204 171/208/214 
s 4
f 170/207/215 113/224/130 112/223/129 171/208/216 
s 1
f 175/212/203 165/202/193 168/205/196 
f 174/211/202 165/202/193 175/212/203 
s 2
f 101/201/131 164/201/131 157/189/131 114/189/131 
s 1
f 173/210/201 172/209/200 177/217/217 178/220/218 
s 2
f 176/216/207 115/225/135 109/218/134 177/217/219 
f 172/209/208 176/216/207 177/217/219 
f 179/222/211 116/226/138 113/224/137 170/207/220 
f 173/210/212 179/222/211 170/207/220 
s off
f 157/189/140 77/188/140 114/189/140 
s 2
f 111/221/122 116/226/138 179/222/211 
f 105/215/114 115/225/135 176/216/207 
# 162 polygons - 30 triangles

