# 3ds Max Wavefront OBJ Exporter v0.97b - (c)2007 guruware
# File Created: 16.06.2016 09:30:51

mtllib F2_fleur_04.mtl

#
# object fleur_04
#

v  9.8017 14.6012 -6.8316
v  9.8017 20.6293 -7.2575
v  0.0000 25.0535 -6.4358
v  0.0000 17.8122 -1.5300
v  -9.8017 20.6293 -7.2575
v  -9.8017 14.6012 -6.8316
v  9.8017 6.3972 -4.6528
v  0.0000 9.6785 0.4084
v  -9.8017 6.3972 -4.6528
v  9.8017 -0.0826 -7.3627
v  -0.0000 -0.0824 0.1668
v  -9.8017 -0.0826 -7.3627
v  9.8017 14.6012 -6.8316
v  9.8017 20.6293 -7.2575
v  0.0000 25.0535 -6.4358
v  0.0000 17.8122 -1.5300
v  -9.8017 20.6293 -7.2575
v  -9.8017 14.6012 -6.8316
v  9.8017 6.3972 -4.6528
v  0.0000 9.6785 0.4084
v  -9.8017 6.3972 -4.6528
v  9.8017 -0.0826 -7.3627
v  -0.0000 -0.0824 0.1668
v  -9.8017 -0.0826 -7.3627
# 24 vertices

vn 0.3301 0.1215 1.0233
vn 0.0000 0.3411 1.0512
vn 0.0000 0.1806 1.0820
vn 0.3813 0.0609 1.0001
vn 0.0000 0.1806 1.0820
vn 0.0000 0.3411 1.0512
vn -0.3301 0.1215 1.0233
vn -0.3813 0.0609 1.0001
vn 0.3813 0.0609 1.0001
vn 0.0000 0.1806 1.0820
vn 0.0109 0.0301 1.0781
vn 0.2948 -0.1144 0.9983
vn 0.0109 0.0301 1.0781
vn 0.0000 0.1806 1.0820
vn -0.3813 0.0609 1.0001
vn -0.3902 -0.0509 0.9785
vn 0.3561 -0.1399 0.9667
vn 0.2948 -0.1144 0.9983
vn 0.0109 0.0301 1.0781
vn 0.0495 -0.0910 1.0521
vn 0.0495 -0.0910 1.0521
vn 0.0109 0.0301 1.0781
vn -0.3902 -0.0509 0.9785
vn -0.4327 -0.2228 0.8949
vn -0.3301 -0.1215 -1.0233
vn -0.3813 -0.0609 -1.0001
vn 0.0537 -0.2105 -1.0776
vn 0.0476 -0.2832 -1.0655
vn 0.0476 -0.2832 -1.0655
vn 0.0537 -0.2105 -1.0776
vn 0.3414 -0.1131 -1.0190
vn 0.0793 -0.0015 -1.0707
vn -0.3813 -0.0609 -1.0001
vn -0.3902 0.0509 -0.9785
vn 0.0109 -0.0301 -1.0781
vn 0.0537 -0.2105 -1.0776
vn 0.0109 -0.0301 -1.0781
vn 0.2948 0.1144 -0.9983
vn 0.3414 -0.1131 -1.0190
vn 0.0537 -0.2105 -1.0776
vn -0.3902 0.0509 -0.9785
vn -0.4327 0.2228 -0.8949
vn 0.0495 0.0910 -1.0521
vn 0.0109 -0.0301 -1.0781
vn 0.0109 -0.0301 -1.0781
vn 0.0495 0.0910 -1.0521
vn 0.3561 0.1399 -0.9667
vn 0.2948 0.1144 -0.9983
# 48 vertex normals

vt 0.9807 0.5729 0.0000
vt 0.9805 0.6265 0.0000
vt 0.8698 0.6764 0.0000
vt 0.8703 0.5798 0.0000
vt 0.7586 0.6266 0.0000
vt 0.7588 0.5730 0.0000
vt 0.9808 0.4650 0.0000
vt 0.8705 0.4949 0.0000
vt 0.7589 0.4651 0.0000
vt 0.9807 0.3412 0.0000
vt 0.8704 0.3473 0.0000
vt 0.7587 0.3413 0.0000
vt 0.9807 0.5729 0.0000
vt 0.9805 0.6265 0.0000
vt 0.8698 0.6764 0.0000
vt 0.8703 0.5798 0.0000
vt 0.7586 0.6266 0.0000
vt 0.7588 0.5730 0.0000
vt 0.9808 0.4650 0.0000
vt 0.8705 0.4949 0.0000
vt 0.7589 0.4651 0.0000
vt 0.9807 0.3412 0.0000
vt 0.8704 0.3473 0.0000
vt 0.7587 0.3413 0.0000
# 24 texture coords

g fleur_04
usemtl Material__2
s 1
f 2/2/1 3/3/2 4/4/3 1/1/4 
f 4/4/5 3/3/6 5/5/7 6/6/8 
f 1/1/9 4/4/10 8/8/11 7/7/12 
f 8/8/13 4/4/14 6/6/15 9/9/16 
f 10/10/17 7/7/18 8/8/19 11/11/20 
f 11/11/21 8/8/22 9/9/23 12/12/24 
f 14/14/25 13/13/26 16/16/27 15/15/28 
f 15/15/29 16/16/30 18/18/31 17/17/32 
f 13/13/33 19/19/34 20/20/35 16/16/36 
f 20/20/37 21/21/38 18/18/39 16/16/40 
f 19/19/41 22/22/42 23/23/43 20/20/44 
f 20/20/45 23/23/46 24/24/47 21/21/48 
# 12 polygons

