# 3ds Max Wavefront OBJ Exporter v0.97b - (c)2007 guruware
# File Created: 08.05.2016 20:05:35

#
# object Tomahawk_03
#

v  10.5202 0.0000 -16.6673
v  9.0013 1.1798 -20.3169
v  4.2356 1.1798 -18.1074
v  4.1646 0.0000 -13.7827
v  15.8602 0.0000 -23.2206
v  12.8695 1.1798 -25.0005
v  17.3087 0.0000 -30.2320
v  14.1114 1.1798 -30.4176
v  16.9037 0.0000 -38.3479
v  13.8174 1.1798 -36.5245
v  14.4986 0.0000 -44.5921
v  11.9648 1.1798 -41.3293
v  10.0602 0.0000 -50.6869
v  8.5919 1.1798 -45.1983
v  3.7018 0.0000 -53.2479
v  3.8110 1.1798 -47.3156
v  4.3017 2.1122 -22.1366
v  6.9930 2.0072 -24.1890
v  3.6878 2.2507 -28.7918
v  3.7044 2.2507 -22.8297
v  9.2655 2.0143 -26.9920
v  4.2211 2.2507 -29.4889
v  6.5012 2.0201 -38.6902
v  3.6806 2.2507 -32.2180
v  4.1635 2.2507 -31.7243
v  8.7710 2.0154 -37.2053
v  3.9715 2.1807 -38.5891
v  3.3754 2.2507 -37.8854
v  -2.6934 2.2507 -36.9517
v  -2.6271 2.2507 -33.0151
v  -2.5533 2.2507 -27.6431
v  -2.8770 2.2507 -23.8550
v  10.2022 2.0165 -30.4024
v  10.0214 2.0165 -34.4038
v  3.8110 0.0000 -47.3156
v  4.2356 0.0000 -18.1074
v  4.3014 0.0000 -22.1208
v  -2.8770 0.0000 -23.8550
v  3.7044 0.0000 -22.8297
v  -2.5533 0.0000 -27.6431
v  3.6878 0.0000 -28.7918
v  4.2211 0.0000 -29.4889
v  4.1635 0.0000 -31.7243
v  3.6806 0.0000 -32.2180
v  -2.6271 0.0000 -33.0151
v  -2.6934 0.0000 -36.9517
v  3.3754 0.0000 -37.8854
v  3.9714 0.0000 -38.5931
v  4.2356 -1.1798 -18.1074
v  9.0013 -1.1798 -20.3169
v  12.8695 -1.1798 -25.0005
v  14.1114 -1.1798 -30.4176
v  13.8174 -1.1798 -36.5245
v  11.9648 -1.1798 -41.3293
v  8.5919 -1.1798 -45.1983
v  3.8110 -1.1798 -47.3156
v  4.3017 -2.1122 -22.1366
v  3.7044 -2.2507 -22.8297
v  3.6878 -2.2507 -28.7918
v  6.9930 -2.0072 -24.1890
v  9.2655 -2.0143 -26.9920
v  4.2211 -2.2507 -29.4889
v  6.5012 -2.0201 -38.6902
v  8.7710 -2.0154 -37.2053
v  4.1635 -2.2507 -31.7243
v  3.6806 -2.2507 -32.2180
v  3.3754 -2.2507 -37.8854
v  3.9715 -2.1807 -38.5891
v  -2.6271 -2.2507 -33.0151
v  -2.6934 -2.2507 -36.9517
v  -2.8770 -2.2507 -23.8550
v  -2.5533 -2.2507 -27.6431
v  10.2022 -2.0165 -30.4024
v  10.0214 -2.0165 -34.4038
v  -1.8712 0.0000 -42.4933
v  -1.9095 0.0000 -8.8922
v  -0.8372 1.7831 -9.0576
v  -0.8549 1.7602 -42.4933
v  1.2315 1.7402 -9.3951
v  1.1775 1.7602 -42.4933
v  2.2301 -0.0000 -9.5670
v  2.1938 -0.0000 -42.4933
v  1.2315 -1.7402 -9.3951
v  1.1775 -1.7602 -42.4933
v  -0.8372 -1.7831 -9.0576
v  -0.8549 -1.7602 -42.4933
v  1.4976 -0.0000 14.3209
v  2.5896 2.5245 13.3789
v  -0.0372 2.5245 9.2642
v  -1.4929 -0.0000 9.6458
v  4.7736 2.5245 11.4949
v  2.8730 2.5245 8.5017
v  5.8656 -0.0000 10.5529
v  4.3272 -0.0000 8.1211
v  4.7736 -2.5245 11.4949
v  2.8730 -2.5245 8.5017
v  2.5896 -2.5245 13.3789
v  -0.0372 -2.5245 9.2642
v  -2.7426 0.0000 -8.2552
v  -2.7530 -0.0000 5.3312
v  -1.2955 2.5245 4.9485
v  -1.2851 2.5245 -8.5135
v  1.6196 2.5245 4.1830
v  1.6299 2.5245 -9.0300
v  3.0771 -0.0000 3.8002
v  3.0874 -0.0000 -9.2883
v  1.6196 -2.5245 4.1830
v  1.6299 -2.5245 -9.0300
v  -1.2955 -2.5245 4.9485
v  -1.2851 -2.5245 -8.5135
v  -0.5315 1.1229 -42.9589
v  -1.1798 -0.0000 -42.9589
v  -0.5315 -1.1229 -42.9589
v  0.7652 -1.1229 -42.9589
v  1.4135 -0.0000 -42.9589
v  0.7652 1.1229 -42.9589
v  2.6568 -0.0000 14.4584
v  3.4156 1.7014 13.8345
v  4.9331 1.7014 12.5868
v  5.6919 -0.0000 11.9629
v  4.9331 -1.7014 12.5868
v  3.4156 -1.7014 13.8345
v  4.6703 -0.0000 13.6393
v  -0.9818 2.5245 7.1983
v  -2.4389 -0.0000 7.5808
v  1.9320 2.5245 6.4336
v  3.3887 -0.0000 6.0514
v  1.9320 -2.5245 6.4336
v  -0.9818 -2.5245 7.1983
v  0.1168 -0.0000 -42.9589
# 130 vertices

vn 0.8090 -0.0000 -0.5878
vn 0.1991 0.9652 -0.1696
vn 0.2490 0.9617 -0.1143
vn 0.9106 0.0000 -0.4133
vn 0.4409 0.0000 -0.8975
vn 0.1163 0.9625 -0.2449
vn 0.0823 -0.0000 -0.9966
vn 0.0259 0.9590 -0.2823
vn -0.2340 -0.0000 -0.9722
vn -0.0524 0.9630 -0.2645
vn -0.5258 0.0000 -0.8506
vn -0.1189 0.9720 -0.2027
vn -0.8173 -0.0000 -0.5762
vn -0.1442 0.9820 -0.1218
vn -0.9276 0.0000 -0.3736
vn -0.1636 0.9840 -0.0704
vn 0.1106 0.9865 -0.1212
vn 0.0812 0.9916 -0.1008
vn 0.0152 0.9995 -0.0285
vn -0.0004 0.9896 -0.1439
vn 0.0594 0.9912 -0.1185
vn 0.0134 0.9992 -0.0371
vn -0.0767 0.9951 -0.0623
vn -0.0131 0.9997 -0.0218
vn -0.0118 0.9994 -0.0328
vn -0.0672 0.9936 -0.0903
vn -0.0742 0.9954 -0.0602
vn -0.0093 0.9990 -0.0431
vn 0.0000 1.0000 -0.0000
vn 0.0163 0.9909 -0.1333
vn -0.0257 0.9919 -0.1247
vn 0.0184 0.0000 0.9998
vn 0.0184 -0.0000 0.9998
vn -0.0164 0.0000 0.9999
vn 0.9881 0.0000 0.1539
vn -0.0852 0.0000 0.9964
vn -0.9835 0.0000 0.1810
vn -0.6076 0.0000 0.7943
vn 0.0258 0.0000 0.9997
vn 0.6992 0.0000 0.7149
vn 0.9921 0.0000 0.1254
vn 0.0168 0.0000 0.9999
vn -0.9884 0.0000 0.1521
vn 0.6507 0.0012 0.7593
vn 0.6528 0.0000 0.7575
vn 0.6464 -0.0000 0.7630
vn 0.6442 0.0000 0.7649
vn -0.6458 0.0009 0.7635
vn -0.6464 0.0012 0.7630
vn -0.6447 -0.0000 0.7645
vn -0.6441 0.0000 0.7649
vn 0.2490 -0.9617 -0.1143
vn 0.1991 -0.9652 -0.1696
vn 0.1163 -0.9625 -0.2449
vn 0.0259 -0.9590 -0.2823
vn -0.0524 -0.9630 -0.2645
vn -0.1189 -0.9720 -0.2027
vn -0.1442 -0.9820 -0.1218
vn -0.1636 -0.9840 -0.0704
vn 0.1106 -0.9865 -0.1212
vn -0.0004 -0.9896 -0.1439
vn 0.0152 -0.9995 -0.0285
vn 0.0812 -0.9916 -0.1008
vn 0.0594 -0.9912 -0.1185
vn 0.0134 -0.9992 -0.0371
vn -0.0767 -0.9951 -0.0623
vn -0.0672 -0.9936 -0.0903
vn -0.0118 -0.9994 -0.0328
vn -0.0131 -0.9997 -0.0218
vn -0.0093 -0.9990 -0.0431
vn -0.0742 -0.9954 -0.0602
vn 0.0000 -1.0000 -0.0000
vn 0.0163 -0.9909 -0.1333
vn -0.0257 -0.9919 -0.1247
vn -0.0164 -0.0000 0.9999
vn 0.6507 -0.0012 0.7593
vn -0.6458 -0.0009 0.7635
vn -0.6464 -0.0012 0.7630
vn 0.0001 0.5006 0.8657
vn -0.0010 0.5153 0.8570
vn -0.0009 0.5147 0.8574
vn 0.0001 0.5000 0.8660
vn 0.0006 1.0000 -0.0008
vn -0.0007 0.9998 -0.0206
vn -0.0007 0.9998 -0.0199
vn 0.0006 1.0000 -0.0000
vn -0.0010 0.4999 -0.8661
vn -0.0011 0.4978 -0.8673
vn -0.0010 0.5000 -0.8660
vn -0.0011 -0.4978 -0.8673
vn -0.0010 -0.4999 -0.8661
vn -0.0010 -0.5000 -0.8660
vn -0.0007 -0.9998 -0.0199
vn -0.0007 -0.9998 -0.0206
vn 0.0006 -1.0000 -0.0008
vn 0.0006 -1.0000 -0.0000
vn -0.0009 -0.5147 0.8574
vn -0.0010 -0.5153 0.8570
vn 0.0001 -0.5006 0.8657
vn 0.0001 -0.5000 0.8660
vn 0.4685 0.4926 0.7334
vn 0.4684 0.4922 0.7337
vn 0.4187 0.5002 0.7580
vn 0.4103 0.5013 0.7618
vn -0.0000 1.0000 -0.0000
vn -0.4659 0.4926 -0.7350
vn -0.4655 0.4919 -0.7358
vn -0.4161 0.5000 -0.7595
vn -0.4082 0.5011 -0.7631
vn -0.4159 -0.4998 -0.7597
vn -0.4655 -0.4919 -0.7358
vn -0.4659 -0.4926 -0.7350
vn -0.4079 -0.5014 -0.7631
vn 0.4186 -0.5001 0.7581
vn 0.4684 -0.4922 0.7337
vn 0.4685 -0.4926 0.7334
vn 0.4101 -0.5015 0.7618
vn -0.0007 0.4999 0.8661
vn 0.0630 0.5061 0.8602
vn 0.0556 0.5055 0.8610
vn 0.0007 0.4999 -0.8661
vn -0.0626 0.5060 -0.8602
vn -0.0552 0.5055 -0.8611
vn -0.0553 -0.5054 -0.8611
vn -0.0626 -0.5061 -0.8602
vn 0.0007 -0.4999 -0.8661
vn 0.0556 -0.5055 0.8610
vn 0.0630 -0.5062 0.8601
vn -0.0007 -0.4999 0.8661
vn -0.8371 0.4671 0.2848
vn -0.8294 -0.0000 0.5586
vn -0.8376 0.4759 0.2682
vn -0.8371 -0.4671 0.2848
vn -0.8376 -0.4759 0.2682
vn -0.8518 -0.4597 -0.2514
vn -0.8522 -0.4505 -0.2661
vn -0.8587 -0.0000 -0.5124
vn -0.8518 0.4597 -0.2514
vn -0.8522 0.4505 -0.2661
vn -0.7980 0.0040 0.6026
vn -0.8437 0.3819 0.3773
vn -0.8414 0.4149 0.3462
vn -0.7972 0.0107 0.6036
vn -0.9163 0.3966 -0.0562
vn -0.9178 0.3852 -0.0964
vn -0.9506 0.0009 -0.3104
vn -0.9507 0.0022 -0.3101
vn -0.9134 -0.4017 -0.0651
vn -0.9210 -0.3762 -0.1013
vn -0.8368 -0.3919 0.3824
vn -0.8465 -0.4041 0.3466
vn 0.9155 0.3867 0.1109
vn 0.9166 0.3846 0.1088
vn 0.9141 0.3892 0.1135
vn 0.9134 0.3905 0.1148
vn 0.5184 0.7368 -0.4340
vn 0.7202 0.5000 -0.4808
vn 0.4651 0.4912 -0.7365
vn 0.3267 0.5837 -0.7433
vn 0.2789 -0.0000 -0.9603
vn 0.1223 -0.0000 -0.9925
vn 0.4651 -0.4912 -0.7365
vn 0.3267 -0.5837 -0.7433
vn 0.7202 -0.5000 -0.4808
vn 0.5184 -0.7368 -0.4340
vn 0.9141 -0.3892 0.1135
vn 0.9166 -0.3846 0.1088
vn 0.9155 -0.3867 0.1109
vn 0.9134 -0.3905 0.1148
vn 0.9263 -0.0000 -0.3768
vn 0.7596 0.0000 -0.6504
vn 0.2416 0.5123 0.8241
vn 0.2397 0.5122 0.8248
vn -0.2398 0.5123 -0.8247
vn -0.2383 0.5120 -0.8253
vn -0.2384 -0.5123 -0.8251
vn -0.2400 -0.5120 -0.8248
vn 0.2397 -0.5123 0.8247
vn 0.2417 -0.5122 0.8242
vn -1.0000 0.0000 0.0000
vn -1.0000 0.0000 -0.0000
vn -1.0000 -0.0000 -0.0000
vn -1.0000 -0.0000 0.0000
# 183 vertex normals

vt 0.5432 0.4732 0.0000
vt 0.5204 0.4179 0.0000
vt 0.5950 0.3906 0.0000
vt 0.6420 0.4361 0.0000
vt 0.4160 0.4602 0.0000
vt 0.4290 0.4092 0.0000
vt 0.3256 0.4007 0.0000
vt 0.3578 0.3645 0.0000
vt 0.2431 0.3096 0.0000
vt 0.2956 0.2961 0.0000
vt 0.2021 0.2171 0.0000
vt 0.2640 0.2249 0.0000
vt 0.1843 0.1045 0.0000
vt 0.2587 0.1475 0.0000
vt 0.2250 0.0091 0.0000
vt 0.2872 0.0737 0.0000
vt 0.5512 0.3482 0.0000
vt 0.5005 0.3550 0.0000
vt 0.4866 0.2705 0.0000
vt 0.5502 0.3344 0.0000
vt 0.4462 0.3494 0.0000
vt 0.4735 0.2687 0.0000
vt 0.3507 0.1947 0.0000
vt 0.4501 0.2338 0.0000
vt 0.4502 0.2442 0.0000
vt 0.3423 0.2349 0.0000
vt 0.3788 0.1687 0.0000
vt 0.3927 0.1699 0.0000
vt 0.4676 0.1150 0.0000
vt 0.5090 0.1578 0.0000
vt 0.5656 0.2160 0.0000
vt 0.6096 0.2531 0.0000
vt 0.3997 0.3229 0.0000
vt 0.3589 0.2782 0.0000
vt 0.5514 0.3484 0.0000
vt 0.4547 0.5268 0.0000
vt 0.3559 0.5639 0.0000
vt 0.4029 0.6094 0.0000
vt 0.4775 0.5821 0.0000
vt 0.5819 0.5398 0.0000
vt 0.5690 0.5908 0.0000
vt 0.6724 0.5993 0.0000
vt 0.6402 0.6355 0.0000
vt 0.7023 0.7039 0.0000
vt 0.7548 0.6904 0.0000
vt 0.7339 0.7751 0.0000
vt 0.7959 0.7829 0.0000
vt 0.7392 0.8525 0.0000
vt 0.8136 0.8955 0.0000
vt 0.7107 0.9263 0.0000
vt 0.7730 0.9909 0.0000
vt 0.4467 0.6518 0.0000
vt 0.4478 0.6656 0.0000
vt 0.5113 0.7295 0.0000
vt 0.4975 0.6450 0.0000
vt 0.5517 0.6506 0.0000
vt 0.5245 0.7313 0.0000
vt 0.6473 0.8053 0.0000
vt 0.6556 0.7651 0.0000
vt 0.5478 0.7558 0.0000
vt 0.5479 0.7662 0.0000
vt 0.6052 0.8301 0.0000
vt 0.6191 0.8313 0.0000
vt 0.4890 0.8422 0.0000
vt 0.5303 0.8850 0.0000
vt 0.3883 0.7469 0.0000
vt 0.4323 0.7840 0.0000
vt 0.5982 0.6771 0.0000
vt 0.6391 0.7218 0.0000
vt 0.4466 0.6516 0.0000
vt 0.6192 0.8313 0.0000
vt 0.3995 0.0645 0.0000
vt 0.7592 0.4234 0.0000
vt 0.7460 0.4331 0.0000
vt 0.3887 0.0754 0.0000
vt 0.7203 0.4516 0.0000
vt 0.3669 0.0971 0.0000
vt 0.7078 0.4605 0.0000
vt 0.3561 0.1080 0.0000
vt 0.2902 0.5395 0.0000
vt 0.2777 0.5484 0.0000
vt 0.6310 0.9029 0.0000
vt 0.6419 0.8920 0.0000
vt 0.2519 0.5669 0.0000
vt 0.6093 0.9246 0.0000
vt 0.2387 0.5766 0.0000
vt 0.5984 0.9355 0.0000
vt 0.9710 0.7081 0.0000
vt 0.9493 0.7097 0.0000
vt 0.9334 0.6376 0.0000
vt 0.9530 0.6261 0.0000
vt 0.9058 0.7129 0.0000
vt 0.8941 0.6605 0.0000
vt 0.8840 0.7145 0.0000
vt 0.8745 0.6720 0.0000
vt 0.1235 0.3280 0.0000
vt 0.1139 0.2855 0.0000
vt 0.0922 0.2871 0.0000
vt 0.1038 0.3395 0.0000
vt 0.0487 0.2903 0.0000
vt 0.0646 0.3624 0.0000
vt 0.0269 0.2919 0.0000
vt 0.0449 0.3739 0.0000
vt 0.7750 0.4213 0.0000
vt 0.9204 0.5665 0.0000
vt 0.9007 0.5780 0.0000
vt 0.7566 0.4341 0.0000
vt 0.8613 0.6010 0.0000
vt 0.7199 0.4598 0.0000
vt 0.8416 0.6124 0.0000
vt 0.7016 0.4726 0.0000
vt 0.1563 0.3876 0.0000
vt 0.1366 0.3990 0.0000
vt 0.2780 0.5402 0.0000
vt 0.2964 0.5274 0.0000
vt 0.0973 0.4220 0.0000
vt 0.2413 0.5659 0.0000
vt 0.0776 0.4335 0.0000
vt 0.2230 0.5787 0.0000
vt 0.3802 0.0739 0.0000
vt 0.3872 0.0669 0.0000
vt 0.6108 0.9331 0.0000
vt 0.6177 0.9261 0.0000
vt 0.6316 0.9123 0.0000
vt 0.6385 0.9053 0.0000
vt 0.3594 0.0947 0.0000
vt 0.3664 0.0877 0.0000
vt 0.9601 0.7219 0.0000
vt 0.9453 0.7234 0.0000
vt 0.9157 0.7262 0.0000
vt 0.9010 0.7277 0.0000
vt 0.0970 0.2723 0.0000
vt 0.0822 0.2738 0.0000
vt 0.0526 0.2766 0.0000
vt 0.0378 0.2781 0.0000
vt 0.9298 0.7347 0.0000
vt 0.0681 0.2653 0.0000
vt 0.9214 0.6054 0.0000
vt 0.9410 0.5939 0.0000
vt 0.8820 0.6284 0.0000
vt 0.8624 0.6398 0.0000
vt 0.1159 0.3716 0.0000
vt 0.1356 0.3602 0.0000
vt 0.0766 0.3946 0.0000
vt 0.0569 0.4061 0.0000
vt 0.3733 0.0808 0.0000
vt 0.6246 0.9192 0.0000
# 147 texture coords

g Tomahawk_03
s 1
f 1/1/1 2/2/2 3/3/3 4/4/4 
f 5/5/5 6/6/6 2/2/2 1/1/1 
f 7/7/7 8/8/8 6/6/6 5/5/5 
f 7/7/7 9/9/9 10/10/10 8/8/8 
f 9/9/9 11/11/11 12/12/12 10/10/10 
f 11/11/11 13/13/13 14/14/14 12/12/12 
f 13/13/13 15/15/15 16/16/16 14/14/14 
f 17/17/17 18/18/18 19/19/19 20/20/20 
f 21/21/21 22/22/22 19/19/19 18/18/18 
f 23/23/23 24/24/24 25/25/25 26/26/26 
f 23/23/23 27/27/27 28/28/28 24/24/24 
f 24/24/24 28/28/28 29/29/29 30/30/29 
f 20/20/20 19/19/19 31/31/29 32/32/29 
f 2/2/2 18/18/18 17/17/17 3/3/3 
f 6/6/6 21/21/21 18/18/18 2/2/2 
f 8/8/8 33/33/30 21/21/21 6/6/6 
f 34/34/31 33/33/30 8/8/8 10/10/10 
f 26/26/26 34/34/31 10/10/10 12/12/12 
f 23/23/23 26/26/26 12/12/12 14/14/14 
f 23/23/23 14/14/14 16/16/16 27/27/27 
s 2
f 15/15/32 35/16/32 16/16/33 
f 3/3/34 36/3/34 4/4/34 
s 1
f 33/33/30 22/22/22 21/21/21 
s 2
f 3/3/34 17/17/34 37/35/34 36/3/34 
f 20/20/35 32/32/35 38/32/35 39/20/35 
s 4
f 32/32/36 31/31/36 40/31/36 38/32/36 
s 2
f 31/31/37 19/19/37 41/19/37 40/31/37 
s 4
f 19/19/38 22/22/38 42/22/38 41/19/38 
s 2
f 22/22/39 25/25/39 43/25/39 42/22/39 
s 4
f 25/25/40 24/24/40 44/24/40 43/25/40 
s 2
f 24/24/41 30/30/41 45/30/41 44/24/41 
s 4
f 30/30/42 29/29/42 46/29/42 45/30/42 
s 2
f 29/29/43 28/28/43 47/28/43 46/29/43 
f 48/27/32 27/27/33 16/16/33 35/16/32 
s 4
f 17/17/44 20/20/45 39/20/46 37/35/47 
f 28/28/48 27/27/49 48/27/50 47/28/51 
s 1
f 34/34/31 26/26/26 25/25/25 
f 34/34/31 25/25/25 22/22/22 33/33/30 
f 1/36/1 4/37/4 49/38/52 50/39/53 
f 5/40/5 1/36/1 50/39/53 51/41/54 
f 7/42/7 5/40/5 51/41/54 52/43/55 
f 7/42/7 52/43/55 53/44/56 9/45/9 
f 9/45/9 53/44/56 54/46/57 11/47/11 
f 11/47/11 54/46/57 55/48/58 13/49/13 
f 13/49/13 55/48/58 56/50/59 15/51/15 
f 57/52/60 58/53/61 59/54/62 60/55/63 
f 61/56/64 60/55/63 59/54/62 62/57/65 
f 63/58/66 64/59/67 65/60/68 66/61/69 
f 63/58/66 66/61/69 67/62/70 68/63/71 
f 66/61/69 69/64/72 70/65/72 67/62/70 
f 58/53/61 71/66/72 72/67/72 59/54/62 
f 50/39/53 49/38/52 57/52/60 60/55/63 
f 51/41/54 50/39/53 60/55/63 61/56/64 
f 52/43/55 51/41/54 61/56/64 73/68/73 
f 74/69/74 53/44/56 52/43/55 73/68/73 
f 64/59/67 54/46/57 53/44/56 74/69/74 
f 63/58/66 55/48/58 54/46/57 64/59/67 
f 63/58/66 68/63/71 56/50/59 55/48/58 
s 2
f 15/51/32 56/50/32 35/50/32 
f 49/38/75 4/37/34 36/38/34 
s 1
f 73/68/73 61/56/64 62/57/65 
s 2
f 49/38/75 36/38/34 37/70/34 57/52/75 
f 58/53/35 39/53/35 38/66/35 71/66/35 
s 4
f 71/66/36 38/66/36 40/67/36 72/67/36 
s 2
f 72/67/37 40/67/37 41/54/37 59/54/37 
s 4
f 59/54/38 41/54/38 42/57/38 62/57/38 
s 2
f 62/57/39 42/57/39 43/60/39 65/60/39 
s 4
f 65/60/40 43/60/40 44/61/40 66/61/40 
s 2
f 66/61/41 44/61/41 45/64/41 69/64/41 
s 4
f 69/64/42 45/64/42 46/65/42 70/65/42 
s 2
f 70/65/43 46/65/43 47/62/43 67/62/43 
f 48/71/32 35/50/32 56/50/32 68/63/32 
s 4
f 57/52/76 37/70/47 39/53/46 58/53/45 
f 67/62/77 47/62/51 48/71/50 68/63/78 
s 1
f 74/69/74 65/60/68 64/59/67 
f 74/69/74 73/68/73 62/57/65 65/60/68 
f 75/72/79 76/73/80 77/74/81 78/75/82 
s 2
f 78/75/83 77/74/84 79/76/85 80/77/86 
s 1
f 80/77/87 79/76/88 81/78/88 82/79/89 
s 2
f 81/80/90 83/81/90 84/82/91 82/83/92 
s 1
f 83/81/93 85/84/94 86/85/95 84/82/96 
s 2
f 85/84/97 76/86/98 75/87/99 86/85/100 
s 1
f 87/88/101 88/89/102 89/90/103 90/91/104 
s 2
f 88/89/105 91/92/105 92/93/105 89/90/105 
s 1
f 91/92/106 93/94/107 94/95/108 92/93/109 
s 2
f 94/96/110 93/97/111 95/98/112 96/99/113 
s 1
f 96/99/72 95/98/72 97/100/72 98/101/72 
s 2
f 98/101/114 97/100/115 87/102/116 90/103/117 
s 1
f 99/104/118 100/105/119 101/106/120 102/107/118 
s 2
f 102/107/29 101/106/105 103/108/105 104/109/29 
s 1
f 104/109/121 103/108/122 105/110/123 106/111/121 
s 2
f 105/112/124 107/113/125 108/114/126 106/115/126 
s 1
f 107/113/72 109/116/72 110/117/72 108/114/72 
s 2
f 109/116/127 100/118/128 99/119/129 110/117/129 
s 4
f 111/120/130 112/121/131 75/72/131 78/75/132 
f 112/122/131 113/123/133 86/85/134 75/87/131 
f 113/123/133 114/124/135 84/82/136 86/85/134 
f 114/124/135 115/125/137 82/83/137 84/82/136 
f 115/126/137 116/127/138 80/77/139 82/79/137 
f 116/127/138 111/120/130 78/75/132 80/77/139 
f 99/104/140 102/107/141 77/74/142 76/73/143 
f 102/107/141 104/109/144 79/76/145 77/74/142 
f 104/109/144 106/111/146 81/78/147 79/76/145 
f 106/115/146 108/114/148 83/81/149 81/80/147 
f 108/114/148 110/117/150 85/84/151 83/81/149 
f 110/117/150 99/119/140 76/86/143 85/84/151 
f 87/88/152 117/128/153 118/129/154 88/89/155 
s 8
f 88/89/156 118/129/157 119/130/158 91/92/159 
f 91/92/159 119/130/158 120/131/160 93/94/161 
f 120/132/160 121/133/162 95/98/163 93/97/161 
f 121/133/162 122/134/164 97/100/165 95/98/163 
s 16
f 122/134/166 117/135/167 87/102/168 97/100/169 
s 8
f 118/129/157 117/128/170 123/136/171 
f 119/130/158 118/129/157 123/136/171 
f 120/131/160 119/130/158 123/136/171 
f 121/133/162 120/132/160 123/137/171 
f 122/134/164 121/133/162 123/137/171 
f 117/135/170 122/134/164 123/137/171 
s 1
f 124/138/172 101/106/120 100/105/119 125/139/173 
s 2
f 126/140/105 103/108/105 101/106/105 124/138/105 
s 1
f 127/141/174 105/110/123 103/108/122 126/140/175 
s 2
f 128/142/176 107/113/125 105/112/124 127/143/177 
s 1
f 129/144/72 109/116/72 107/113/72 128/142/72 
s 2
f 125/145/178 100/118/128 109/116/127 129/144/179 
s 1
f 89/90/103 124/138/172 125/139/173 90/91/104 
s 2
f 92/93/105 126/140/105 124/138/105 89/90/105 
s 1
f 94/95/108 127/141/174 126/140/175 92/93/109 
s 2
f 96/99/113 128/142/176 127/143/177 94/96/110 
s 1
f 98/101/72 129/144/72 128/142/72 96/99/72 
s 2
f 90/103/117 125/145/178 129/144/179 98/101/114 
s off
f 112/121/180 111/120/180 130/146/180 
f 111/120/181 116/127/181 130/146/181 
f 116/127/181 115/126/181 130/146/181 
f 115/125/182 114/124/182 130/147/182 
f 114/124/182 113/123/182 130/147/182 
f 113/123/183 112/122/183 130/147/183 
# 116 polygons - 20 triangles

