# 3ds Max Wavefront OBJ Exporter v0.97b - (c)2007 guruware
# File Created: 31.03.2016 22:20:28

#
# object Fish_Rack
#

v  46.3726 101.2199 -2.3895
v  47.7028 102.8051 -1.1947
v  59.9847 92.4993 -1.1947
v  58.6545 90.9141 -2.3895
v  47.7028 102.8051 1.1947
v  59.9847 92.4993 1.1947
v  46.3726 101.2199 2.3895
v  58.6545 90.9141 2.3895
v  45.0425 99.6347 1.1947
v  57.3244 89.3289 1.1947
v  45.0425 99.6347 -1.1947
v  57.3244 89.3289 -1.1947
v  72.2666 82.1936 -1.1947
v  70.9364 80.6084 -2.3895
v  72.2666 82.1936 1.1947
v  70.9364 80.6084 2.3895
v  69.6063 79.0232 1.1947
v  69.6063 79.0232 -1.1947
v  84.5485 71.8878 -1.1947
v  83.2184 70.3026 -2.3895
v  84.5485 71.8878 1.1947
v  83.2184 70.3026 2.3895
v  81.8882 68.7174 1.1947
v  81.8882 68.7174 -1.1947
v  96.8304 61.5821 -1.1947
v  95.5003 59.9969 -2.3895
v  96.8304 61.5821 1.1947
v  95.5003 59.9969 2.3895
v  94.1701 58.4117 1.1947
v  94.1701 58.4117 -1.1947
v  109.1123 51.2763 -1.1947
v  107.7822 49.6911 -2.3895
v  109.1123 51.2763 1.1947
v  107.7822 49.6911 2.3894
v  106.4520 48.1059 1.1947
v  106.4520 48.1059 -1.1947
v  46.3726 101.2199 0.0000
v  107.7822 49.6911 -0.0000
v  93.6512 50.9999 20.0784
v  94.8278 53.0692 20.2859
v  97.6119 53.0692 4.4965
v  96.4353 50.9999 4.2891
v  97.1810 53.0692 20.7008
v  99.9650 53.0692 4.9115
v  98.3575 50.9999 20.9083
v  101.1416 50.9999 5.1189
v  97.1810 48.9305 20.7008
v  99.9650 48.9305 4.9115
v  94.8278 48.9305 20.2859
v  97.6119 48.9305 4.4965
v  100.3960 53.0692 -11.2928
v  99.2194 50.9999 -11.5002
v  102.7491 53.0692 -10.8778
v  103.9257 50.9999 -10.6704
v  102.7491 48.9305 -10.8778
v  100.3960 48.9305 -11.2928
v  102.2827 53.0692 -21.9932
v  101.1061 50.9999 -22.2007
v  104.6359 53.0692 -21.5783
v  105.8125 50.9999 -21.3708
v  104.6359 48.9305 -21.5783
v  102.2827 48.9305 -21.9932
v  96.0044 50.9999 20.4933
v  103.4593 50.9999 -21.7858
v  40.7096 99.0451 -0.7607
v  40.7096 100.2457 -2.8402
v  75.0053 102.6896 -2.8402
v  75.0053 101.4889 -0.7607
v  40.7096 102.6470 -2.8402
v  75.0053 105.0908 -2.8402
v  40.7096 103.8476 -0.7607
v  75.0053 106.2914 -0.7607
v  40.7096 102.6470 1.3189
v  75.0053 105.0908 1.3189
v  40.7096 100.2457 1.3189
v  75.0053 102.6896 1.3189
v  105.4024 105.4266 -2.8402
v  105.4024 104.2259 -0.7607
v  105.4024 107.8278 -2.8402
v  105.4024 109.0284 -0.7607
v  105.4024 107.8278 1.3189
v  105.4024 105.4266 1.3189
v  9.9288 99.4506 -2.8402
v  9.9288 98.2500 -0.7607
v  9.9288 101.8519 -2.8402
v  9.9288 103.0525 -0.7607
v  9.9288 101.8519 1.3189
v  9.9288 99.4506 1.3189
v  88.5738 -1.1756 35.3185
v  90.0078 -0.3238 37.6587
v  89.9760 23.7120 29.3698
v  88.3676 22.7138 26.6273
v  93.1311 -0.5759 36.9662
v  93.0993 23.6795 29.2806
v  94.8205 -1.6602 33.9872
v  94.6142 22.6566 26.4702
v  93.4532 -2.4262 31.8826
v  93.1385 21.8293 24.1970
v  90.3299 -2.1741 32.5752
v  90.0152 21.8617 24.2862
v  90.7679 46.5317 17.7397
v  89.1468 45.5754 15.1120
v  93.8913 46.6568 18.0833
v  95.3935 45.8153 15.7712
v  93.7317 44.8066 12.9998
v  90.6083 44.6815 12.6561
v  90.4540 70.7780 10.0289
v  88.9259 69.8996 7.6155
v  93.5774 70.7866 10.0525
v  95.1726 69.9140 7.6551
v  93.5673 68.9364 4.9689
v  90.4440 68.9278 4.9453
v  90.5396 94.5598 1.0420
v  89.0029 93.6723 -1.3965
v  93.6630 94.5683 1.0651
v  95.2496 93.6770 -1.3836
v  93.6573 92.7180 -4.0184
v  90.5339 92.7096 -4.0415
v  90.5231 118.3950 -7.7983
v  89.1140 117.6098 -9.9557
v  93.6465 118.2367 -8.2332
v  95.3606 117.3016 -10.8023
v  93.8505 116.3865 -13.3167
v  90.7271 116.5447 -12.8819
v  100.9919 -1.7698 -33.6860
v  99.5781 -0.9629 -35.9029
v  99.8870 23.4239 -28.5782
v  101.4307 22.4873 -26.0049
v  96.4547 -1.1604 -35.3604
v  96.7636 23.3337 -28.3305
v  94.7453 -2.1464 -32.6514
v  95.1841 22.3231 -25.5538
v  96.2037 -3.0106 -30.2769
v  96.6524 21.4835 -23.2470
v  99.3270 -2.8132 -30.8194
v  99.7758 21.5736 -23.4947
v  99.7949 47.1268 -19.3745
v  101.2569 46.2832 -17.0568
v  96.6715 46.9985 -19.0221
v  95.0102 46.0382 -16.3836
v  96.5083 45.1482 -13.9385
v  99.6316 45.2765 -14.2909
v  99.7118 71.0064 -10.6564
v  101.3353 70.0221 -7.9521
v  96.5885 71.0617 -10.8084
v  95.0886 70.1269 -8.2398
v  96.6585 69.2115 -5.7248
v  99.7818 69.1562 -5.5729
v  100.0883 95.3452 -3.1999
v  101.6184 94.4216 -0.6623
v  96.9650 95.2390 -2.9081
v  95.3717 94.2210 -0.1112
v  96.8308 93.3888 2.1754
v  99.9542 93.4950 1.8836
v  99.6373 118.6150 7.1938
v  101.1391 117.7244 9.6409
v  96.5139 118.5069 7.4908
v  94.8924 117.5328 10.1672
v  96.3829 116.6566 12.5743
v  99.5062 116.7648 12.2773
v  92.2036 120.1318 -12.1517
v  98.0120 120.3528 11.5443
v  40.7096 48.7347 7.0159
v  40.7096 49.9353 4.9363
v  75.0053 52.3792 4.9363
v  75.0053 51.1785 7.0159
v  40.7096 52.3366 4.9363
v  75.0053 54.7804 4.9363
v  40.7096 53.5372 7.0159
v  75.0053 55.9811 7.0159
v  40.7096 52.3366 9.0954
v  75.0053 54.7804 9.0954
v  40.7096 49.9353 9.0954
v  75.0053 52.3792 9.0954
v  105.4024 55.1162 4.9363
v  105.4024 53.9155 7.0159
v  105.4023 57.5174 4.9363
v  105.4024 58.7181 7.0159
v  105.4023 57.5174 9.0954
v  105.4024 55.1162 9.0954
v  9.9288 49.1402 4.9363
v  9.9288 47.9396 7.0159
v  9.9288 51.5415 4.9363
v  9.9288 52.7421 7.0159
v  9.9288 51.5415 9.0954
v  9.9288 49.1402 9.0954
v  40.7096 48.7347 -7.9582
v  40.7096 49.9353 -10.0378
v  75.0053 52.3792 -10.0378
v  75.0053 51.1785 -7.9582
v  40.7096 52.3366 -10.0378
v  75.0053 54.7804 -10.0378
v  40.7096 53.5372 -7.9582
v  75.0053 55.9811 -7.9582
v  40.7096 52.3366 -5.8787
v  75.0053 54.7804 -5.8787
v  40.7096 49.9353 -5.8787
v  75.0053 52.3792 -5.8787
v  105.4024 55.1162 -10.0378
v  105.4024 53.9155 -7.9582
v  105.4023 57.5174 -10.0378
v  105.4024 58.7181 -7.9582
v  105.4023 57.5174 -5.8787
v  105.4024 55.1162 -5.8787
v  9.9288 49.1402 -10.0378
v  9.9288 47.9396 -7.9582
v  9.9288 51.5415 -10.0378
v  9.9288 52.7421 -7.9582
v  9.9288 51.5415 -5.8787
v  9.9288 49.1402 -5.8787
v  0.0000 98.2500 -0.7607
v  0.0000 99.4506 -2.8402
v  0.0000 101.8519 -2.8402
v  0.0000 103.0525 -0.7607
v  0.0000 101.8519 1.3189
v  0.0000 99.4506 1.3189
v  0.0000 47.9396 7.0159
v  0.0000 49.1402 4.9363
v  0.0000 51.5415 4.9363
v  0.0000 52.7421 7.0159
v  0.0000 51.5415 9.0954
v  0.0000 49.1402 9.0954
v  0.0000 47.9396 -7.9582
v  0.0000 49.1402 -10.0378
v  0.0000 51.5415 -10.0378
v  0.0000 52.7421 -7.9582
v  0.0000 51.5415 -5.8787
v  0.0000 49.1402 -5.8787
v  -46.3726 101.2199 -2.3895
v  -58.6545 90.9141 -2.3895
v  -59.9847 92.4993 -1.1947
v  -47.7028 102.8051 -1.1947
v  -59.9847 92.4993 1.1947
v  -47.7028 102.8051 1.1947
v  -58.6545 90.9141 2.3895
v  -46.3726 101.2199 2.3895
v  -57.3244 89.3289 1.1947
v  -45.0425 99.6347 1.1947
v  -57.3244 89.3289 -1.1947
v  -45.0425 99.6347 -1.1947
v  -70.9364 80.6084 -2.3895
v  -72.2666 82.1936 -1.1947
v  -72.2666 82.1936 1.1947
v  -70.9364 80.6084 2.3895
v  -69.6063 79.0232 1.1947
v  -69.6063 79.0232 -1.1947
v  -83.2184 70.3026 -2.3895
v  -84.5485 71.8878 -1.1947
v  -84.5485 71.8878 1.1947
v  -83.2184 70.3026 2.3895
v  -81.8882 68.7174 1.1947
v  -81.8882 68.7174 -1.1947
v  -95.5003 59.9969 -2.3895
v  -96.8304 61.5821 -1.1947
v  -96.8304 61.5821 1.1947
v  -95.5003 59.9969 2.3895
v  -94.1701 58.4117 1.1947
v  -94.1701 58.4117 -1.1947
v  -107.7822 49.6911 -2.3895
v  -109.1123 51.2763 -1.1947
v  -109.1123 51.2763 1.1947
v  -107.7822 49.6911 2.3894
v  -106.4520 48.1059 1.1947
v  -106.4520 48.1059 -1.1947
v  -46.3726 101.2199 0.0000
v  -107.7822 49.6911 -0.0000
v  -93.6512 50.9999 20.0784
v  -96.4353 50.9999 4.2891
v  -97.6119 53.0692 4.4965
v  -94.8278 53.0692 20.2859
v  -99.9650 53.0692 4.9115
v  -97.1810 53.0692 20.7008
v  -101.1416 50.9999 5.1189
v  -98.3575 50.9999 20.9083
v  -99.9650 48.9305 4.9115
v  -97.1810 48.9305 20.7008
v  -97.6119 48.9305 4.4965
v  -94.8278 48.9305 20.2859
v  -99.2194 50.9999 -11.5002
v  -100.3960 53.0692 -11.2928
v  -102.7491 53.0692 -10.8778
v  -103.9257 50.9999 -10.6704
v  -102.7491 48.9305 -10.8778
v  -100.3960 48.9305 -11.2928
v  -101.1061 50.9999 -22.2007
v  -102.2827 53.0692 -21.9932
v  -104.6359 53.0692 -21.5783
v  -105.8125 50.9999 -21.3708
v  -104.6359 48.9305 -21.5783
v  -102.2827 48.9305 -21.9932
v  -96.0044 50.9999 20.4933
v  -103.4593 50.9999 -21.7858
v  -40.7096 99.0451 -0.7607
v  -75.0053 101.4889 -0.7607
v  -75.0053 102.6896 -2.8402
v  -40.7096 100.2457 -2.8402
v  -75.0053 105.0908 -2.8402
v  -40.7096 102.6470 -2.8402
v  -75.0053 106.2914 -0.7607
v  -40.7096 103.8476 -0.7607
v  -75.0053 105.0908 1.3189
v  -40.7096 102.6470 1.3189
v  -75.0053 102.6896 1.3189
v  -40.7096 100.2457 1.3189
v  -105.4024 104.2259 -0.7607
v  -105.4024 105.4266 -2.8402
v  -105.4024 107.8278 -2.8402
v  -105.4024 109.0284 -0.7607
v  -105.4024 107.8278 1.3189
v  -105.4024 105.4266 1.3189
v  -9.9288 99.4506 -2.8402
v  -9.9288 98.2500 -0.7607
v  -9.9288 101.8519 -2.8402
v  -9.9288 103.0525 -0.7607
v  -9.9288 101.8519 1.3189
v  -9.9288 99.4506 1.3189
v  -88.5738 -1.1756 35.3185
v  -88.3676 22.7138 26.6273
v  -89.9760 23.7120 29.3698
v  -90.0078 -0.3238 37.6587
v  -93.0993 23.6795 29.2806
v  -93.1311 -0.5759 36.9662
v  -94.6142 22.6566 26.4702
v  -94.8205 -1.6602 33.9872
v  -93.1385 21.8293 24.1970
v  -93.4532 -2.4262 31.8826
v  -90.0152 21.8617 24.2862
v  -90.3299 -2.1741 32.5752
v  -89.1468 45.5754 15.1120
v  -90.7679 46.5317 17.7397
v  -93.8913 46.6568 18.0833
v  -95.3935 45.8153 15.7712
v  -93.7317 44.8066 12.9998
v  -90.6083 44.6815 12.6561
v  -88.9259 69.8996 7.6155
v  -90.4540 70.7780 10.0289
v  -93.5774 70.7866 10.0525
v  -95.1726 69.9140 7.6551
v  -93.5673 68.9364 4.9689
v  -90.4440 68.9278 4.9453
v  -89.0029 93.6723 -1.3965
v  -90.5396 94.5598 1.0420
v  -93.6630 94.5683 1.0651
v  -95.2496 93.6770 -1.3836
v  -93.6573 92.7180 -4.0184
v  -90.5339 92.7096 -4.0415
v  -89.1140 117.6098 -9.9557
v  -90.5231 118.3950 -7.7983
v  -93.6465 118.2367 -8.2332
v  -95.3606 117.3016 -10.8023
v  -93.8505 116.3865 -13.3167
v  -90.7271 116.5447 -12.8819
v  -100.9919 -1.7698 -33.6860
v  -101.4307 22.4873 -26.0049
v  -99.8870 23.4239 -28.5782
v  -99.5781 -0.9629 -35.9029
v  -96.7636 23.3337 -28.3305
v  -96.4547 -1.1604 -35.3604
v  -95.1841 22.3231 -25.5538
v  -94.7453 -2.1464 -32.6514
v  -96.6524 21.4835 -23.2470
v  -96.2037 -3.0106 -30.2769
v  -99.7758 21.5736 -23.4947
v  -99.3270 -2.8132 -30.8194
v  -101.2569 46.2832 -17.0568
v  -99.7949 47.1268 -19.3745
v  -96.6715 46.9985 -19.0221
v  -95.0102 46.0382 -16.3836
v  -96.5083 45.1482 -13.9385
v  -99.6316 45.2765 -14.2909
v  -101.3353 70.0221 -7.9521
v  -99.7118 71.0064 -10.6564
v  -96.5885 71.0617 -10.8084
v  -95.0886 70.1269 -8.2398
v  -96.6585 69.2115 -5.7248
v  -99.7818 69.1562 -5.5729
v  -101.6184 94.4216 -0.6623
v  -100.0883 95.3452 -3.1999
v  -96.9650 95.2390 -2.9081
v  -95.3717 94.2210 -0.1112
v  -96.8308 93.3888 2.1754
v  -99.9542 93.4950 1.8836
v  -101.1391 117.7244 9.6409
v  -99.6373 118.6150 7.1938
v  -96.5139 118.5069 7.4908
v  -94.8924 117.5328 10.1672
v  -96.3829 116.6566 12.5743
v  -99.5062 116.7648 12.2773
v  -92.2036 120.1318 -12.1517
v  -98.0120 120.3528 11.5443
v  -40.7096 48.7347 7.0159
v  -75.0053 51.1785 7.0159
v  -75.0053 52.3792 4.9363
v  -40.7096 49.9353 4.9363
v  -75.0053 54.7804 4.9363
v  -40.7096 52.3366 4.9363
v  -75.0053 55.9811 7.0159
v  -40.7096 53.5372 7.0159
v  -75.0053 54.7804 9.0954
v  -40.7096 52.3366 9.0954
v  -75.0053 52.3792 9.0954
v  -40.7096 49.9353 9.0954
v  -105.4024 53.9155 7.0159
v  -105.4024 55.1162 4.9363
v  -105.4023 57.5174 4.9363
v  -105.4024 58.7181 7.0159
v  -105.4023 57.5174 9.0954
v  -105.4024 55.1162 9.0954
v  -9.9288 49.1402 4.9363
v  -9.9288 47.9396 7.0159
v  -9.9288 51.5415 4.9363
v  -9.9288 52.7421 7.0159
v  -9.9288 51.5415 9.0954
v  -9.9288 49.1402 9.0954
v  -40.7096 48.7347 -7.9582
v  -75.0053 51.1785 -7.9582
v  -75.0053 52.3792 -10.0378
v  -40.7096 49.9353 -10.0378
v  -75.0053 54.7804 -10.0378
v  -40.7096 52.3366 -10.0378
v  -75.0053 55.9811 -7.9582
v  -40.7096 53.5372 -7.9582
v  -75.0053 54.7804 -5.8787
v  -40.7096 52.3366 -5.8787
v  -75.0053 52.3792 -5.8787
v  -40.7096 49.9353 -5.8787
v  -105.4024 53.9155 -7.9582
v  -105.4024 55.1162 -10.0378
v  -105.4023 57.5174 -10.0378
v  -105.4024 58.7181 -7.9582
v  -105.4023 57.5174 -5.8787
v  -105.4024 55.1162 -5.8787
v  -9.9288 49.1402 -10.0378
v  -9.9288 47.9396 -7.9582
v  -9.9288 51.5415 -10.0378
v  -9.9288 52.7421 -7.9582
v  -9.9288 51.5415 -5.8787
v  -9.9288 49.1402 -5.8787
# 438 vertices

vn -0.0000 0.0000 -1.0000
vn 0.5567 0.6634 -0.5000
vn 0.0000 0.0000 -1.0000
vn 0.5567 0.6634 0.5000
vn -0.0000 -0.0000 1.0000
vn 0.0000 0.0000 1.0000
vn -0.5567 -0.6634 0.5000
vn -0.5567 -0.6634 -0.5000
vn -0.0000 -0.0000 -1.0000
vn -0.7660 0.6428 -0.0000
vn 0.7660 -0.6428 -0.0000
vn -0.9848 0.0000 -0.1736
vn -0.4924 0.8660 -0.0868
vn -0.9848 -0.0000 -0.1736
vn 0.4924 0.8660 0.0868
vn 0.9848 0.0000 0.1736
vn 0.4924 -0.8660 0.0868
vn -0.4924 -0.8660 -0.0868
vn 0.9848 -0.0000 0.1736
vn -0.1736 0.0000 0.9848
vn -0.1737 -0.0000 0.9848
vn -0.1736 -0.0000 0.9848
vn 0.1736 -0.0000 -0.9848
vn 0.1737 -0.0000 -0.9848
vn 0.1736 0.0000 -0.9848
vn 0.1737 0.0000 -0.9848
vn 0.0417 -0.8653 -0.4996
vn 0.0423 -0.8653 -0.4996
vn 0.0699 -0.8639 -0.4988
vn 0.0695 -0.8639 -0.4988
vn -0.0417 0.8653 -0.4996
vn -0.0423 0.8653 -0.4996
vn -0.0699 0.8639 -0.4988
vn -0.0695 0.8639 -0.4988
vn -0.0423 0.8653 0.4996
vn -0.0417 0.8653 0.4996
vn -0.0695 0.8639 0.4988
vn -0.0699 0.8639 0.4988
vn 0.0000 -0.0000 1.0000
vn 0.0423 -0.8653 0.4996
vn 0.0417 -0.8653 0.4996
vn 0.0695 -0.8639 0.4988
vn 0.0699 -0.8639 0.4988
vn 0.0777 -0.8634 -0.4985
vn -0.0777 0.8634 -0.4985
vn -0.0777 0.8634 0.4985
vn 0.0777 -0.8634 0.4985
vn 1.0000 0.0000 -0.0000
vn 0.0112 -0.8660 -0.5000
vn 0.0111 -0.8660 -0.5000
vn -0.0112 0.8660 -0.5000
vn -0.0111 0.8660 -0.5000
vn -0.0111 0.8660 0.5000
vn -0.0112 0.8660 0.5000
vn 0.0111 -0.8660 0.5000
vn 0.0112 -0.8660 0.5000
vn -0.9999 -0.0124 -0.0066
vn -0.4061 0.2841 0.8685
vn -0.4913 0.3424 0.8009
vn -0.9997 0.0059 -0.0231
vn 0.6163 0.2399 0.7501
vn 0.5244 0.3133 0.7917
vn 0.9990 -0.0056 -0.0454
vn 0.9998 -0.0185 -0.0121
vn 0.3905 -0.2868 -0.8748
vn 0.4842 -0.3321 -0.8095
vn -0.5843 -0.2738 -0.7640
vn -0.5043 -0.3272 -0.7991
vn -0.5536 0.3242 0.7670
vn -0.9998 -0.0002 -0.0213
vn 0.4554 0.3365 0.8243
vn 1.0000 -0.0089 0.0018
vn 0.5459 -0.3162 -0.7759
vn -0.4422 -0.3317 -0.8333
vn -0.4962 0.2828 0.8209
vn -0.9995 0.0071 0.0319
vn 0.4751 0.2935 0.8296
vn 0.9996 0.0131 0.0267
vn 0.5102 -0.2871 -0.8107
vn -0.5139 -0.2860 -0.8088
vn -0.4959 0.3099 0.8112
vn -0.9999 0.0095 0.0132
vn 0.4858 0.3133 0.8160
vn 0.9998 0.0027 0.0182
vn 0.5043 -0.3085 -0.8065
vn -0.5080 -0.2987 -0.8079
vn -0.4244 0.3136 0.8494
vn -0.9993 0.0154 0.0341
vn 0.5450 0.2980 0.7837
vn 0.9999 0.0014 0.0130
vn 0.4378 -0.3317 -0.8357
vn -0.5738 -0.2900 -0.7659
vn 0.9998 -0.0161 -0.0119
vn 0.4185 0.2499 -0.8732
vn 0.4632 0.2883 -0.8380
vn 0.9999 -0.0060 0.0090
vn -0.5840 0.2336 -0.7774
vn -0.5423 0.2740 -0.7942
vn -0.9997 0.0127 0.0216
vn -1.0000 -0.0004 0.0097
vn -0.4172 -0.2502 0.8737
vn -0.4593 -0.2819 0.8424
vn 0.5742 -0.2484 0.7802
vn 0.5329 -0.2736 0.8008
vn 0.4470 0.3107 -0.8389
vn 0.9999 0.0048 -0.0141
vn -0.5493 0.2861 -0.7851
vn -1.0000 -0.0008 0.0018
vn -0.4490 -0.3128 0.8370
vn 0.5549 -0.2956 0.7776
vn 0.5252 0.2729 -0.8061
vn 0.9995 -0.0144 0.0263
vn -0.4933 0.2841 -0.8221
vn -0.9999 0.0015 0.0153
vn -0.5160 -0.2639 0.8149
vn 0.4650 -0.2791 0.8402
vn 0.4560 0.3129 -0.8332
vn 1.0000 0.0049 -0.0012
vn -0.5424 0.2961 -0.7862
vn -0.9999 -0.0076 0.0076
vn -0.4531 -0.3236 0.8306
vn 0.5391 -0.2964 0.7883
vn 0.4603 0.3690 -0.8074
vn 0.9996 0.0062 0.0284
vn -0.5582 0.3294 -0.7615
vn -0.9995 -0.0268 0.0185
vn -0.4477 -0.3713 0.8134
vn 0.5281 -0.3379 0.7790
vn -0.5892 0.8026 0.0928
vn 0.1021 0.9098 0.4024
vn 0.6272 0.7662 0.1396
vn 0.6689 0.4726 -0.5738
vn -0.1214 0.2458 -0.9617
vn -0.7267 0.4112 -0.5503
vn 0.6094 0.7881 -0.0871
vn -0.0691 0.9173 -0.3922
vn -0.6393 0.7610 -0.1103
vn -0.6714 0.4582 0.5825
vn 0.0841 0.2329 0.9689
vn 0.7005 0.4109 0.5834
vn 0.0423 -0.8653 -0.4995
vn 0.0423 -0.8653 0.4995
vn 1.0000 0.0000 0.0000
vn 1.0000 -0.0000 -0.0000
vn 0.0000 -0.8660 -0.5000
vn -0.0000 0.8660 -0.5000
vn 0.0000 0.8660 -0.5000
vn 0.0000 0.8660 0.5000
vn -0.0000 -0.8660 0.5000
vn 0.0000 -0.8660 0.5000
vn -0.0000 -0.8660 -0.5000
vn 0.0000 -0.0000 -1.0000
vn -0.0000 0.8660 0.5000
vn -0.0000 0.0000 1.0000
vn -0.5567 0.6634 -0.5000
vn -0.5567 0.6634 0.5000
vn 0.5567 -0.6634 0.5000
vn 0.5567 -0.6634 -0.5000
vn 0.7660 0.6428 -0.0000
vn -0.7660 -0.6428 -0.0000
vn 0.9848 0.0000 -0.1736
vn 0.9848 -0.0000 -0.1736
vn 0.4924 0.8660 -0.0868
vn -0.4924 0.8660 0.0868
vn -0.9848 0.0000 0.1736
vn -0.4924 -0.8660 0.0868
vn 0.4924 -0.8660 -0.0868
vn -0.9848 -0.0000 0.1736
vn 0.1736 0.0000 0.9848
vn 0.1737 -0.0000 0.9848
vn 0.1736 -0.0000 0.9848
vn -0.1736 -0.0000 -0.9848
vn -0.1737 -0.0000 -0.9848
vn -0.1736 0.0000 -0.9848
vn -0.1737 0.0000 -0.9848
vn -0.0417 -0.8653 -0.4996
vn -0.0695 -0.8639 -0.4988
vn -0.0699 -0.8639 -0.4988
vn -0.0423 -0.8653 -0.4996
vn 0.0417 0.8653 -0.4996
vn 0.0695 0.8639 -0.4988
vn 0.0699 0.8639 -0.4988
vn 0.0423 0.8653 -0.4996
vn 0.0423 0.8653 0.4996
vn 0.0699 0.8639 0.4988
vn 0.0695 0.8639 0.4988
vn 0.0417 0.8653 0.4996
vn -0.0423 -0.8653 0.4996
vn -0.0699 -0.8639 0.4988
vn -0.0695 -0.8639 0.4988
vn -0.0417 -0.8653 0.4996
vn -0.0777 -0.8634 -0.4985
vn 0.0777 0.8634 -0.4985
vn 0.0777 0.8634 0.4985
vn -0.0777 -0.8634 0.4985
vn -1.0000 0.0000 -0.0000
vn -0.0112 -0.8660 -0.5000
vn -0.0111 -0.8660 -0.5000
vn 0.0112 0.8660 -0.5000
vn 0.0111 0.8660 -0.5000
vn 0.0111 0.8660 0.5000
vn 0.0112 0.8660 0.5000
vn -0.0111 -0.8660 0.5000
vn -0.0112 -0.8660 0.5000
vn 0.9999 -0.0124 -0.0066
vn 0.9997 0.0059 -0.0231
vn 0.4913 0.3424 0.8009
vn 0.4061 0.2841 0.8685
vn -0.5244 0.3133 0.7917
vn -0.6163 0.2399 0.7501
vn -0.9998 -0.0185 -0.0121
vn -0.9990 -0.0056 -0.0454
vn -0.4842 -0.3321 -0.8095
vn -0.3905 -0.2868 -0.8748
vn 0.5043 -0.3272 -0.7991
vn 0.5843 -0.2738 -0.7640
vn 0.9998 -0.0002 -0.0213
vn 0.5536 0.3242 0.7670
vn -0.4554 0.3365 0.8243
vn -1.0000 -0.0089 0.0018
vn -0.5459 -0.3162 -0.7759
vn 0.4422 -0.3317 -0.8333
vn 0.9995 0.0071 0.0319
vn 0.4962 0.2828 0.8209
vn -0.4751 0.2935 0.8296
vn -0.9996 0.0131 0.0267
vn -0.5102 -0.2871 -0.8107
vn 0.5139 -0.2860 -0.8088
vn 0.9999 0.0095 0.0132
vn 0.4959 0.3099 0.8112
vn -0.4858 0.3133 0.8160
vn -0.9998 0.0027 0.0182
vn -0.5043 -0.3085 -0.8065
vn 0.5080 -0.2987 -0.8079
vn 0.9993 0.0154 0.0341
vn 0.4244 0.3136 0.8494
vn -0.5450 0.2980 0.7837
vn -0.9999 0.0014 0.0130
vn -0.4378 -0.3317 -0.8357
vn 0.5738 -0.2900 -0.7659
vn -0.9998 -0.0161 -0.0119
vn -0.9999 -0.0060 0.0090
vn -0.4632 0.2883 -0.8380
vn -0.4185 0.2499 -0.8732
vn 0.5423 0.2740 -0.7942
vn 0.5840 0.2336 -0.7774
vn 1.0000 -0.0004 0.0097
vn 0.9997 0.0127 0.0216
vn 0.4593 -0.2819 0.8424
vn 0.4172 -0.2502 0.8737
vn -0.5329 -0.2736 0.8008
vn -0.5742 -0.2484 0.7802
vn -0.9999 0.0048 -0.0141
vn -0.4470 0.3107 -0.8389
vn 0.5493 0.2861 -0.7851
vn 1.0000 -0.0008 0.0018
vn 0.4490 -0.3128 0.8370
vn -0.5549 -0.2956 0.7776
vn -0.9995 -0.0144 0.0263
vn -0.5252 0.2729 -0.8061
vn 0.4933 0.2841 -0.8221
vn 0.9999 0.0015 0.0153
vn 0.5160 -0.2639 0.8149
vn -0.4650 -0.2791 0.8402
vn -1.0000 0.0049 -0.0012
vn -0.4560 0.3129 -0.8332
vn 0.5424 0.2961 -0.7862
vn 0.9999 -0.0076 0.0076
vn 0.4531 -0.3236 0.8306
vn -0.5391 -0.2964 0.7883
vn -0.9996 0.0062 0.0284
vn -0.4603 0.3690 -0.8074
vn 0.5582 0.3294 -0.7615
vn 0.9995 -0.0268 0.0185
vn 0.4477 -0.3713 0.8134
vn -0.5281 -0.3379 0.7790
vn 0.5892 0.8026 0.0928
vn -0.1021 0.9098 0.4024
vn -0.6272 0.7662 0.1396
vn -0.6689 0.4726 -0.5738
vn 0.1214 0.2458 -0.9617
vn 0.7267 0.4112 -0.5503
vn -0.6094 0.7881 -0.0871
vn 0.0691 0.9173 -0.3922
vn 0.6393 0.7610 -0.1103
vn 0.6714 0.4582 0.5825
vn -0.0841 0.2329 0.9689
vn -0.7005 0.4109 0.5834
vn -0.0423 -0.8653 -0.4995
vn -0.0423 -0.8653 0.4995
vn -1.0000 0.0000 0.0000
vn -1.0000 -0.0000 -0.0000
# 292 vertex normals

vt 0.8964 0.0178 0.0000
vt 0.9135 0.0178 0.0000
vt 0.9135 0.1322 0.0000
vt 0.8964 0.1322 0.0000
vt 0.9305 0.0178 0.0000
vt 0.9305 0.1322 0.0000
vt 0.9476 0.0178 0.0000
vt 0.9476 0.1322 0.0000
vt 0.9647 0.0178 0.0000
vt 0.9647 0.1322 0.0000
vt 0.9818 0.0178 0.0000
vt 0.9818 0.1322 0.0000
vt 0.8793 0.0178 0.0000
vt 0.8793 0.1322 0.0000
vt 0.9135 0.2468 0.0000
vt 0.8964 0.2468 0.0000
vt 0.9305 0.2468 0.0000
vt 0.9476 0.2468 0.0000
vt 0.9647 0.2468 0.0000
vt 0.9818 0.2468 0.0000
vt 0.8793 0.2468 0.0000
vt 0.9135 0.3614 0.0000
vt 0.8964 0.3614 0.0000
vt 0.9305 0.3614 0.0000
vt 0.9476 0.3614 0.0000
vt 0.9647 0.3614 0.0000
vt 0.9818 0.3614 0.0000
vt 0.8793 0.3614 0.0000
vt 0.9135 0.4761 0.0000
vt 0.8964 0.4761 0.0000
vt 0.9305 0.4761 0.0000
vt 0.9476 0.4761 0.0000
vt 0.9647 0.4761 0.0000
vt 0.9818 0.4761 0.0000
vt 0.8793 0.4761 0.0000
vt 0.9135 0.5907 0.0000
vt 0.8964 0.5907 0.0000
vt 0.9305 0.5907 0.0000
vt 0.9476 0.5907 0.0000
vt 0.9647 0.5907 0.0000
vt 0.9818 0.5907 0.0000
vt 0.8793 0.5907 0.0000
vt 0.8504 0.8701 0.0000
vt 0.8097 0.8936 0.0000
vt 0.8097 0.8466 0.0000
vt 0.8504 0.8231 0.0000
vt 0.8097 0.7996 0.0000
vt 0.7690 0.8231 0.0000
vt 0.7690 0.8701 0.0000
vt 0.7264 0.0181 0.0000
vt 0.7552 0.0181 0.0000
vt 0.7552 0.2119 0.0000
vt 0.7264 0.2119 0.0000
vt 0.7841 0.0181 0.0000
vt 0.7841 0.2119 0.0000
vt 0.8130 0.0181 0.0000
vt 0.8130 0.2119 0.0000
vt 0.8419 0.0181 0.0000
vt 0.8419 0.2119 0.0000
vt 0.8708 0.0181 0.0000
vt 0.8708 0.2119 0.0000
vt 0.6975 0.0181 0.0000
vt 0.6975 0.2119 0.0000
vt 0.7552 0.4058 0.0000
vt 0.7264 0.4058 0.0000
vt 0.7841 0.4058 0.0000
vt 0.8130 0.4058 0.0000
vt 0.8419 0.4058 0.0000
vt 0.8708 0.4058 0.0000
vt 0.6975 0.4058 0.0000
vt 0.7552 0.5371 0.0000
vt 0.7263 0.5371 0.0000
vt 0.7841 0.5371 0.0000
vt 0.8130 0.5371 0.0000
vt 0.8419 0.5371 0.0000
vt 0.8708 0.5371 0.0000
vt 0.6975 0.5371 0.0000
vt 0.8931 0.9004 0.0000
vt 0.8655 0.8519 0.0000
vt 0.9206 0.8519 0.0000
vt 0.9482 0.9004 0.0000
vt 0.9758 0.8519 0.0000
vt 0.9482 0.8034 0.0000
vt 0.8931 0.8034 0.0000
vt 0.3383 0.3557 0.0000
vt 0.3555 0.3557 0.0000
vt 0.3555 0.5873 0.0000
vt 0.3383 0.5873 0.0000
vt 0.3726 0.3557 0.0000
vt 0.3726 0.5873 0.0000
vt 0.3897 0.3557 0.0000
vt 0.3897 0.5873 0.0000
vt 0.4068 0.3557 0.0000
vt 0.4068 0.5873 0.0000
vt 0.4239 0.3557 0.0000
vt 0.4239 0.5873 0.0000
vt 0.4410 0.3557 0.0000
vt 0.4410 0.5873 0.0000
vt 0.3555 0.8051 0.0000
vt 0.3383 0.8051 0.0000
vt 0.3726 0.8051 0.0000
vt 0.3897 0.8051 0.0000
vt 0.4068 0.8051 0.0000
vt 0.4239 0.8051 0.0000
vt 0.4410 0.8051 0.0000
vt 0.8447 0.7045 0.0000
vt 0.8447 0.7594 0.0000
vt 0.7971 0.7869 0.0000
vt 0.7496 0.7045 0.0000
vt 0.7496 0.7594 0.0000
vt 0.7971 0.6771 0.0000
vt 0.3555 0.1361 0.0000
vt 0.3383 0.1361 0.0000
vt 0.3726 0.1361 0.0000
vt 0.3897 0.1361 0.0000
vt 0.4068 0.1361 0.0000
vt 0.4239 0.1361 0.0000
vt 0.4410 0.1361 0.0000
vt 0.2495 0.0164 0.0000
vt 0.2712 0.0164 0.0000
vt 0.2712 0.1970 0.0000
vt 0.2495 0.1970 0.0000
vt 0.2942 0.0164 0.0000
vt 0.2942 0.1970 0.0000
vt 0.3197 0.0164 0.0000
vt 0.3197 0.1970 0.0000
vt 0.1843 0.0164 0.0000
vt 0.2055 0.0164 0.0000
vt 0.2055 0.1970 0.0000
vt 0.1843 0.1970 0.0000
vt 0.2296 0.0164 0.0000
vt 0.2296 0.1970 0.0000
vt 0.2712 0.3782 0.0000
vt 0.2495 0.3782 0.0000
vt 0.2942 0.3782 0.0000
vt 0.3197 0.3782 0.0000
vt 0.2055 0.3782 0.0000
vt 0.1843 0.3782 0.0000
vt 0.2296 0.3782 0.0000
vt 0.2712 0.5606 0.0000
vt 0.2495 0.5606 0.0000
vt 0.2942 0.5606 0.0000
vt 0.3197 0.5606 0.0000
vt 0.2055 0.5606 0.0000
vt 0.1843 0.5606 0.0000
vt 0.2296 0.5606 0.0000
vt 0.2712 0.7442 0.0000
vt 0.2495 0.7442 0.0000
vt 0.2942 0.7442 0.0000
vt 0.3197 0.7442 0.0000
vt 0.2055 0.7442 0.0000
vt 0.1843 0.7442 0.0000
vt 0.2296 0.7442 0.0000
vt 0.2712 0.9283 0.0000
vt 0.2495 0.9283 0.0000
vt 0.2942 0.9283 0.0000
vt 0.3197 0.9283 0.0000
vt 0.2055 0.9283 0.0000
vt 0.1843 0.9283 0.0000
vt 0.2296 0.9283 0.0000
vt 0.0868 0.0118 0.0000
vt 0.1078 0.0118 0.0000
vt 0.1078 0.1943 0.0000
vt 0.0868 0.1943 0.0000
vt 0.1309 0.0118 0.0000
vt 0.1309 0.1943 0.0000
vt 0.1549 0.0118 0.0000
vt 0.1549 0.1943 0.0000
vt 0.0217 0.0118 0.0000
vt 0.0432 0.0118 0.0000
vt 0.0432 0.1943 0.0000
vt 0.0217 0.1943 0.0000
vt 0.0662 0.0118 0.0000
vt 0.0662 0.1943 0.0000
vt 0.1078 0.3765 0.0000
vt 0.0868 0.3765 0.0000
vt 0.1309 0.3765 0.0000
vt 0.1549 0.3765 0.0000
vt 0.0432 0.3765 0.0000
vt 0.0217 0.3765 0.0000
vt 0.0662 0.3765 0.0000
vt 0.1078 0.5584 0.0000
vt 0.0868 0.5584 0.0000
vt 0.1309 0.5584 0.0000
vt 0.1549 0.5584 0.0000
vt 0.0432 0.5584 0.0000
vt 0.0217 0.5584 0.0000
vt 0.0662 0.5584 0.0000
vt 0.1078 0.7401 0.0000
vt 0.0868 0.7401 0.0000
vt 0.1309 0.7401 0.0000
vt 0.1549 0.7401 0.0000
vt 0.0432 0.7401 0.0000
vt 0.0217 0.7401 0.0000
vt 0.0662 0.7401 0.0000
vt 0.1078 0.9219 0.0000
vt 0.0868 0.9219 0.0000
vt 0.1309 0.9219 0.0000
vt 0.1549 0.9219 0.0000
vt 0.0432 0.9219 0.0000
vt 0.0217 0.9219 0.0000
vt 0.0662 0.9219 0.0000
vt 0.9740 0.7442 0.0000
vt 0.9488 0.7853 0.0000
vt 0.9208 0.7364 0.0000
vt 0.8963 0.7803 0.0000
vt 0.8691 0.7353 0.0000
vt 0.8941 0.6949 0.0000
vt 0.9466 0.6999 0.0000
vt 0.5786 0.3557 0.0000
vt 0.5957 0.3557 0.0000
vt 0.5957 0.5873 0.0000
vt 0.5786 0.5873 0.0000
vt 0.6128 0.3557 0.0000
vt 0.6128 0.5873 0.0000
vt 0.6299 0.3557 0.0000
vt 0.6299 0.5873 0.0000
vt 0.6470 0.3557 0.0000
vt 0.6470 0.5873 0.0000
vt 0.6641 0.3557 0.0000
vt 0.6641 0.5873 0.0000
vt 0.6812 0.3557 0.0000
vt 0.6812 0.5873 0.0000
vt 0.5957 0.8051 0.0000
vt 0.5786 0.8051 0.0000
vt 0.6128 0.8051 0.0000
vt 0.6299 0.8051 0.0000
vt 0.6470 0.8051 0.0000
vt 0.6641 0.8051 0.0000
vt 0.6812 0.8051 0.0000
vt 0.5957 0.1361 0.0000
vt 0.5786 0.1361 0.0000
vt 0.6128 0.1361 0.0000
vt 0.6299 0.1361 0.0000
vt 0.6470 0.1361 0.0000
vt 0.6641 0.1361 0.0000
vt 0.6812 0.1361 0.0000
vt 0.4613 0.3557 0.0000
vt 0.4785 0.3557 0.0000
vt 0.4785 0.5873 0.0000
vt 0.4613 0.5873 0.0000
vt 0.4956 0.3557 0.0000
vt 0.4956 0.5873 0.0000
vt 0.5127 0.3557 0.0000
vt 0.5127 0.5873 0.0000
vt 0.5298 0.3557 0.0000
vt 0.5298 0.5873 0.0000
vt 0.5469 0.3557 0.0000
vt 0.5469 0.5873 0.0000
vt 0.5640 0.3557 0.0000
vt 0.5640 0.5873 0.0000
vt 0.4785 0.8050 0.0000
vt 0.4613 0.8050 0.0000
vt 0.4956 0.8050 0.0000
vt 0.5127 0.8050 0.0000
vt 0.5298 0.8050 0.0000
vt 0.5469 0.8050 0.0000
vt 0.5640 0.8050 0.0000
vt 0.4785 0.1361 0.0000
vt 0.4613 0.1361 0.0000
vt 0.4956 0.1361 0.0000
vt 0.5127 0.1361 0.0000
vt 0.5298 0.1361 0.0000
vt 0.5469 0.1361 0.0000
vt 0.5640 0.1361 0.0000
vt 0.3383 0.0158 0.0000
vt 0.3555 0.0158 0.0000
vt 0.3726 0.0158 0.0000
vt 0.3897 0.0158 0.0000
vt 0.4068 0.0158 0.0000
vt 0.4239 0.0158 0.0000
vt 0.4410 0.0158 0.0000
vt 0.5786 0.0158 0.0000
vt 0.5957 0.0158 0.0000
vt 0.6128 0.0158 0.0000
vt 0.6299 0.0158 0.0000
vt 0.6470 0.0158 0.0000
vt 0.6641 0.0158 0.0000
vt 0.6812 0.0158 0.0000
vt 0.4613 0.0158 0.0000
vt 0.4785 0.0158 0.0000
vt 0.4956 0.0158 0.0000
vt 0.5127 0.0158 0.0000
vt 0.5298 0.0158 0.0000
vt 0.5469 0.0158 0.0000
vt 0.5640 0.0158 0.0000
# 286 texture coords

g Fish_Rack
s 8
f 1/1/1 2/2/2 3/3/2 4/4/3 
f 2/2/2 5/5/4 6/6/4 3/3/2 
f 5/5/4 7/7/5 8/8/6 6/6/4 
f 7/7/5 9/9/7 10/10/7 8/8/6 
f 9/9/7 11/11/8 12/12/8 10/10/7 
f 11/13/8 1/1/1 4/4/3 12/14/8 
f 4/4/3 3/3/2 13/15/2 14/16/3 
f 3/3/2 6/6/4 15/17/4 13/15/2 
f 6/6/4 8/8/6 16/18/5 15/17/4 
f 8/8/6 10/10/7 17/19/7 16/18/5 
f 10/10/7 12/12/8 18/20/8 17/19/7 
f 12/14/8 4/4/3 14/16/3 18/21/8 
f 14/16/3 13/15/2 19/22/2 20/23/3 
f 13/15/2 15/17/4 21/24/4 19/22/2 
f 15/17/4 16/18/5 22/25/6 21/24/4 
f 16/18/5 17/19/7 23/26/7 22/25/6 
f 17/19/7 18/20/8 24/27/8 23/26/7 
f 18/21/8 14/16/3 20/23/3 24/28/8 
f 20/23/3 19/22/2 25/29/2 26/30/3 
f 19/22/2 21/24/4 27/31/4 25/29/2 
f 21/24/4 22/25/6 28/32/6 27/31/4 
f 22/25/6 23/26/7 29/33/7 28/32/6 
f 23/26/7 24/27/8 30/34/8 29/33/7 
f 24/28/8 20/23/3 26/30/3 30/35/8 
f 26/30/3 25/29/2 31/36/2 32/37/9 
f 25/29/2 27/31/4 33/38/4 31/36/2 
f 27/31/4 28/32/6 34/39/5 33/38/4 
f 28/32/6 29/33/7 35/40/7 34/39/5 
f 29/33/7 30/34/8 36/41/8 35/40/7 
f 30/35/8 26/30/3 32/37/9 36/42/8 
s off
f 2/43/10 1/44/10 37/45/10 
f 5/46/10 2/43/10 37/45/10 
f 7/47/10 5/46/10 37/45/10 
f 9/48/10 7/47/10 37/45/10 
f 11/49/10 9/48/10 37/45/10 
f 1/44/10 11/49/10 37/45/10 
f 32/44/11 31/49/11 38/45/11 
f 31/49/11 33/48/11 38/45/11 
f 33/48/11 34/47/11 38/45/11 
f 34/47/11 35/46/11 38/45/11 
f 35/46/11 36/43/11 38/45/11 
f 36/43/11 32/44/11 38/45/11 
s 8
f 39/50/12 40/51/13 41/52/13 42/53/14 
f 40/51/13 43/54/15 44/55/15 41/52/13 
f 43/54/15 45/56/16 46/57/16 44/55/15 
f 45/56/16 47/58/17 48/59/17 46/57/16 
f 47/58/17 49/60/18 50/61/18 48/59/17 
f 49/62/18 39/50/12 42/53/14 50/63/18 
f 42/53/14 41/52/13 51/64/13 52/65/12 
f 41/52/13 44/55/15 53/66/15 51/64/13 
f 44/55/15 46/57/16 54/67/19 53/66/15 
f 46/57/16 48/59/17 55/68/17 54/67/19 
f 48/59/17 50/61/18 56/69/18 55/68/17 
f 50/63/18 42/53/14 52/65/12 56/70/18 
f 52/65/12 51/64/13 57/71/13 58/72/12 
f 51/64/13 53/66/15 59/73/15 57/71/13 
f 53/66/15 54/67/19 60/74/19 59/73/15 
f 54/67/19 55/68/17 61/75/17 60/74/19 
f 55/68/17 56/69/18 62/76/18 61/75/17 
f 56/70/18 52/65/12 58/72/12 62/77/18 
s off
f 40/78/20 39/79/20 63/80/20 
f 43/81/21 40/78/21 63/80/21 
f 45/82/22 43/81/22 63/80/22 
f 47/83/22 45/82/22 63/80/22 
f 49/84/22 47/83/22 63/80/22 
f 39/79/22 49/84/22 63/80/22 
f 58/79/23 57/78/23 64/80/23 
f 57/78/24 59/81/24 64/80/24 
f 59/81/25 60/82/25 64/80/25 
f 60/82/23 61/83/23 64/80/23 
f 61/83/26 62/84/26 64/80/26 
f 62/84/25 58/79/25 64/80/25 
s 1
f 65/85/27 66/86/28 67/87/29 68/88/30 
s 2
f 66/86/1 69/89/1 70/90/1 67/87/1 
s 1
f 69/89/31 71/91/32 72/92/33 70/90/34 
s 2
f 71/91/35 73/93/36 74/94/37 72/92/38 
s 1
f 73/93/39 75/95/39 76/96/39 74/94/39 
s 2
f 75/95/40 65/97/41 68/98/42 76/96/43 
s 1
f 68/88/30 67/87/29 77/99/44 78/100/44 
s 2
f 67/87/1 70/90/1 79/101/1 77/99/1 
s 1
f 70/90/34 72/92/33 80/102/45 79/101/45 
s 2
f 72/92/38 74/94/37 81/103/46 80/102/46 
s 1
f 74/94/39 76/96/39 82/104/39 81/103/39 
s 2
f 76/96/43 68/98/42 78/105/47 82/104/47 
s 4
f 77/106/48 79/107/48 80/108/48 82/109/48 
f 80/108/48 81/110/48 82/109/48 
f 78/111/48 77/106/48 82/109/48 
s 1
f 83/112/49 66/86/28 65/85/27 84/113/50 
s 2
f 85/114/1 69/89/1 66/86/1 83/112/1 
s 1
f 86/115/51 71/91/32 69/89/31 85/114/52 
s 2
f 87/116/53 73/93/36 71/91/35 86/115/54 
s 1
f 88/117/39 75/95/39 73/93/39 87/116/39 
s 2
f 84/118/55 65/97/41 75/95/40 88/117/56 
s 8
f 89/119/57 90/120/58 91/121/59 92/122/60 
f 90/120/58 93/123/61 94/124/62 91/121/59 
f 93/123/61 95/125/63 96/126/64 94/124/62 
f 95/127/63 97/128/65 98/129/66 96/130/64 
f 97/128/65 99/131/67 100/132/68 98/129/66 
f 99/131/67 89/119/57 92/122/60 100/132/68 
f 92/122/60 91/121/59 101/133/69 102/134/70 
f 91/121/59 94/124/62 103/135/71 101/133/69 
f 94/124/62 96/126/64 104/136/72 103/135/71 
f 96/130/64 98/129/66 105/137/73 104/138/72 
f 98/129/66 100/132/68 106/139/74 105/137/73 
f 100/132/68 92/122/60 102/134/70 106/139/74 
f 102/134/70 101/133/69 107/140/75 108/141/76 
f 101/133/69 103/135/71 109/142/77 107/140/75 
f 103/135/71 104/136/72 110/143/78 109/142/77 
f 104/138/72 105/137/73 111/144/79 110/145/78 
f 105/137/73 106/139/74 112/146/80 111/144/79 
f 106/139/74 102/134/70 108/141/76 112/146/80 
f 108/141/76 107/140/75 113/147/81 114/148/82 
f 107/140/75 109/142/77 115/149/83 113/147/81 
f 109/142/77 110/143/78 116/150/84 115/149/83 
f 110/145/78 111/144/79 117/151/85 116/152/84 
f 111/144/79 112/146/80 118/153/86 117/151/85 
f 112/146/80 108/141/76 114/148/82 118/153/86 
f 114/148/82 113/147/81 119/154/87 120/155/88 
f 113/147/81 115/149/83 121/156/89 119/154/87 
f 115/149/83 116/150/84 122/157/90 121/156/89 
f 116/152/84 117/151/85 123/158/91 122/159/90 
f 117/151/85 118/153/86 124/160/92 123/158/91 
f 118/153/86 114/148/82 120/155/88 124/160/92 
f 125/161/93 126/162/94 127/163/95 128/164/96 
f 126/162/94 129/165/97 130/166/98 127/163/95 
f 129/165/97 131/167/99 132/168/100 130/166/98 
f 131/169/99 133/170/101 134/171/102 132/172/100 
f 133/170/101 135/173/103 136/174/104 134/171/102 
f 135/173/103 125/161/93 128/164/96 136/174/104 
f 128/164/96 127/163/95 137/175/105 138/176/106 
f 127/163/95 130/166/98 139/177/107 137/175/105 
f 130/166/98 132/168/100 140/178/108 139/177/107 
f 132/172/100 134/171/102 141/179/109 140/180/108 
f 134/171/102 136/174/104 142/181/110 141/179/109 
f 136/174/104 128/164/96 138/176/106 142/181/110 
f 138/176/106 137/175/105 143/182/111 144/183/112 
f 137/175/105 139/177/107 145/184/113 143/182/111 
f 139/177/107 140/178/108 146/185/114 145/184/113 
f 140/180/108 141/179/109 147/186/115 146/187/114 
f 141/179/109 142/181/110 148/188/116 147/186/115 
f 142/181/110 138/176/106 144/183/112 148/188/116 
f 144/183/112 143/182/111 149/189/117 150/190/118 
f 143/182/111 145/184/113 151/191/119 149/189/117 
f 145/184/113 146/185/114 152/192/120 151/191/119 
f 146/187/114 147/186/115 153/193/121 152/194/120 
f 147/186/115 148/188/116 154/195/122 153/193/121 
f 148/188/116 144/183/112 150/190/118 154/195/122 
f 150/190/118 149/189/117 155/196/123 156/197/124 
f 149/189/117 151/191/119 157/198/125 155/196/123 
f 151/191/119 152/192/120 158/199/126 157/198/125 
f 152/194/120 153/193/121 159/200/127 158/201/126 
f 153/193/121 154/195/122 160/202/128 159/200/127 
f 154/195/122 150/190/118 156/197/124 160/202/128 
s off
f 120/203/129 119/204/129 161/205/129 
f 119/204/130 121/206/130 161/205/130 
f 121/206/131 122/207/131 161/205/131 
f 122/207/132 123/208/132 161/205/132 
f 123/208/133 124/209/133 161/205/133 
f 124/209/134 120/203/134 161/205/134 
f 156/203/135 155/204/135 162/205/135 
f 155/204/136 157/206/136 162/205/136 
f 157/206/137 158/207/137 162/205/137 
f 158/207/138 159/208/138 162/205/138 
f 159/208/139 160/209/139 162/205/139 
f 160/209/140 156/203/140 162/205/140 
s 1
f 163/210/27 164/211/141 165/212/29 166/213/30 
s 2
f 164/211/1 167/214/1 168/215/1 165/212/1 
s 1
f 167/214/31 169/216/32 170/217/33 168/215/34 
s 2
f 169/216/35 171/218/36 172/219/37 170/217/38 
s 1
f 171/218/39 173/220/39 174/221/6 172/219/6 
s 2
f 173/220/142 163/222/41 166/223/42 174/221/43 
s 1
f 166/213/30 165/212/29 175/224/44 176/225/44 
s 2
f 165/212/1 168/215/1 177/226/1 175/224/1 
s 1
f 168/215/34 170/217/33 178/227/45 177/226/45 
s 2
f 170/217/38 172/219/37 179/228/46 178/227/46 
s 1
f 172/219/6 174/221/6 180/229/39 179/228/39 
s 2
f 174/221/43 166/223/42 176/230/47 180/229/47 
s 4
f 175/106/48 177/107/48 178/108/143 180/109/143 
f 178/108/143 179/110/143 180/109/143 
f 176/111/144 175/106/48 180/109/143 
s 1
f 181/231/49 164/211/141 163/210/27 182/232/50 
s 2
f 183/233/9 167/214/1 164/211/1 181/231/9 
s 1
f 184/234/51 169/216/32 167/214/31 183/233/52 
s 2
f 185/235/53 171/218/36 169/216/35 184/234/54 
s 1
f 186/236/39 173/220/39 171/218/39 185/235/6 
s 2
f 182/237/55 163/222/41 173/220/142 186/236/56 
s 1
f 187/238/27 188/239/141 189/240/29 190/241/30 
s 2
f 188/239/9 191/242/1 192/243/3 189/240/3 
s 1
f 191/242/31 193/244/32 194/245/33 192/243/34 
s 2
f 193/244/35 195/246/36 196/247/37 194/245/38 
s 1
f 195/246/39 197/248/39 198/249/39 196/247/39 
s 2
f 197/248/142 187/250/41 190/251/42 198/249/43 
s 1
f 190/241/30 189/240/29 199/252/44 200/253/44 
s 2
f 189/240/3 192/243/3 201/254/1 199/252/1 
s 1
f 192/243/34 194/245/33 202/255/45 201/254/45 
s 2
f 194/245/38 196/247/37 203/256/46 202/255/46 
s 1
f 196/247/39 198/249/39 204/257/39 203/256/39 
s 2
f 198/249/43 190/251/42 200/258/47 204/257/47 
s 4
f 199/106/48 201/107/48 202/108/48 204/109/143 
f 202/108/48 203/110/143 204/109/143 
f 200/111/144 199/106/48 204/109/143 
s 1
f 205/259/49 188/239/141 187/238/27 206/260/50 
s 2
f 207/261/9 191/242/1 188/239/9 205/259/9 
s 1
f 208/262/51 193/244/32 191/242/31 207/261/52 
s 2
f 209/263/53 195/246/36 193/244/35 208/262/54 
s 1
f 210/264/39 197/248/39 195/246/39 209/263/39 
s 2
f 206/265/55 187/250/41 197/248/142 210/264/56 
s 1
f 83/112/49 84/113/50 211/266/145 212/267/145 
s 2
f 85/114/1 83/112/1 212/267/1 213/268/3 
s 1
f 86/115/51 85/114/52 213/268/146 214/269/147 
s 2
f 87/116/53 86/115/54 214/269/148 215/270/148 
s 1
f 88/117/39 87/116/39 215/270/5 216/271/39 
s 2
f 84/118/55 88/117/56 216/271/149 211/272/150 
s 1
f 181/231/49 182/232/50 217/273/151 218/274/151 
s 2
f 183/233/9 181/231/9 218/274/9 219/275/3 
s 1
f 184/234/51 183/233/52 219/275/146 220/276/147 
s 2
f 185/235/53 184/234/54 220/276/148 221/277/148 
s 1
f 186/236/39 185/235/6 221/277/6 222/278/6 
s 2
f 182/237/55 186/236/56 222/278/149 217/279/150 
s 1
f 205/259/49 206/260/50 223/280/151 224/281/151 
s 2
f 207/261/9 205/259/9 224/281/9 225/282/152 
s 1
f 208/262/51 207/261/52 225/282/147 226/283/147 
s 2
f 209/263/53 208/262/54 226/283/153 227/284/148 
s 1
f 210/264/39 209/263/39 227/284/154 228/285/154 
s 2
f 206/265/55 210/264/56 228/285/149 223/286/149 
s 8
f 229/1/3 230/4/1 231/3/155 232/2/155 
f 232/2/155 231/3/155 233/6/156 234/5/156 
f 234/5/156 233/6/156 235/8/154 236/7/39 
f 236/7/39 235/8/154 237/10/157 238/9/157 
f 238/9/157 237/10/157 239/12/158 240/11/158 
f 240/13/158 239/14/158 230/4/1 229/1/3 
f 230/4/1 241/16/1 242/15/155 231/3/155 
f 231/3/155 242/15/155 243/17/156 233/6/156 
f 233/6/156 243/17/156 244/18/39 235/8/154 
f 235/8/154 244/18/39 245/19/157 237/10/157 
f 237/10/157 245/19/157 246/20/158 239/12/158 
f 239/14/158 246/21/158 241/16/1 230/4/1 
f 241/16/1 247/23/1 248/22/155 242/15/155 
f 242/15/155 248/22/155 249/24/156 243/17/156 
f 243/17/156 249/24/156 250/25/154 244/18/39 
f 244/18/39 250/25/154 251/26/157 245/19/157 
f 245/19/157 251/26/157 252/27/158 246/20/158 
f 246/21/158 252/28/158 247/23/1 241/16/1 
f 247/23/1 253/30/1 254/29/155 248/22/155 
f 248/22/155 254/29/155 255/31/156 249/24/156 
f 249/24/156 255/31/156 256/32/154 250/25/154 
f 250/25/154 256/32/154 257/33/157 251/26/157 
f 251/26/157 257/33/157 258/34/158 252/27/158 
f 252/28/158 258/35/158 253/30/1 247/23/1 
f 253/30/1 259/37/9 260/36/155 254/29/155 
f 254/29/155 260/36/155 261/38/156 255/31/156 
f 255/31/156 261/38/156 262/39/39 256/32/154 
f 256/32/154 262/39/39 263/40/157 257/33/157 
f 257/33/157 263/40/157 264/41/158 258/34/158 
f 258/35/158 264/42/158 259/37/9 253/30/1 
s off
f 232/43/159 265/45/159 229/44/159 
f 234/46/159 265/45/159 232/43/159 
f 236/47/159 265/45/159 234/46/159 
f 238/48/159 265/45/159 236/47/159 
f 240/49/159 265/45/159 238/48/159 
f 229/44/159 265/45/159 240/49/159 
f 259/44/160 266/45/160 260/49/160 
f 260/49/160 266/45/160 261/48/160 
f 261/48/160 266/45/160 262/47/160 
f 262/47/160 266/45/160 263/46/160 
f 263/46/160 266/45/160 264/43/160 
f 264/43/160 266/45/160 259/44/160 
s 8
f 267/50/161 268/53/162 269/52/163 270/51/163 
f 270/51/163 269/52/163 271/55/164 272/54/164 
f 272/54/164 271/55/164 273/57/165 274/56/165 
f 274/56/165 273/57/165 275/59/166 276/58/166 
f 276/58/166 275/59/166 277/61/167 278/60/167 
f 278/62/167 277/63/167 268/53/162 267/50/161 
f 268/53/162 279/65/161 280/64/163 269/52/163 
f 269/52/163 280/64/163 281/66/164 271/55/164 
f 271/55/164 281/66/164 282/67/168 273/57/165 
f 273/57/165 282/67/168 283/68/166 275/59/166 
f 275/59/166 283/68/166 284/69/167 277/61/167 
f 277/63/167 284/70/167 279/65/161 268/53/162 
f 279/65/161 285/72/161 286/71/163 280/64/163 
f 280/64/163 286/71/163 287/73/164 281/66/164 
f 281/66/164 287/73/164 288/74/168 282/67/168 
f 282/67/168 288/74/168 289/75/166 283/68/166 
f 283/68/166 289/75/166 290/76/167 284/69/167 
f 284/70/167 290/77/167 285/72/161 279/65/161 
s off
f 270/78/169 291/80/169 267/79/169 
f 272/81/170 291/80/170 270/78/170 
f 274/82/171 291/80/171 272/81/171 
f 276/83/171 291/80/171 274/82/171 
f 278/84/171 291/80/171 276/83/171 
f 267/79/171 291/80/171 278/84/171 
f 285/79/172 292/80/172 286/78/172 
f 286/78/173 292/80/173 287/81/173 
f 287/81/174 292/80/174 288/82/174 
f 288/82/172 292/80/172 289/83/172 
f 289/83/175 292/80/175 290/84/175 
f 290/84/174 292/80/174 285/79/174 
s 1
f 293/85/176 294/88/177 295/87/178 296/86/179 
s 2
f 296/86/3 295/87/3 297/90/3 298/89/3 
s 1
f 298/89/180 297/90/181 299/92/182 300/91/183 
s 2
f 300/91/184 299/92/185 301/94/186 302/93/187 
s 1
f 302/93/5 301/94/5 303/96/5 304/95/5 
s 2
f 304/95/188 303/96/189 294/98/190 293/97/191 
s 1
f 294/88/177 305/100/192 306/99/192 295/87/178 
s 2
f 295/87/3 306/99/3 307/101/3 297/90/3 
s 1
f 297/90/181 307/101/193 308/102/193 299/92/182 
s 2
f 299/92/185 308/102/194 309/103/194 301/94/186 
s 1
f 301/94/5 309/103/5 310/104/5 303/96/5 
s 2
f 303/96/189 310/104/195 305/105/195 294/98/190 
s 4
f 310/109/196 309/110/196 308/108/196 306/106/196 
f 308/108/196 307/107/196 306/106/196 
f 305/111/196 310/109/196 306/106/196 
s 1
f 311/112/197 312/113/198 293/85/176 296/86/179 
s 2
f 313/114/3 311/112/3 296/86/3 298/89/3 
s 1
f 314/115/199 313/114/200 298/89/180 300/91/183 
s 2
f 315/116/201 314/115/202 300/91/184 302/93/187 
s 1
f 316/117/5 315/116/5 302/93/5 304/95/5 
s 2
f 312/118/203 316/117/204 304/95/188 293/97/191 
s 8
f 317/119/205 318/122/206 319/121/207 320/120/208 
f 320/120/208 319/121/207 321/124/209 322/123/210 
f 322/123/210 321/124/209 323/126/211 324/125/212 
f 324/127/212 323/130/211 325/129/213 326/128/214 
f 326/128/214 325/129/213 327/132/215 328/131/216 
f 328/131/216 327/132/215 318/122/206 317/119/205 
f 318/122/206 329/134/217 330/133/218 319/121/207 
f 319/121/207 330/133/218 331/135/219 321/124/209 
f 321/124/209 331/135/219 332/136/220 323/126/211 
f 323/130/211 332/138/220 333/137/221 325/129/213 
f 325/129/213 333/137/221 334/139/222 327/132/215 
f 327/132/215 334/139/222 329/134/217 318/122/206 
f 329/134/217 335/141/223 336/140/224 330/133/218 
f 330/133/218 336/140/224 337/142/225 331/135/219 
f 331/135/219 337/142/225 338/143/226 332/136/220 
f 332/138/220 338/145/226 339/144/227 333/137/221 
f 333/137/221 339/144/227 340/146/228 334/139/222 
f 334/139/222 340/146/228 335/141/223 329/134/217 
f 335/141/223 341/148/229 342/147/230 336/140/224 
f 336/140/224 342/147/230 343/149/231 337/142/225 
f 337/142/225 343/149/231 344/150/232 338/143/226 
f 338/145/226 344/152/232 345/151/233 339/144/227 
f 339/144/227 345/151/233 346/153/234 340/146/228 
f 340/146/228 346/153/234 341/148/229 335/141/223 
f 341/148/229 347/155/235 348/154/236 342/147/230 
f 342/147/230 348/154/236 349/156/237 343/149/231 
f 343/149/231 349/156/237 350/157/238 344/150/232 
f 344/152/232 350/159/238 351/158/239 345/151/233 
f 345/151/233 351/158/239 352/160/240 346/153/234 
f 346/153/234 352/160/240 347/155/235 341/148/229 
f 353/161/241 354/164/242 355/163/243 356/162/244 
f 356/162/244 355/163/243 357/166/245 358/165/246 
f 358/165/246 357/166/245 359/168/247 360/167/248 
f 360/169/248 359/172/247 361/171/249 362/170/250 
f 362/170/250 361/171/249 363/174/251 364/173/252 
f 364/173/252 363/174/251 354/164/242 353/161/241 
f 354/164/242 365/176/253 366/175/254 355/163/243 
f 355/163/243 366/175/254 367/177/255 357/166/245 
f 357/166/245 367/177/255 368/178/256 359/168/247 
f 359/172/247 368/180/256 369/179/257 361/171/249 
f 361/171/249 369/179/257 370/181/258 363/174/251 
f 363/174/251 370/181/258 365/176/253 354/164/242 
f 365/176/253 371/183/259 372/182/260 366/175/254 
f 366/175/254 372/182/260 373/184/261 367/177/255 
f 367/177/255 373/184/261 374/185/262 368/178/256 
f 368/180/256 374/187/262 375/186/263 369/179/257 
f 369/179/257 375/186/263 376/188/264 370/181/258 
f 370/181/258 376/188/264 371/183/259 365/176/253 
f 371/183/259 377/190/265 378/189/266 372/182/260 
f 372/182/260 378/189/266 379/191/267 373/184/261 
f 373/184/261 379/191/267 380/192/268 374/185/262 
f 374/187/262 380/194/268 381/193/269 375/186/263 
f 375/186/263 381/193/269 382/195/270 376/188/264 
f 376/188/264 382/195/270 377/190/265 371/183/259 
f 377/190/265 383/197/271 384/196/272 378/189/266 
f 378/189/266 384/196/272 385/198/273 379/191/267 
f 379/191/267 385/198/273 386/199/274 380/192/268 
f 380/194/268 386/201/274 387/200/275 381/193/269 
f 381/193/269 387/200/275 388/202/276 382/195/270 
f 382/195/270 388/202/276 383/197/271 377/190/265 
s off
f 347/203/277 389/205/277 348/204/277 
f 348/204/278 389/205/278 349/206/278 
f 349/206/279 389/205/279 350/207/279 
f 350/207/280 389/205/280 351/208/280 
f 351/208/281 389/205/281 352/209/281 
f 352/209/282 389/205/282 347/203/282 
f 383/203/283 390/205/283 384/204/283 
f 384/204/284 390/205/284 385/206/284 
f 385/206/285 390/205/285 386/207/285 
f 386/207/286 390/205/286 387/208/286 
f 387/208/287 390/205/287 388/209/287 
f 388/209/288 390/205/288 383/203/288 
s 1
f 391/210/176 392/213/177 393/212/178 394/211/289 
s 2
f 394/211/3 393/212/3 395/215/3 396/214/3 
s 1
f 396/214/180 395/215/181 397/217/182 398/216/183 
s 2
f 398/216/184 397/217/185 399/219/186 400/218/187 
s 1
f 400/218/5 399/219/154 401/221/154 402/220/5 
s 2
f 402/220/290 401/221/189 392/223/190 391/222/191 
s 1
f 392/213/177 403/225/192 404/224/192 393/212/178 
s 2
f 393/212/3 404/224/3 405/226/3 395/215/3 
s 1
f 395/215/181 405/226/193 406/227/193 397/217/182 
s 2
f 397/217/185 406/227/194 407/228/194 399/219/186 
s 1
f 399/219/154 407/228/5 408/229/5 401/221/154 
s 2
f 401/221/189 408/229/195 403/230/195 392/223/190 
s 4
f 408/109/291 407/110/291 406/108/291 404/106/196 
f 406/108/291 405/107/196 404/106/196 
f 403/111/292 408/109/291 404/106/196 
s 1
f 409/231/197 410/232/198 391/210/176 394/211/289 
s 2
f 411/233/152 409/231/152 394/211/3 396/214/3 
s 1
f 412/234/199 411/233/200 396/214/180 398/216/183 
s 2
f 413/235/201 412/234/202 398/216/184 400/218/187 
s 1
f 414/236/5 413/235/6 400/218/5 402/220/5 
s 2
f 410/237/203 414/236/204 402/220/290 391/222/191 
s 1
f 415/238/176 416/241/177 417/240/178 418/239/289 
s 2
f 418/239/152 417/240/1 419/243/1 420/242/3 
s 1
f 420/242/180 419/243/181 421/245/182 422/244/183 
s 2
f 422/244/184 421/245/185 423/247/186 424/246/187 
s 1
f 424/246/5 423/247/5 425/249/5 426/248/5 
s 2
f 426/248/290 425/249/189 416/251/190 415/250/191 
s 1
f 416/241/177 427/253/192 428/252/192 417/240/178 
s 2
f 417/240/1 428/252/3 429/254/3 419/243/1 
s 1
f 419/243/181 429/254/193 430/255/193 421/245/182 
s 2
f 421/245/185 430/255/194 431/256/194 423/247/186 
s 1
f 423/247/5 431/256/5 432/257/5 425/249/5 
s 2
f 425/249/189 432/257/195 427/258/195 416/251/190 
s 4
f 432/109/291 431/110/291 430/108/291 428/106/196 
f 430/108/291 429/107/196 428/106/196 
f 427/111/292 432/109/291 428/106/196 
s 1
f 433/259/197 434/260/198 415/238/176 418/239/289 
s 2
f 435/261/152 433/259/152 418/239/152 420/242/3 
s 1
f 436/262/199 435/261/200 420/242/180 422/244/183 
s 2
f 437/263/201 436/262/202 422/244/184 424/246/187 
s 1
f 438/264/5 437/263/5 424/246/5 426/248/5 
s 2
f 434/265/203 438/264/204 426/248/290 415/250/191 
s 1
f 311/112/197 212/267/145 211/266/145 312/113/198 
s 2
f 313/114/3 213/268/3 212/267/1 311/112/3 
s 1
f 314/115/199 214/269/147 213/268/146 313/114/200 
s 2
f 315/116/201 215/270/148 214/269/148 314/115/202 
s 1
f 316/117/5 216/271/39 215/270/5 315/116/5 
s 2
f 312/118/203 211/272/150 216/271/149 316/117/204 
s 1
f 409/231/197 218/274/151 217/273/151 410/232/198 
s 2
f 411/233/152 219/275/3 218/274/9 409/231/152 
s 1
f 412/234/199 220/276/147 219/275/146 411/233/200 
s 2
f 413/235/201 221/277/148 220/276/148 412/234/202 
s 1
f 414/236/5 222/278/6 221/277/6 413/235/6 
s 2
f 410/237/203 217/279/150 222/278/149 414/236/204 
s 1
f 433/259/197 224/281/151 223/280/151 434/260/198 
s 2
f 435/261/152 225/282/152 224/281/9 433/259/152 
s 1
f 436/262/199 226/283/147 225/282/147 435/261/200 
s 2
f 437/263/201 227/284/148 226/283/153 436/262/202 
s 1
f 438/264/5 228/285/154 227/284/154 437/263/5 
s 2
f 434/265/203 223/286/149 228/285/149 438/264/204 
# 366 polygons - 84 triangles

